   1               		.file	"ergodox_ez.c"
   2               	__SP_H__ = 0x3e
   3               	__SP_L__ = 0x3d
   4               	__SREG__ = 0x3f
   5               	__tmp_reg__ = 0
   6               	__zero_reg__ = 1
   7               		.text
   8               	.Ltext0:
   9               		.cfi_sections	.debug_frame
  10               		.section	.text.ergodox_board_led_on,"ax",@progbits
  11               	.global	ergodox_board_led_on
  13               	ergodox_board_led_on:
  14               	.LFB112:
  15               		.file 1 "keyboards/ergodox_ez/ergodox_ez.h"
   1:keyboards/ergodox_ez/ergodox_ez.h **** #pragma once
   2:keyboards/ergodox_ez/ergodox_ez.h **** 
   3:keyboards/ergodox_ez/ergodox_ez.h **** #include "quantum.h"
   4:keyboards/ergodox_ez/ergodox_ez.h **** #include <stdint.h>
   5:keyboards/ergodox_ez/ergodox_ez.h **** #include <stdbool.h>
   6:keyboards/ergodox_ez/ergodox_ez.h **** #include "i2c_master.h"
   7:keyboards/ergodox_ez/ergodox_ez.h **** #include <util/delay.h>
   8:keyboards/ergodox_ez/ergodox_ez.h **** 
   9:keyboards/ergodox_ez/ergodox_ez.h **** #define CPU_PRESCALE(n) (CLKPR = 0x80, CLKPR = (n))
  10:keyboards/ergodox_ez/ergodox_ez.h **** #define CPU_16MHz       0x00
  11:keyboards/ergodox_ez/ergodox_ez.h **** 
  12:keyboards/ergodox_ez/ergodox_ez.h **** // I2C aliases and register addresses (see "mcp23018.md")
  13:keyboards/ergodox_ez/ergodox_ez.h **** #define I2C_ADDR        0b0100000
  14:keyboards/ergodox_ez/ergodox_ez.h **** #define I2C_ADDR_WRITE  ( (I2C_ADDR<<1) | I2C_WRITE )
  15:keyboards/ergodox_ez/ergodox_ez.h **** #define I2C_ADDR_READ   ( (I2C_ADDR<<1) | I2C_READ  )
  16:keyboards/ergodox_ez/ergodox_ez.h **** #define IODIRA          0x00            // i/o direction register
  17:keyboards/ergodox_ez/ergodox_ez.h **** #define IODIRB          0x01
  18:keyboards/ergodox_ez/ergodox_ez.h **** #define GPPUA           0x0C            // GPIO pull-up resistor register
  19:keyboards/ergodox_ez/ergodox_ez.h **** #define GPPUB           0x0D
  20:keyboards/ergodox_ez/ergodox_ez.h **** #define GPIOA           0x12            // general purpose i/o port register (write modifies OLAT)
  21:keyboards/ergodox_ez/ergodox_ez.h **** #define GPIOB           0x13
  22:keyboards/ergodox_ez/ergodox_ez.h **** #define OLATA           0x14            // output latch register
  23:keyboards/ergodox_ez/ergodox_ez.h **** #define OLATB           0x15
  24:keyboards/ergodox_ez/ergodox_ez.h **** 
  25:keyboards/ergodox_ez/ergodox_ez.h **** extern i2c_status_t mcp23018_status;
  26:keyboards/ergodox_ez/ergodox_ez.h **** #define ERGODOX_EZ_I2C_TIMEOUT 100
  27:keyboards/ergodox_ez/ergodox_ez.h **** 
  28:keyboards/ergodox_ez/ergodox_ez.h **** void init_ergodox(void);
  29:keyboards/ergodox_ez/ergodox_ez.h **** void ergodox_blink_all_leds(void);
  30:keyboards/ergodox_ez/ergodox_ez.h **** uint8_t init_mcp23018(void);
  31:keyboards/ergodox_ez/ergodox_ez.h **** uint8_t ergodox_left_leds_update(void);
  32:keyboards/ergodox_ez/ergodox_ez.h **** 
  33:keyboards/ergodox_ez/ergodox_ez.h **** #ifndef LED_BRIGHTNESS_LO
  34:keyboards/ergodox_ez/ergodox_ez.h **** #define LED_BRIGHTNESS_LO       15
  35:keyboards/ergodox_ez/ergodox_ez.h **** #endif
  36:keyboards/ergodox_ez/ergodox_ez.h **** #ifndef LED_BRIGHTNESS_HI
  37:keyboards/ergodox_ez/ergodox_ez.h **** #define LED_BRIGHTNESS_HI       255
  38:keyboards/ergodox_ez/ergodox_ez.h **** #endif
  39:keyboards/ergodox_ez/ergodox_ez.h **** 
  40:keyboards/ergodox_ez/ergodox_ez.h **** 
  41:keyboards/ergodox_ez/ergodox_ez.h **** inline void ergodox_board_led_on(void)      { DDRD |=  (1<<6); PORTD |=  (1<<6); }
  16               		.loc 1 41 0
  17               		.cfi_startproc
  18               	/* prologue: function */
  19               	/* frame size = 0 */
  20               	/* stack size = 0 */
  21               	.L__stack_usage = 0
  22               		.loc 1 41 0
  23 0000 569A      		sbi 0xa,6
  24 0002 5E9A      		sbi 0xb,6
  25 0004 0895      		ret
  26               		.cfi_endproc
  27               	.LFE112:
  29               		.section	.text.ergodox_right_led_1_on,"ax",@progbits
  30               	.global	ergodox_right_led_1_on
  32               	ergodox_right_led_1_on:
  33               	.LFB113:
  42:keyboards/ergodox_ez/ergodox_ez.h **** inline void ergodox_right_led_1_on(void)    { DDRB |=  (1<<5); PORTB |=  (1<<5); }
  34               		.loc 1 42 0
  35               		.cfi_startproc
  36               	/* prologue: function */
  37               	/* frame size = 0 */
  38               	/* stack size = 0 */
  39               	.L__stack_usage = 0
  40               		.loc 1 42 0
  41 0000 259A      		sbi 0x4,5
  42 0002 2D9A      		sbi 0x5,5
  43 0004 0895      		ret
  44               		.cfi_endproc
  45               	.LFE113:
  47               		.section	.text.ergodox_right_led_2_on,"ax",@progbits
  48               	.global	ergodox_right_led_2_on
  50               	ergodox_right_led_2_on:
  51               	.LFB114:
  43:keyboards/ergodox_ez/ergodox_ez.h **** inline void ergodox_right_led_2_on(void)    { DDRB |=  (1<<6); PORTB |=  (1<<6); }
  52               		.loc 1 43 0
  53               		.cfi_startproc
  54               	/* prologue: function */
  55               	/* frame size = 0 */
  56               	/* stack size = 0 */
  57               	.L__stack_usage = 0
  58               		.loc 1 43 0
  59 0000 269A      		sbi 0x4,6
  60 0002 2E9A      		sbi 0x5,6
  61 0004 0895      		ret
  62               		.cfi_endproc
  63               	.LFE114:
  65               		.section	.text.ergodox_right_led_3_on,"ax",@progbits
  66               	.global	ergodox_right_led_3_on
  68               	ergodox_right_led_3_on:
  69               	.LFB115:
  44:keyboards/ergodox_ez/ergodox_ez.h **** inline void ergodox_right_led_3_on(void)    { DDRB |=  (1<<7); PORTB |=  (1<<7); }
  70               		.loc 1 44 0
  71               		.cfi_startproc
  72               	/* prologue: function */
  73               	/* frame size = 0 */
  74               	/* stack size = 0 */
  75               	.L__stack_usage = 0
  76               		.loc 1 44 0
  77 0000 279A      		sbi 0x4,7
  78 0002 2F9A      		sbi 0x5,7
  79 0004 0895      		ret
  80               		.cfi_endproc
  81               	.LFE115:
  83               		.section	.text.ergodox_right_led_on,"ax",@progbits
  84               	.global	ergodox_right_led_on
  86               	ergodox_right_led_on:
  87               	.LFB116:
  45:keyboards/ergodox_ez/ergodox_ez.h **** inline void ergodox_right_led_on(uint8_t led) { DDRB |= (1<<(led+4)); PORTB |= (1<<(led+4)); }
  88               		.loc 1 45 0
  89               		.cfi_startproc
  90               	.LVL0:
  91               	/* prologue: function */
  92               	/* frame size = 0 */
  93               	/* stack size = 0 */
  94               	.L__stack_usage = 0
  95               		.loc 1 45 0
  96 0000 24B1      		in r18,0x4
  97 0002 34E0      		ldi r19,lo8(4)
  98 0004 380F      		add r19,r24
  99 0006 81E0      		ldi r24,lo8(1)
 100 0008 90E0      		ldi r25,0
 101               	.LVL1:
 102 000a 00C0      		rjmp 2f
 103               		1:
 104 000c 880F      		lsl r24
 105               		2:
 106 000e 3A95      		dec r19
 107 0010 02F4      		brpl 1b
 108 0012 282B      		or r18,r24
 109 0014 24B9      		out 0x4,r18
 110 0016 95B1      		in r25,0x5
 111 0018 892B      		or r24,r25
 112 001a 85B9      		out 0x5,r24
 113 001c 0895      		ret
 114               		.cfi_endproc
 115               	.LFE116:
 117               		.section	.text.ergodox_board_led_off,"ax",@progbits
 118               	.global	ergodox_board_led_off
 120               	ergodox_board_led_off:
 121               	.LFB117:
  46:keyboards/ergodox_ez/ergodox_ez.h **** 
  47:keyboards/ergodox_ez/ergodox_ez.h **** inline void ergodox_board_led_off(void)     { DDRD &= ~(1<<6); PORTD &= ~(1<<6); }
 122               		.loc 1 47 0
 123               		.cfi_startproc
 124               	/* prologue: function */
 125               	/* frame size = 0 */
 126               	/* stack size = 0 */
 127               	.L__stack_usage = 0
 128               		.loc 1 47 0
 129 0000 5698      		cbi 0xa,6
 130 0002 5E98      		cbi 0xb,6
 131 0004 0895      		ret
 132               		.cfi_endproc
 133               	.LFE117:
 135               		.section	.text.ergodox_right_led_1_off,"ax",@progbits
 136               	.global	ergodox_right_led_1_off
 138               	ergodox_right_led_1_off:
 139               	.LFB118:
  48:keyboards/ergodox_ez/ergodox_ez.h **** inline void ergodox_right_led_1_off(void)   { DDRB &= ~(1<<5); PORTB &= ~(1<<5); }
 140               		.loc 1 48 0
 141               		.cfi_startproc
 142               	/* prologue: function */
 143               	/* frame size = 0 */
 144               	/* stack size = 0 */
 145               	.L__stack_usage = 0
 146               		.loc 1 48 0
 147 0000 2598      		cbi 0x4,5
 148 0002 2D98      		cbi 0x5,5
 149 0004 0895      		ret
 150               		.cfi_endproc
 151               	.LFE118:
 153               		.section	.text.ergodox_right_led_2_off,"ax",@progbits
 154               	.global	ergodox_right_led_2_off
 156               	ergodox_right_led_2_off:
 157               	.LFB119:
  49:keyboards/ergodox_ez/ergodox_ez.h **** inline void ergodox_right_led_2_off(void)   { DDRB &= ~(1<<6); PORTB &= ~(1<<6); }
 158               		.loc 1 49 0
 159               		.cfi_startproc
 160               	/* prologue: function */
 161               	/* frame size = 0 */
 162               	/* stack size = 0 */
 163               	.L__stack_usage = 0
 164               		.loc 1 49 0
 165 0000 2698      		cbi 0x4,6
 166 0002 2E98      		cbi 0x5,6
 167 0004 0895      		ret
 168               		.cfi_endproc
 169               	.LFE119:
 171               		.section	.text.ergodox_right_led_3_off,"ax",@progbits
 172               	.global	ergodox_right_led_3_off
 174               	ergodox_right_led_3_off:
 175               	.LFB120:
  50:keyboards/ergodox_ez/ergodox_ez.h **** inline void ergodox_right_led_3_off(void)   { DDRB &= ~(1<<7); PORTB &= ~(1<<7); }
 176               		.loc 1 50 0
 177               		.cfi_startproc
 178               	/* prologue: function */
 179               	/* frame size = 0 */
 180               	/* stack size = 0 */
 181               	.L__stack_usage = 0
 182               		.loc 1 50 0
 183 0000 2798      		cbi 0x4,7
 184 0002 2F98      		cbi 0x5,7
 185 0004 0895      		ret
 186               		.cfi_endproc
 187               	.LFE120:
 189               		.section	.text.ergodox_right_led_off,"ax",@progbits
 190               	.global	ergodox_right_led_off
 192               	ergodox_right_led_off:
 193               	.LFB121:
  51:keyboards/ergodox_ez/ergodox_ez.h **** inline void ergodox_right_led_off(uint8_t led) { DDRB &= ~(1<<(led+4)); PORTB &= ~(1<<(led+4)); }
 194               		.loc 1 51 0
 195               		.cfi_startproc
 196               	.LVL2:
 197               	/* prologue: function */
 198               	/* frame size = 0 */
 199               	/* stack size = 0 */
 200               	.L__stack_usage = 0
 201               		.loc 1 51 0
 202 0000 24B1      		in r18,0x4
 203 0002 34E0      		ldi r19,lo8(4)
 204 0004 380F      		add r19,r24
 205 0006 81E0      		ldi r24,lo8(1)
 206 0008 90E0      		ldi r25,0
 207               	.LVL3:
 208 000a 00C0      		rjmp 2f
 209               		1:
 210 000c 880F      		lsl r24
 211               		2:
 212 000e 3A95      		dec r19
 213 0010 02F4      		brpl 1b
 214 0012 8095      		com r24
 215 0014 2823      		and r18,r24
 216 0016 24B9      		out 0x4,r18
 217 0018 95B1      		in r25,0x5
 218 001a 8923      		and r24,r25
 219 001c 85B9      		out 0x5,r24
 220 001e 0895      		ret
 221               		.cfi_endproc
 222               	.LFE121:
 224               		.section	.text.ergodox_led_all_on,"ax",@progbits
 225               	.global	ergodox_led_all_on
 227               	ergodox_led_all_on:
 228               	.LFB122:
  52:keyboards/ergodox_ez/ergodox_ez.h **** 
  53:keyboards/ergodox_ez/ergodox_ez.h **** #ifdef LEFT_LEDS
  54:keyboards/ergodox_ez/ergodox_ez.h **** bool ergodox_left_led_1;
  55:keyboards/ergodox_ez/ergodox_ez.h **** bool ergodox_left_led_2;
  56:keyboards/ergodox_ez/ergodox_ez.h **** bool ergodox_left_led_3;
  57:keyboards/ergodox_ez/ergodox_ez.h **** 
  58:keyboards/ergodox_ez/ergodox_ez.h **** inline void ergodox_left_led_1_on(void)    { ergodox_left_led_1 = 1; }
  59:keyboards/ergodox_ez/ergodox_ez.h **** inline void ergodox_left_led_2_on(void)    { ergodox_left_led_2 = 1; }
  60:keyboards/ergodox_ez/ergodox_ez.h **** inline void ergodox_left_led_3_on(void)    { ergodox_left_led_3 = 1; }
  61:keyboards/ergodox_ez/ergodox_ez.h **** 
  62:keyboards/ergodox_ez/ergodox_ez.h **** inline void ergodox_left_led_1_off(void)    { ergodox_left_led_1 = 0; }
  63:keyboards/ergodox_ez/ergodox_ez.h **** inline void ergodox_left_led_2_off(void)    { ergodox_left_led_2 = 0; }
  64:keyboards/ergodox_ez/ergodox_ez.h **** inline void ergodox_left_led_3_off(void)    { ergodox_left_led_3 = 0; }
  65:keyboards/ergodox_ez/ergodox_ez.h **** #endif // LEFT_LEDS
  66:keyboards/ergodox_ez/ergodox_ez.h **** 
  67:keyboards/ergodox_ez/ergodox_ez.h **** inline void ergodox_led_all_on(void) {
 229               		.loc 1 67 0
 230               		.cfi_startproc
 231               	/* prologue: function */
 232               	/* frame size = 0 */
 233               	/* stack size = 0 */
 234               	.L__stack_usage = 0
 235               	.LBB85:
 236               	.LBB86:
  41:keyboards/ergodox_ez/ergodox_ez.h **** inline void ergodox_right_led_1_on(void)    { DDRB |=  (1<<5); PORTB |=  (1<<5); }
 237               		.loc 1 41 0
 238 0000 569A      		sbi 0xa,6
 239 0002 5E9A      		sbi 0xb,6
 240               	.LBE86:
 241               	.LBE85:
 242               	.LBB87:
 243               	.LBB88:
  42:keyboards/ergodox_ez/ergodox_ez.h **** inline void ergodox_right_led_2_on(void)    { DDRB |=  (1<<6); PORTB |=  (1<<6); }
 244               		.loc 1 42 0
 245 0004 259A      		sbi 0x4,5
 246 0006 2D9A      		sbi 0x5,5
 247               	.LBE88:
 248               	.LBE87:
 249               	.LBB89:
 250               	.LBB90:
  43:keyboards/ergodox_ez/ergodox_ez.h **** inline void ergodox_right_led_3_on(void)    { DDRB |=  (1<<7); PORTB |=  (1<<7); }
 251               		.loc 1 43 0
 252 0008 269A      		sbi 0x4,6
 253 000a 2E9A      		sbi 0x5,6
 254               	.LBE90:
 255               	.LBE89:
 256               	.LBB91:
 257               	.LBB92:
  44:keyboards/ergodox_ez/ergodox_ez.h **** inline void ergodox_right_led_on(uint8_t led) { DDRB |= (1<<(led+4)); PORTB |= (1<<(led+4)); }
 258               		.loc 1 44 0
 259 000c 279A      		sbi 0x4,7
 260 000e 2F9A      		sbi 0x5,7
 261 0010 0895      		ret
 262               	.LBE92:
 263               	.LBE91:
 264               		.cfi_endproc
 265               	.LFE122:
 267               		.section	.text.ergodox_led_all_off,"ax",@progbits
 268               	.global	ergodox_led_all_off
 270               	ergodox_led_all_off:
 271               	.LFB123:
  68:keyboards/ergodox_ez/ergodox_ez.h ****     ergodox_board_led_on();
  69:keyboards/ergodox_ez/ergodox_ez.h ****     ergodox_right_led_1_on();
  70:keyboards/ergodox_ez/ergodox_ez.h ****     ergodox_right_led_2_on();
  71:keyboards/ergodox_ez/ergodox_ez.h ****     ergodox_right_led_3_on();
  72:keyboards/ergodox_ez/ergodox_ez.h **** #ifdef LEFT_LEDS
  73:keyboards/ergodox_ez/ergodox_ez.h ****     ergodox_left_led_1_on();
  74:keyboards/ergodox_ez/ergodox_ez.h ****     ergodox_left_led_2_on();
  75:keyboards/ergodox_ez/ergodox_ez.h ****     ergodox_left_led_3_on();
  76:keyboards/ergodox_ez/ergodox_ez.h **** #endif // LEFT_LEDS
  77:keyboards/ergodox_ez/ergodox_ez.h **** }
  78:keyboards/ergodox_ez/ergodox_ez.h **** 
  79:keyboards/ergodox_ez/ergodox_ez.h **** inline void ergodox_led_all_off(void)
  80:keyboards/ergodox_ez/ergodox_ez.h **** {
 272               		.loc 1 80 0
 273               		.cfi_startproc
 274               	/* prologue: function */
 275               	/* frame size = 0 */
 276               	/* stack size = 0 */
 277               	.L__stack_usage = 0
 278               	.LBB93:
 279               	.LBB94:
  47:keyboards/ergodox_ez/ergodox_ez.h **** inline void ergodox_right_led_1_off(void)   { DDRB &= ~(1<<5); PORTB &= ~(1<<5); }
 280               		.loc 1 47 0
 281 0000 5698      		cbi 0xa,6
 282 0002 5E98      		cbi 0xb,6
 283               	.LBE94:
 284               	.LBE93:
 285               	.LBB95:
 286               	.LBB96:
  48:keyboards/ergodox_ez/ergodox_ez.h **** inline void ergodox_right_led_2_off(void)   { DDRB &= ~(1<<6); PORTB &= ~(1<<6); }
 287               		.loc 1 48 0
 288 0004 2598      		cbi 0x4,5
 289 0006 2D98      		cbi 0x5,5
 290               	.LBE96:
 291               	.LBE95:
 292               	.LBB97:
 293               	.LBB98:
  49:keyboards/ergodox_ez/ergodox_ez.h **** inline void ergodox_right_led_3_off(void)   { DDRB &= ~(1<<7); PORTB &= ~(1<<7); }
 294               		.loc 1 49 0
 295 0008 2698      		cbi 0x4,6
 296 000a 2E98      		cbi 0x5,6
 297               	.LBE98:
 298               	.LBE97:
 299               	.LBB99:
 300               	.LBB100:
  50:keyboards/ergodox_ez/ergodox_ez.h **** inline void ergodox_right_led_off(uint8_t led) { DDRB &= ~(1<<(led+4)); PORTB &= ~(1<<(led+4)); }
 301               		.loc 1 50 0
 302 000c 2798      		cbi 0x4,7
 303 000e 2F98      		cbi 0x5,7
 304 0010 0895      		ret
 305               	.LBE100:
 306               	.LBE99:
 307               		.cfi_endproc
 308               	.LFE123:
 310               		.section	.text.ergodox_right_led_1_set,"ax",@progbits
 311               	.global	ergodox_right_led_1_set
 313               	ergodox_right_led_1_set:
 314               	.LFB124:
  81:keyboards/ergodox_ez/ergodox_ez.h ****     ergodox_board_led_off();
  82:keyboards/ergodox_ez/ergodox_ez.h ****     ergodox_right_led_1_off();
  83:keyboards/ergodox_ez/ergodox_ez.h ****     ergodox_right_led_2_off();
  84:keyboards/ergodox_ez/ergodox_ez.h ****     ergodox_right_led_3_off();
  85:keyboards/ergodox_ez/ergodox_ez.h **** #ifdef LEFT_LEDS
  86:keyboards/ergodox_ez/ergodox_ez.h ****     ergodox_left_led_1_off();
  87:keyboards/ergodox_ez/ergodox_ez.h ****     ergodox_left_led_2_off();
  88:keyboards/ergodox_ez/ergodox_ez.h ****     ergodox_left_led_3_off();
  89:keyboards/ergodox_ez/ergodox_ez.h **** #endif // LEFT_LEDS
  90:keyboards/ergodox_ez/ergodox_ez.h **** }
  91:keyboards/ergodox_ez/ergodox_ez.h **** 
  92:keyboards/ergodox_ez/ergodox_ez.h **** inline void ergodox_right_led_1_set(uint8_t n)    { OCR1A = n; }
 315               		.loc 1 92 0
 316               		.cfi_startproc
 317               	.LVL4:
 318               	/* prologue: function */
 319               	/* frame size = 0 */
 320               	/* stack size = 0 */
 321               	.L__stack_usage = 0
 322               		.loc 1 92 0
 323 0000 90E0      		ldi r25,0
 324 0002 9093 8900 		sts 136+1,r25
 325 0006 8093 8800 		sts 136,r24
 326 000a 0895      		ret
 327               		.cfi_endproc
 328               	.LFE124:
 330               		.section	.text.ergodox_right_led_2_set,"ax",@progbits
 331               	.global	ergodox_right_led_2_set
 333               	ergodox_right_led_2_set:
 334               	.LFB125:
  93:keyboards/ergodox_ez/ergodox_ez.h **** inline void ergodox_right_led_2_set(uint8_t n)    { OCR1B = n; }
 335               		.loc 1 93 0
 336               		.cfi_startproc
 337               	.LVL5:
 338               	/* prologue: function */
 339               	/* frame size = 0 */
 340               	/* stack size = 0 */
 341               	.L__stack_usage = 0
 342               		.loc 1 93 0
 343 0000 90E0      		ldi r25,0
 344 0002 9093 8B00 		sts 138+1,r25
 345 0006 8093 8A00 		sts 138,r24
 346 000a 0895      		ret
 347               		.cfi_endproc
 348               	.LFE125:
 350               		.section	.text.ergodox_right_led_3_set,"ax",@progbits
 351               	.global	ergodox_right_led_3_set
 353               	ergodox_right_led_3_set:
 354               	.LFB126:
  94:keyboards/ergodox_ez/ergodox_ez.h **** inline void ergodox_right_led_3_set(uint8_t n)    { OCR1C = n; }
 355               		.loc 1 94 0
 356               		.cfi_startproc
 357               	.LVL6:
 358               	/* prologue: function */
 359               	/* frame size = 0 */
 360               	/* stack size = 0 */
 361               	.L__stack_usage = 0
 362               		.loc 1 94 0
 363 0000 90E0      		ldi r25,0
 364 0002 9093 8D00 		sts 140+1,r25
 365 0006 8093 8C00 		sts 140,r24
 366 000a 0895      		ret
 367               		.cfi_endproc
 368               	.LFE126:
 370               		.section	.text.ergodox_right_led_set,"ax",@progbits
 371               	.global	ergodox_right_led_set
 373               	ergodox_right_led_set:
 374               	.LFB127:
  95:keyboards/ergodox_ez/ergodox_ez.h **** inline void ergodox_right_led_set(uint8_t led, uint8_t n)  {
 375               		.loc 1 95 0
 376               		.cfi_startproc
 377               	.LVL7:
 378               	/* prologue: function */
 379               	/* frame size = 0 */
 380               	/* stack size = 0 */
 381               	.L__stack_usage = 0
 382 0000 70E0      		ldi r23,0
  96:keyboards/ergodox_ez/ergodox_ez.h ****     (led == 1) ? (OCR1A = n) :
 383               		.loc 1 96 0
 384 0002 8130      		cpi r24,lo8(1)
 385 0004 01F4      		brne .L17
 386               		.loc 1 96 0 is_stmt 0 discriminator 1
 387 0006 7093 8900 		sts 136+1,r23
 388 000a 6093 8800 		sts 136,r22
 389 000e 0895      		ret
 390               	.L17:
  97:keyboards/ergodox_ez/ergodox_ez.h ****     (led == 2) ? (OCR1B = n) :
 391               		.loc 1 97 0 is_stmt 1
 392 0010 8230      		cpi r24,lo8(2)
 393 0012 01F4      		brne .L19
 394               		.loc 1 97 0 is_stmt 0 discriminator 1
 395 0014 7093 8B00 		sts 138+1,r23
 396 0018 6093 8A00 		sts 138,r22
 397 001c 0895      		ret
 398               	.L19:
  98:keyboards/ergodox_ez/ergodox_ez.h ****                  (OCR1C = n);
 399               		.loc 1 98 0 is_stmt 1 discriminator 2
 400 001e 7093 8D00 		sts 140+1,r23
 401 0022 6093 8C00 		sts 140,r22
 402 0026 0895      		ret
 403               		.cfi_endproc
 404               	.LFE127:
 406               		.section	.text.ergodox_led_all_set,"ax",@progbits
 407               	.global	ergodox_led_all_set
 409               	ergodox_led_all_set:
 410               	.LFB128:
  99:keyboards/ergodox_ez/ergodox_ez.h **** }
 100:keyboards/ergodox_ez/ergodox_ez.h **** 
 101:keyboards/ergodox_ez/ergodox_ez.h **** inline void ergodox_led_all_set(uint8_t n) {
 411               		.loc 1 101 0
 412               		.cfi_startproc
 413               	.LVL8:
 414               	/* prologue: function */
 415               	/* frame size = 0 */
 416               	/* stack size = 0 */
 417               	.L__stack_usage = 0
 418               	.LBB101:
 419               	.LBB102:
  92:keyboards/ergodox_ez/ergodox_ez.h **** inline void ergodox_right_led_2_set(uint8_t n)    { OCR1B = n; }
 420               		.loc 1 92 0
 421 0000 90E0      		ldi r25,0
 422 0002 9093 8900 		sts 136+1,r25
 423 0006 8093 8800 		sts 136,r24
 424               	.LVL9:
 425               	.LBE102:
 426               	.LBE101:
 427               	.LBB103:
 428               	.LBB104:
  93:keyboards/ergodox_ez/ergodox_ez.h **** inline void ergodox_right_led_3_set(uint8_t n)    { OCR1C = n; }
 429               		.loc 1 93 0
 430 000a 9093 8B00 		sts 138+1,r25
 431 000e 8093 8A00 		sts 138,r24
 432               	.LVL10:
 433               	.LBE104:
 434               	.LBE103:
 435               	.LBB105:
 436               	.LBB106:
  94:keyboards/ergodox_ez/ergodox_ez.h **** inline void ergodox_right_led_set(uint8_t led, uint8_t n)  {
 437               		.loc 1 94 0
 438 0012 9093 8D00 		sts 140+1,r25
 439 0016 8093 8C00 		sts 140,r24
 440               	.LVL11:
 441 001a 0895      		ret
 442               	.LBE106:
 443               	.LBE105:
 444               		.cfi_endproc
 445               	.LFE128:
 447               		.section	.text.ergodox_blink_all_leds,"ax",@progbits
 448               	.global	ergodox_blink_all_leds
 450               	ergodox_blink_all_leds:
 451               	.LFB130:
 452               		.file 2 "keyboards/ergodox_ez/ergodox_ez.c"
   1:keyboards/ergodox_ez/ergodox_ez.c **** #include QMK_KEYBOARD_H
   2:keyboards/ergodox_ez/ergodox_ez.c **** #include "print.h"
   3:keyboards/ergodox_ez/ergodox_ez.c **** 
   4:keyboards/ergodox_ez/ergodox_ez.c **** extern inline void ergodox_board_led_on(void);
   5:keyboards/ergodox_ez/ergodox_ez.c **** extern inline void ergodox_right_led_1_on(void);
   6:keyboards/ergodox_ez/ergodox_ez.c **** extern inline void ergodox_right_led_2_on(void);
   7:keyboards/ergodox_ez/ergodox_ez.c **** extern inline void ergodox_right_led_3_on(void);
   8:keyboards/ergodox_ez/ergodox_ez.c **** extern inline void ergodox_right_led_on(uint8_t led);
   9:keyboards/ergodox_ez/ergodox_ez.c **** 
  10:keyboards/ergodox_ez/ergodox_ez.c **** extern inline void ergodox_board_led_off(void);
  11:keyboards/ergodox_ez/ergodox_ez.c **** extern inline void ergodox_right_led_1_off(void);
  12:keyboards/ergodox_ez/ergodox_ez.c **** extern inline void ergodox_right_led_2_off(void);
  13:keyboards/ergodox_ez/ergodox_ez.c **** extern inline void ergodox_right_led_3_off(void);
  14:keyboards/ergodox_ez/ergodox_ez.c **** extern inline void ergodox_right_led_off(uint8_t led);
  15:keyboards/ergodox_ez/ergodox_ez.c **** 
  16:keyboards/ergodox_ez/ergodox_ez.c **** extern inline void ergodox_led_all_on(void);
  17:keyboards/ergodox_ez/ergodox_ez.c **** extern inline void ergodox_led_all_off(void);
  18:keyboards/ergodox_ez/ergodox_ez.c **** 
  19:keyboards/ergodox_ez/ergodox_ez.c **** extern inline void ergodox_right_led_1_set(uint8_t n);
  20:keyboards/ergodox_ez/ergodox_ez.c **** extern inline void ergodox_right_led_2_set(uint8_t n);
  21:keyboards/ergodox_ez/ergodox_ez.c **** extern inline void ergodox_right_led_3_set(uint8_t n);
  22:keyboards/ergodox_ez/ergodox_ez.c **** extern inline void ergodox_right_led_set(uint8_t led, uint8_t n);
  23:keyboards/ergodox_ez/ergodox_ez.c **** 
  24:keyboards/ergodox_ez/ergodox_ez.c **** extern inline void ergodox_led_all_set(uint8_t n);
  25:keyboards/ergodox_ez/ergodox_ez.c **** 
  26:keyboards/ergodox_ez/ergodox_ez.c **** keyboard_config_t keyboard_config;
  27:keyboards/ergodox_ez/ergodox_ez.c **** 
  28:keyboards/ergodox_ez/ergodox_ez.c **** bool i2c_initialized = 0;
  29:keyboards/ergodox_ez/ergodox_ez.c **** i2c_status_t mcp23018_status = 0x20;
  30:keyboards/ergodox_ez/ergodox_ez.c **** 
  31:keyboards/ergodox_ez/ergodox_ez.c **** void matrix_init_kb(void) {
  32:keyboards/ergodox_ez/ergodox_ez.c ****    // keyboard LEDs (see "PWM on ports OC1(A|B|C)" in "teensy-2-0.md")
  33:keyboards/ergodox_ez/ergodox_ez.c ****     TCCR1A = 0b10101001;  // set and configure fast PWM
  34:keyboards/ergodox_ez/ergodox_ez.c ****     TCCR1B = 0b00001001;  // set and configure fast PWM
  35:keyboards/ergodox_ez/ergodox_ez.c **** 
  36:keyboards/ergodox_ez/ergodox_ez.c ****     // (tied to Vcc for hardware convenience)
  37:keyboards/ergodox_ez/ergodox_ez.c ****     DDRB  &= ~(1<<4);  // set B(4) as input
  38:keyboards/ergodox_ez/ergodox_ez.c ****     PORTB &= ~(1<<4);  // set B(4) internal pull-up disabled
  39:keyboards/ergodox_ez/ergodox_ez.c **** 
  40:keyboards/ergodox_ez/ergodox_ez.c ****     // unused pins - C7, D4, D5, D7, E6
  41:keyboards/ergodox_ez/ergodox_ez.c ****     // set as input with internal pull-up enabled
  42:keyboards/ergodox_ez/ergodox_ez.c ****     DDRC  &= ~(1<<7);
  43:keyboards/ergodox_ez/ergodox_ez.c ****     DDRD  &= ~(1<<5 | 1<<4);
  44:keyboards/ergodox_ez/ergodox_ez.c ****     DDRE  &= ~(1<<6);
  45:keyboards/ergodox_ez/ergodox_ez.c ****     PORTC |=  (1<<7);
  46:keyboards/ergodox_ez/ergodox_ez.c ****     PORTD |=  (1<<5 | 1<<4);
  47:keyboards/ergodox_ez/ergodox_ez.c ****     PORTE |=  (1<<6);
  48:keyboards/ergodox_ez/ergodox_ez.c **** 
  49:keyboards/ergodox_ez/ergodox_ez.c ****     keyboard_config.raw = eeconfig_read_kb();
  50:keyboards/ergodox_ez/ergodox_ez.c ****     ergodox_led_all_set((uint8_t)keyboard_config.led_level * 255 / 4 );
  51:keyboards/ergodox_ez/ergodox_ez.c **** #ifdef RGB_MATRIX_ENABLE
  52:keyboards/ergodox_ez/ergodox_ez.c ****     if (keyboard_config.rgb_matrix_enable) {
  53:keyboards/ergodox_ez/ergodox_ez.c ****         rgb_matrix_set_flags(LED_FLAG_ALL);
  54:keyboards/ergodox_ez/ergodox_ez.c ****     } else {
  55:keyboards/ergodox_ez/ergodox_ez.c ****         rgb_matrix_set_flags(LED_FLAG_NONE);
  56:keyboards/ergodox_ez/ergodox_ez.c ****     }
  57:keyboards/ergodox_ez/ergodox_ez.c **** #endif
  58:keyboards/ergodox_ez/ergodox_ez.c **** 
  59:keyboards/ergodox_ez/ergodox_ez.c ****     ergodox_blink_all_leds();
  60:keyboards/ergodox_ez/ergodox_ez.c **** 
  61:keyboards/ergodox_ez/ergodox_ez.c ****     matrix_init_user();
  62:keyboards/ergodox_ez/ergodox_ez.c **** }
  63:keyboards/ergodox_ez/ergodox_ez.c **** 
  64:keyboards/ergodox_ez/ergodox_ez.c **** void ergodox_blink_all_leds(void)
  65:keyboards/ergodox_ez/ergodox_ez.c **** {
 453               		.loc 2 65 0
 454               		.cfi_startproc
 455               	/* prologue: function */
 456               	/* frame size = 0 */
 457               	/* stack size = 0 */
 458               	.L__stack_usage = 0
 459               	.LBB107:
 460               	.LBB108:
 461               	.LBB109:
  47:keyboards/ergodox_ez/ergodox_ez.h **** inline void ergodox_right_led_1_off(void)   { DDRB &= ~(1<<5); PORTB &= ~(1<<5); }
 462               		.loc 1 47 0
 463 0000 5698      		cbi 0xa,6
 464 0002 5E98      		cbi 0xb,6
 465               	.LBE109:
 466               	.LBE108:
 467               	.LBB110:
 468               	.LBB111:
  48:keyboards/ergodox_ez/ergodox_ez.h **** inline void ergodox_right_led_2_off(void)   { DDRB &= ~(1<<6); PORTB &= ~(1<<6); }
 469               		.loc 1 48 0
 470 0004 2598      		cbi 0x4,5
 471 0006 2D98      		cbi 0x5,5
 472               	.LBE111:
 473               	.LBE110:
 474               	.LBB112:
 475               	.LBB113:
  49:keyboards/ergodox_ez/ergodox_ez.h **** inline void ergodox_right_led_3_off(void)   { DDRB &= ~(1<<7); PORTB &= ~(1<<7); }
 476               		.loc 1 49 0
 477 0008 2698      		cbi 0x4,6
 478 000a 2E98      		cbi 0x5,6
 479               	.LBE113:
 480               	.LBE112:
 481               	.LBB114:
 482               	.LBB115:
  50:keyboards/ergodox_ez/ergodox_ez.h **** inline void ergodox_right_led_off(uint8_t led) { DDRB &= ~(1<<(led+4)); PORTB &= ~(1<<(led+4)); }
 483               		.loc 1 50 0
 484 000c 2798      		cbi 0x4,7
 485 000e 2F98      		cbi 0x5,7
 486               	.LVL12:
 487               	.LBE115:
 488               	.LBE114:
 489               	.LBE107:
 490               	.LBB116:
 491               	.LBB117:
 492               	.LBB118:
  92:keyboards/ergodox_ez/ergodox_ez.h **** inline void ergodox_right_led_2_set(uint8_t n)    { OCR1B = n; }
 493               		.loc 1 92 0
 494 0010 8FEF      		ldi r24,lo8(-1)
 495 0012 90E0      		ldi r25,0
 496 0014 9093 8900 		sts 136+1,r25
 497 0018 8093 8800 		sts 136,r24
 498               	.LVL13:
 499               	.LBE118:
 500               	.LBE117:
 501               	.LBB119:
 502               	.LBB120:
  93:keyboards/ergodox_ez/ergodox_ez.h **** inline void ergodox_right_led_3_set(uint8_t n)    { OCR1C = n; }
 503               		.loc 1 93 0
 504 001c 9093 8B00 		sts 138+1,r25
 505 0020 8093 8A00 		sts 138,r24
 506               	.LVL14:
 507               	.LBE120:
 508               	.LBE119:
 509               	.LBB121:
 510               	.LBB122:
  94:keyboards/ergodox_ez/ergodox_ez.h **** inline void ergodox_right_led_set(uint8_t led, uint8_t n)  {
 511               		.loc 1 94 0
 512 0024 9093 8D00 		sts 140+1,r25
 513 0028 8093 8C00 		sts 140,r24
 514               	.LVL15:
 515               	.LBE122:
 516               	.LBE121:
 517               	.LBE116:
 518               	.LBB123:
 519               	.LBB124:
  42:keyboards/ergodox_ez/ergodox_ez.h **** inline void ergodox_right_led_2_on(void)    { DDRB |=  (1<<6); PORTB |=  (1<<6); }
 520               		.loc 1 42 0
 521 002c 259A      		sbi 0x4,5
 522 002e 2D9A      		sbi 0x5,5
 523               	.LVL16:
 524               	.LBE124:
 525               	.LBE123:
 526               	.LBB125:
 527               	.LBB126:
 528               		.file 3 "/usr/lib/avr/include/util/delay.h"
   1:/usr/lib/avr/include/util/delay.h **** /* Copyright (c) 2002, Marek Michalkiewicz
   2:/usr/lib/avr/include/util/delay.h ****    Copyright (c) 2004,2005,2007 Joerg Wunsch
   3:/usr/lib/avr/include/util/delay.h ****    Copyright (c) 2007  Florin-Viorel Petrov
   4:/usr/lib/avr/include/util/delay.h ****    All rights reserved.
   5:/usr/lib/avr/include/util/delay.h **** 
   6:/usr/lib/avr/include/util/delay.h ****    Redistribution and use in source and binary forms, with or without
   7:/usr/lib/avr/include/util/delay.h ****    modification, are permitted provided that the following conditions are met:
   8:/usr/lib/avr/include/util/delay.h **** 
   9:/usr/lib/avr/include/util/delay.h ****    * Redistributions of source code must retain the above copyright
  10:/usr/lib/avr/include/util/delay.h ****      notice, this list of conditions and the following disclaimer.
  11:/usr/lib/avr/include/util/delay.h **** 
  12:/usr/lib/avr/include/util/delay.h ****    * Redistributions in binary form must reproduce the above copyright
  13:/usr/lib/avr/include/util/delay.h ****      notice, this list of conditions and the following disclaimer in
  14:/usr/lib/avr/include/util/delay.h ****      the documentation and/or other materials provided with the
  15:/usr/lib/avr/include/util/delay.h ****      distribution.
  16:/usr/lib/avr/include/util/delay.h **** 
  17:/usr/lib/avr/include/util/delay.h ****    * Neither the name of the copyright holders nor the names of
  18:/usr/lib/avr/include/util/delay.h ****      contributors may be used to endorse or promote products derived
  19:/usr/lib/avr/include/util/delay.h ****      from this software without specific prior written permission.
  20:/usr/lib/avr/include/util/delay.h **** 
  21:/usr/lib/avr/include/util/delay.h ****   THIS SOFTWARE IS PROVIDED BY THE COPYRIGHT HOLDERS AND CONTRIBUTORS "AS IS"
  22:/usr/lib/avr/include/util/delay.h ****   AND ANY EXPRESS OR IMPLIED WARRANTIES, INCLUDING, BUT NOT LIMITED TO, THE
  23:/usr/lib/avr/include/util/delay.h ****   IMPLIED WARRANTIES OF MERCHANTABILITY AND FITNESS FOR A PARTICULAR PURPOSE
  24:/usr/lib/avr/include/util/delay.h ****   ARE DISCLAIMED. IN NO EVENT SHALL THE COPYRIGHT OWNER OR CONTRIBUTORS BE
  25:/usr/lib/avr/include/util/delay.h ****   LIABLE FOR ANY DIRECT, INDIRECT, INCIDENTAL, SPECIAL, EXEMPLARY, OR
  26:/usr/lib/avr/include/util/delay.h ****   CONSEQUENTIAL DAMAGES (INCLUDING, BUT NOT LIMITED TO, PROCUREMENT OF
  27:/usr/lib/avr/include/util/delay.h ****   SUBSTITUTE GOODS OR SERVICES; LOSS OF USE, DATA, OR PROFITS; OR BUSINESS
  28:/usr/lib/avr/include/util/delay.h ****   INTERRUPTION) HOWEVER CAUSED AND ON ANY THEORY OF LIABILITY, WHETHER IN
  29:/usr/lib/avr/include/util/delay.h ****   CONTRACT, STRICT LIABILITY, OR TORT (INCLUDING NEGLIGENCE OR OTHERWISE)
  30:/usr/lib/avr/include/util/delay.h ****   ARISING IN ANY WAY OUT OF THE USE OF THIS SOFTWARE, EVEN IF ADVISED OF THE
  31:/usr/lib/avr/include/util/delay.h ****   POSSIBILITY OF SUCH DAMAGE. */
  32:/usr/lib/avr/include/util/delay.h **** 
  33:/usr/lib/avr/include/util/delay.h **** /* $Id$ */
  34:/usr/lib/avr/include/util/delay.h **** 
  35:/usr/lib/avr/include/util/delay.h **** #ifndef _UTIL_DELAY_H_
  36:/usr/lib/avr/include/util/delay.h **** #define _UTIL_DELAY_H_ 1
  37:/usr/lib/avr/include/util/delay.h **** 
  38:/usr/lib/avr/include/util/delay.h **** #ifndef __DOXYGEN__
  39:/usr/lib/avr/include/util/delay.h **** #  ifndef __HAS_DELAY_CYCLES
  40:/usr/lib/avr/include/util/delay.h **** #    define __HAS_DELAY_CYCLES 1
  41:/usr/lib/avr/include/util/delay.h **** #  endif
  42:/usr/lib/avr/include/util/delay.h **** #endif  /* __DOXYGEN__ */
  43:/usr/lib/avr/include/util/delay.h **** 
  44:/usr/lib/avr/include/util/delay.h **** #include <inttypes.h>
  45:/usr/lib/avr/include/util/delay.h **** #include <util/delay_basic.h>
  46:/usr/lib/avr/include/util/delay.h **** #include <math.h>
  47:/usr/lib/avr/include/util/delay.h **** 
  48:/usr/lib/avr/include/util/delay.h **** /** \file */
  49:/usr/lib/avr/include/util/delay.h **** /** \defgroup util_delay <util/delay.h>: Convenience functions for busy-wait delay loops
  50:/usr/lib/avr/include/util/delay.h ****     \code
  51:/usr/lib/avr/include/util/delay.h ****     #define F_CPU 1000000UL  // 1 MHz
  52:/usr/lib/avr/include/util/delay.h ****     //#define F_CPU 14.7456E6
  53:/usr/lib/avr/include/util/delay.h ****     #include <util/delay.h>
  54:/usr/lib/avr/include/util/delay.h ****     \endcode
  55:/usr/lib/avr/include/util/delay.h **** 
  56:/usr/lib/avr/include/util/delay.h ****     \note As an alternative method, it is possible to pass the
  57:/usr/lib/avr/include/util/delay.h ****     F_CPU macro down to the compiler from the Makefile.
  58:/usr/lib/avr/include/util/delay.h ****     Obviously, in that case, no \c \#define statement should be
  59:/usr/lib/avr/include/util/delay.h ****     used.
  60:/usr/lib/avr/include/util/delay.h **** 
  61:/usr/lib/avr/include/util/delay.h ****     The functions in this header file are wrappers around the basic
  62:/usr/lib/avr/include/util/delay.h ****     busy-wait functions from <util/delay_basic.h>.  They are meant as
  63:/usr/lib/avr/include/util/delay.h ****     convenience functions where actual time values can be specified
  64:/usr/lib/avr/include/util/delay.h ****     rather than a number of cycles to wait for.  The idea behind is
  65:/usr/lib/avr/include/util/delay.h ****     that compile-time constant expressions will be eliminated by
  66:/usr/lib/avr/include/util/delay.h ****     compiler optimization so floating-point expressions can be used
  67:/usr/lib/avr/include/util/delay.h ****     to calculate the number of delay cycles needed based on the CPU
  68:/usr/lib/avr/include/util/delay.h ****     frequency passed by the macro F_CPU.
  69:/usr/lib/avr/include/util/delay.h **** 
  70:/usr/lib/avr/include/util/delay.h ****     \note In order for these functions to work as intended, compiler
  71:/usr/lib/avr/include/util/delay.h ****     optimizations <em>must</em> be enabled, and the delay time
  72:/usr/lib/avr/include/util/delay.h ****     <em>must</em> be an expression that is a known constant at
  73:/usr/lib/avr/include/util/delay.h ****     compile-time.  If these requirements are not met, the resulting
  74:/usr/lib/avr/include/util/delay.h ****     delay will be much longer (and basically unpredictable), and
  75:/usr/lib/avr/include/util/delay.h ****     applications that otherwise do not use floating-point calculations
  76:/usr/lib/avr/include/util/delay.h ****     will experience severe code bloat by the floating-point library
  77:/usr/lib/avr/include/util/delay.h ****     routines linked into the application.
  78:/usr/lib/avr/include/util/delay.h **** 
  79:/usr/lib/avr/include/util/delay.h ****     The functions available allow the specification of microsecond, and
  80:/usr/lib/avr/include/util/delay.h ****     millisecond delays directly, using the application-supplied macro
  81:/usr/lib/avr/include/util/delay.h ****     F_CPU as the CPU clock frequency (in Hertz).
  82:/usr/lib/avr/include/util/delay.h **** 
  83:/usr/lib/avr/include/util/delay.h **** */
  84:/usr/lib/avr/include/util/delay.h **** 
  85:/usr/lib/avr/include/util/delay.h **** #if !defined(__DOXYGEN__)
  86:/usr/lib/avr/include/util/delay.h **** static __inline__ void _delay_us(double __us) __attribute__((__always_inline__));
  87:/usr/lib/avr/include/util/delay.h **** static __inline__ void _delay_ms(double __ms) __attribute__((__always_inline__));
  88:/usr/lib/avr/include/util/delay.h **** #endif
  89:/usr/lib/avr/include/util/delay.h **** 
  90:/usr/lib/avr/include/util/delay.h **** #ifndef F_CPU
  91:/usr/lib/avr/include/util/delay.h **** /* prevent compiler error by supplying a default */
  92:/usr/lib/avr/include/util/delay.h **** # warning "F_CPU not defined for <util/delay.h>"
  93:/usr/lib/avr/include/util/delay.h **** /** \ingroup util_delay
  94:/usr/lib/avr/include/util/delay.h ****     \def F_CPU
  95:/usr/lib/avr/include/util/delay.h ****     \brief CPU frequency in Hz
  96:/usr/lib/avr/include/util/delay.h **** 
  97:/usr/lib/avr/include/util/delay.h ****     The macro F_CPU specifies the CPU frequency to be considered by
  98:/usr/lib/avr/include/util/delay.h ****     the delay macros.  This macro is normally supplied by the
  99:/usr/lib/avr/include/util/delay.h ****     environment (e.g. from within a project header, or the project's
 100:/usr/lib/avr/include/util/delay.h ****     Makefile).  The value 1 MHz here is only provided as a "vanilla"
 101:/usr/lib/avr/include/util/delay.h ****     fallback if no such user-provided definition could be found.
 102:/usr/lib/avr/include/util/delay.h **** 
 103:/usr/lib/avr/include/util/delay.h ****     In terms of the delay functions, the CPU frequency can be given as
 104:/usr/lib/avr/include/util/delay.h ****     a floating-point constant (e.g. 3.6864E6 for 3.6864 MHz).
 105:/usr/lib/avr/include/util/delay.h ****     However, the macros in <util/setbaud.h> require it to be an
 106:/usr/lib/avr/include/util/delay.h ****     integer value.
 107:/usr/lib/avr/include/util/delay.h ****  */
 108:/usr/lib/avr/include/util/delay.h **** # define F_CPU 1000000UL
 109:/usr/lib/avr/include/util/delay.h **** #endif
 110:/usr/lib/avr/include/util/delay.h **** 
 111:/usr/lib/avr/include/util/delay.h **** #ifndef __OPTIMIZE__
 112:/usr/lib/avr/include/util/delay.h **** # warning "Compiler optimizations disabled; functions from <util/delay.h> won't work as designed"
 113:/usr/lib/avr/include/util/delay.h **** #endif
 114:/usr/lib/avr/include/util/delay.h **** 
 115:/usr/lib/avr/include/util/delay.h **** #if __HAS_DELAY_CYCLES && defined(__OPTIMIZE__) && \
 116:/usr/lib/avr/include/util/delay.h ****   !defined(__DELAY_BACKWARD_COMPATIBLE__) &&	   \
 117:/usr/lib/avr/include/util/delay.h ****   __STDC_HOSTED__
 118:/usr/lib/avr/include/util/delay.h **** #  include <math.h>
 119:/usr/lib/avr/include/util/delay.h **** #endif
 120:/usr/lib/avr/include/util/delay.h **** 
 121:/usr/lib/avr/include/util/delay.h **** /**
 122:/usr/lib/avr/include/util/delay.h ****    \ingroup util_delay
 123:/usr/lib/avr/include/util/delay.h **** 
 124:/usr/lib/avr/include/util/delay.h ****    Perform a delay of \c __ms milliseconds, using _delay_loop_2().
 125:/usr/lib/avr/include/util/delay.h **** 
 126:/usr/lib/avr/include/util/delay.h ****    The macro F_CPU is supposed to be defined to a
 127:/usr/lib/avr/include/util/delay.h ****    constant defining the CPU clock frequency (in Hertz).
 128:/usr/lib/avr/include/util/delay.h **** 
 129:/usr/lib/avr/include/util/delay.h ****    The maximal possible delay is 262.14 ms / F_CPU in MHz.
 130:/usr/lib/avr/include/util/delay.h **** 
 131:/usr/lib/avr/include/util/delay.h ****    When the user request delay which exceed the maximum possible one,
 132:/usr/lib/avr/include/util/delay.h ****    _delay_ms() provides a decreased resolution functionality. In this
 133:/usr/lib/avr/include/util/delay.h ****    mode _delay_ms() will work with a resolution of 1/10 ms, providing
 134:/usr/lib/avr/include/util/delay.h ****    delays up to 6.5535 seconds (independent from CPU frequency).  The
 135:/usr/lib/avr/include/util/delay.h ****    user will not be informed about decreased resolution.
 136:/usr/lib/avr/include/util/delay.h **** 
 137:/usr/lib/avr/include/util/delay.h ****    If the avr-gcc toolchain has __builtin_avr_delay_cycles()
 138:/usr/lib/avr/include/util/delay.h ****    support, maximal possible delay is 4294967.295 ms/ F_CPU in MHz. For
 139:/usr/lib/avr/include/util/delay.h ****    values greater than the maximal possible delay, overflows results in
 140:/usr/lib/avr/include/util/delay.h ****    no delay i.e., 0ms.
 141:/usr/lib/avr/include/util/delay.h **** 
 142:/usr/lib/avr/include/util/delay.h ****    Conversion of \c __ms into clock cycles may not always result in
 143:/usr/lib/avr/include/util/delay.h ****    integer.  By default, the clock cycles rounded up to next
 144:/usr/lib/avr/include/util/delay.h ****    integer. This ensures that the user gets at least \c __ms
 145:/usr/lib/avr/include/util/delay.h ****    microseconds of delay.
 146:/usr/lib/avr/include/util/delay.h **** 
 147:/usr/lib/avr/include/util/delay.h ****    Alternatively, by defining the macro \c __DELAY_ROUND_DOWN__, or
 148:/usr/lib/avr/include/util/delay.h ****    \c __DELAY_ROUND_CLOSEST__, before including this header file, the
 149:/usr/lib/avr/include/util/delay.h ****    algorithm can be made to round down, or round to closest integer,
 150:/usr/lib/avr/include/util/delay.h ****    respectively.
 151:/usr/lib/avr/include/util/delay.h **** 
 152:/usr/lib/avr/include/util/delay.h ****    \note
 153:/usr/lib/avr/include/util/delay.h **** 
 154:/usr/lib/avr/include/util/delay.h ****    The implementation of _delay_ms() based on
 155:/usr/lib/avr/include/util/delay.h ****    __builtin_avr_delay_cycles() is not backward compatible with older
 156:/usr/lib/avr/include/util/delay.h ****    implementations.  In order to get functionality backward compatible
 157:/usr/lib/avr/include/util/delay.h ****    with previous versions, the macro \c "__DELAY_BACKWARD_COMPATIBLE__"
 158:/usr/lib/avr/include/util/delay.h ****    must be defined before including this header file. Also, the
 159:/usr/lib/avr/include/util/delay.h ****    backward compatible algorithm will be chosen if the code is
 160:/usr/lib/avr/include/util/delay.h ****    compiled in a <em>freestanding environment</em> (GCC option
 161:/usr/lib/avr/include/util/delay.h ****    \c -ffreestanding), as the math functions required for rounding are
 162:/usr/lib/avr/include/util/delay.h ****    not available to the compiler then.
 163:/usr/lib/avr/include/util/delay.h **** 
 164:/usr/lib/avr/include/util/delay.h ****  */
 165:/usr/lib/avr/include/util/delay.h **** void
 166:/usr/lib/avr/include/util/delay.h **** _delay_ms(double __ms)
 167:/usr/lib/avr/include/util/delay.h **** {
 168:/usr/lib/avr/include/util/delay.h **** 	double __tmp ;
 169:/usr/lib/avr/include/util/delay.h **** #if __HAS_DELAY_CYCLES && defined(__OPTIMIZE__) && \
 170:/usr/lib/avr/include/util/delay.h ****   !defined(__DELAY_BACKWARD_COMPATIBLE__) &&	   \
 171:/usr/lib/avr/include/util/delay.h ****   __STDC_HOSTED__
 172:/usr/lib/avr/include/util/delay.h **** 	uint32_t __ticks_dc;
 173:/usr/lib/avr/include/util/delay.h **** 	extern void __builtin_avr_delay_cycles(unsigned long);
 174:/usr/lib/avr/include/util/delay.h **** 	__tmp = ((F_CPU) / 1e3) * __ms;
 175:/usr/lib/avr/include/util/delay.h **** 
 176:/usr/lib/avr/include/util/delay.h **** 	#if defined(__DELAY_ROUND_DOWN__)
 177:/usr/lib/avr/include/util/delay.h **** 		__ticks_dc = (uint32_t)fabs(__tmp);
 178:/usr/lib/avr/include/util/delay.h **** 
 179:/usr/lib/avr/include/util/delay.h **** 	#elif defined(__DELAY_ROUND_CLOSEST__)
 180:/usr/lib/avr/include/util/delay.h **** 		__ticks_dc = (uint32_t)(fabs(__tmp)+0.5);
 181:/usr/lib/avr/include/util/delay.h **** 
 182:/usr/lib/avr/include/util/delay.h **** 	#else
 183:/usr/lib/avr/include/util/delay.h **** 		//round up by default
 184:/usr/lib/avr/include/util/delay.h **** 		__ticks_dc = (uint32_t)(ceil(fabs(__tmp)));
 185:/usr/lib/avr/include/util/delay.h **** 	#endif
 186:/usr/lib/avr/include/util/delay.h **** 
 187:/usr/lib/avr/include/util/delay.h **** 	__builtin_avr_delay_cycles(__ticks_dc);
 529               		.loc 3 187 0
 530 0030 2FEF      		ldi r18,lo8(159999)
 531 0032 80E7      		ldi r24,hi8(159999)
 532 0034 92E0      		ldi r25,hlo8(159999)
 533 0036 2150      	1:	subi r18,1
 534 0038 8040      		sbci r24,0
 535 003a 9040      		sbci r25,0
 536 003c 01F4      		brne 1b
 537 003e 00C0      		rjmp .
 538 0040 0000      		nop
 539               	.LVL17:
 540               	.LBE126:
 541               	.LBE125:
 542               	.LBB127:
 543               	.LBB128:
  43:keyboards/ergodox_ez/ergodox_ez.h **** inline void ergodox_right_led_3_on(void)    { DDRB |=  (1<<7); PORTB |=  (1<<7); }
 544               		.loc 1 43 0
 545 0042 269A      		sbi 0x4,6
 546 0044 2E9A      		sbi 0x5,6
 547               	.LVL18:
 548               	.LBE128:
 549               	.LBE127:
 550               	.LBB129:
 551               	.LBB130:
 552               		.loc 3 187 0
 553 0046 2FEF      		ldi r18,lo8(159999)
 554 0048 80E7      		ldi r24,hi8(159999)
 555 004a 92E0      		ldi r25,hlo8(159999)
 556 004c 2150      	1:	subi r18,1
 557 004e 8040      		sbci r24,0
 558 0050 9040      		sbci r25,0
 559 0052 01F4      		brne 1b
 560 0054 00C0      		rjmp .
 561 0056 0000      		nop
 562               	.LVL19:
 563               	.LBE130:
 564               	.LBE129:
 565               	.LBB131:
 566               	.LBB132:
  44:keyboards/ergodox_ez/ergodox_ez.h **** inline void ergodox_right_led_on(uint8_t led) { DDRB |= (1<<(led+4)); PORTB |= (1<<(led+4)); }
 567               		.loc 1 44 0
 568 0058 279A      		sbi 0x4,7
 569 005a 2F9A      		sbi 0x5,7
 570               	.LVL20:
 571               	.LBE132:
 572               	.LBE131:
 573               	.LBB133:
 574               	.LBB134:
 575               		.loc 3 187 0
 576 005c 2FEF      		ldi r18,lo8(159999)
 577 005e 80E7      		ldi r24,hi8(159999)
 578 0060 92E0      		ldi r25,hlo8(159999)
 579 0062 2150      	1:	subi r18,1
 580 0064 8040      		sbci r24,0
 581 0066 9040      		sbci r25,0
 582 0068 01F4      		brne 1b
 583 006a 00C0      		rjmp .
 584 006c 0000      		nop
 585               	.LVL21:
 586               	.LBE134:
 587               	.LBE133:
 588               	.LBB135:
 589               	.LBB136:
  48:keyboards/ergodox_ez/ergodox_ez.h **** inline void ergodox_right_led_2_off(void)   { DDRB &= ~(1<<6); PORTB &= ~(1<<6); }
 590               		.loc 1 48 0
 591 006e 2598      		cbi 0x4,5
 592 0070 2D98      		cbi 0x5,5
 593               	.LVL22:
 594               	.LBE136:
 595               	.LBE135:
 596               	.LBB137:
 597               	.LBB138:
 598               		.loc 3 187 0
 599 0072 2FEF      		ldi r18,lo8(159999)
 600 0074 80E7      		ldi r24,hi8(159999)
 601 0076 92E0      		ldi r25,hlo8(159999)
 602 0078 2150      	1:	subi r18,1
 603 007a 8040      		sbci r24,0
 604 007c 9040      		sbci r25,0
 605 007e 01F4      		brne 1b
 606 0080 00C0      		rjmp .
 607 0082 0000      		nop
 608               	.LVL23:
 609               	.LBE138:
 610               	.LBE137:
 611               	.LBB139:
 612               	.LBB140:
  49:keyboards/ergodox_ez/ergodox_ez.h **** inline void ergodox_right_led_3_off(void)   { DDRB &= ~(1<<7); PORTB &= ~(1<<7); }
 613               		.loc 1 49 0
 614 0084 2698      		cbi 0x4,6
 615 0086 2E98      		cbi 0x5,6
 616               	.LVL24:
 617               	.LBE140:
 618               	.LBE139:
 619               	.LBB141:
 620               	.LBB142:
 621               		.loc 3 187 0
 622 0088 2FEF      		ldi r18,lo8(159999)
 623 008a 80E7      		ldi r24,hi8(159999)
 624 008c 92E0      		ldi r25,hlo8(159999)
 625 008e 2150      	1:	subi r18,1
 626 0090 8040      		sbci r24,0
 627 0092 9040      		sbci r25,0
 628 0094 01F4      		brne 1b
 629 0096 00C0      		rjmp .
 630 0098 0000      		nop
 631               	.LVL25:
 632               	.LBE142:
 633               	.LBE141:
 634               	.LBB143:
 635               	.LBB144:
  50:keyboards/ergodox_ez/ergodox_ez.h **** inline void ergodox_right_led_off(uint8_t led) { DDRB &= ~(1<<(led+4)); PORTB &= ~(1<<(led+4)); }
 636               		.loc 1 50 0
 637 009a 2798      		cbi 0x4,7
 638 009c 2F98      		cbi 0x5,7
 639               	.LBE144:
 640               	.LBE143:
 641               	.LBB145:
 642               	.LBB146:
 643               	.LBB147:
  47:keyboards/ergodox_ez/ergodox_ez.h **** inline void ergodox_right_led_1_off(void)   { DDRB &= ~(1<<5); PORTB &= ~(1<<5); }
 644               		.loc 1 47 0
 645 009e 5698      		cbi 0xa,6
 646 00a0 5E98      		cbi 0xb,6
 647               	.LBE147:
 648               	.LBE146:
 649               	.LBB148:
 650               	.LBB149:
  48:keyboards/ergodox_ez/ergodox_ez.h **** inline void ergodox_right_led_2_off(void)   { DDRB &= ~(1<<6); PORTB &= ~(1<<6); }
 651               		.loc 1 48 0
 652 00a2 2598      		cbi 0x4,5
 653 00a4 2D98      		cbi 0x5,5
 654               	.LBE149:
 655               	.LBE148:
 656               	.LBB150:
 657               	.LBB151:
  49:keyboards/ergodox_ez/ergodox_ez.h **** inline void ergodox_right_led_3_off(void)   { DDRB &= ~(1<<7); PORTB &= ~(1<<7); }
 658               		.loc 1 49 0
 659 00a6 2698      		cbi 0x4,6
 660 00a8 2E98      		cbi 0x5,6
 661               	.LBE151:
 662               	.LBE150:
 663               	.LBB152:
 664               	.LBB153:
  50:keyboards/ergodox_ez/ergodox_ez.h **** inline void ergodox_right_led_off(uint8_t led) { DDRB &= ~(1<<(led+4)); PORTB &= ~(1<<(led+4)); }
 665               		.loc 1 50 0
 666 00aa 2798      		cbi 0x4,7
 667 00ac 2F98      		cbi 0x5,7
 668 00ae 0895      		ret
 669               	.LBE153:
 670               	.LBE152:
 671               	.LBE145:
 672               		.cfi_endproc
 673               	.LFE130:
 675               		.section	.text.matrix_init_kb,"ax",@progbits
 676               	.global	matrix_init_kb
 678               	matrix_init_kb:
 679               	.LFB129:
  31:keyboards/ergodox_ez/ergodox_ez.c ****    // keyboard LEDs (see "PWM on ports OC1(A|B|C)" in "teensy-2-0.md")
 680               		.loc 2 31 0
 681               		.cfi_startproc
 682               	/* prologue: function */
 683               	/* frame size = 0 */
 684               	/* stack size = 0 */
 685               	.L__stack_usage = 0
  33:keyboards/ergodox_ez/ergodox_ez.c ****     TCCR1B = 0b00001001;  // set and configure fast PWM
 686               		.loc 2 33 0
 687 0000 89EA      		ldi r24,lo8(-87)
 688 0002 8093 8000 		sts 128,r24
  34:keyboards/ergodox_ez/ergodox_ez.c **** 
 689               		.loc 2 34 0
 690 0006 89E0      		ldi r24,lo8(9)
 691 0008 8093 8100 		sts 129,r24
  37:keyboards/ergodox_ez/ergodox_ez.c ****     PORTB &= ~(1<<4);  // set B(4) internal pull-up disabled
 692               		.loc 2 37 0
 693 000c 2498      		cbi 0x4,4
  38:keyboards/ergodox_ez/ergodox_ez.c **** 
 694               		.loc 2 38 0
 695 000e 2C98      		cbi 0x5,4
  42:keyboards/ergodox_ez/ergodox_ez.c ****     DDRD  &= ~(1<<5 | 1<<4);
 696               		.loc 2 42 0
 697 0010 3F98      		cbi 0x7,7
  43:keyboards/ergodox_ez/ergodox_ez.c ****     DDRE  &= ~(1<<6);
 698               		.loc 2 43 0
 699 0012 8AB1      		in r24,0xa
 700 0014 8F7C      		andi r24,lo8(-49)
 701 0016 8AB9      		out 0xa,r24
  44:keyboards/ergodox_ez/ergodox_ez.c ****     PORTC |=  (1<<7);
 702               		.loc 2 44 0
 703 0018 6E98      		cbi 0xd,6
  45:keyboards/ergodox_ez/ergodox_ez.c ****     PORTD |=  (1<<5 | 1<<4);
 704               		.loc 2 45 0
 705 001a 479A      		sbi 0x8,7
  46:keyboards/ergodox_ez/ergodox_ez.c ****     PORTE |=  (1<<6);
 706               		.loc 2 46 0
 707 001c 8BB1      		in r24,0xb
 708 001e 8063      		ori r24,lo8(48)
 709 0020 8BB9      		out 0xb,r24
  47:keyboards/ergodox_ez/ergodox_ez.c **** 
 710               		.loc 2 47 0
 711 0022 769A      		sbi 0xe,6
  49:keyboards/ergodox_ez/ergodox_ez.c ****     ergodox_led_all_set((uint8_t)keyboard_config.led_level * 255 / 4 );
 712               		.loc 2 49 0
 713 0024 0E94 0000 		call eeconfig_read_kb
 714               	.LVL26:
 715 0028 6093 0000 		sts keyboard_config,r22
 716 002c 7093 0000 		sts keyboard_config+1,r23
 717 0030 8093 0000 		sts keyboard_config+2,r24
 718 0034 9093 0000 		sts keyboard_config+3,r25
 719               	.LVL27:
  50:keyboards/ergodox_ez/ergodox_ez.c **** #ifdef RGB_MATRIX_ENABLE
 720               		.loc 2 50 0
 721 0038 6770      		andi r22,lo8(7)
 722               	.LVL28:
 723               	.LBB154:
 724               	.LBB155:
 725               	.LBB156:
  92:keyboards/ergodox_ez/ergodox_ez.h **** inline void ergodox_right_led_2_set(uint8_t n)    { OCR1B = n; }
 726               		.loc 1 92 0
 727 003a 8FEF      		ldi r24,lo8(-1)
 728 003c 689F      		mul r22,r24
 729 003e B001      		movw r22,r0
 730 0040 1124      		clr __zero_reg__
 731 0042 7595      		asr r23
 732 0044 6795      		ror r22
 733 0046 7595      		asr r23
 734 0048 6795      		ror r22
 735 004a 7727      		clr r23
 736 004c 7093 8900 		sts 136+1,r23
 737 0050 6093 8800 		sts 136,r22
 738               	.LVL29:
 739               	.LBE156:
 740               	.LBE155:
 741               	.LBB157:
 742               	.LBB158:
  93:keyboards/ergodox_ez/ergodox_ez.h **** inline void ergodox_right_led_3_set(uint8_t n)    { OCR1C = n; }
 743               		.loc 1 93 0
 744 0054 7093 8B00 		sts 138+1,r23
 745 0058 6093 8A00 		sts 138,r22
 746               	.LVL30:
 747               	.LBE158:
 748               	.LBE157:
 749               	.LBB159:
 750               	.LBB160:
  94:keyboards/ergodox_ez/ergodox_ez.h **** inline void ergodox_right_led_set(uint8_t led, uint8_t n)  {
 751               		.loc 1 94 0
 752 005c 7093 8D00 		sts 140+1,r23
 753 0060 6093 8C00 		sts 140,r22
 754               	.LBE160:
 755               	.LBE159:
 756               	.LBE154:
  59:keyboards/ergodox_ez/ergodox_ez.c **** 
 757               		.loc 2 59 0
 758 0064 0E94 0000 		call ergodox_blink_all_leds
 759               	.LVL31:
  61:keyboards/ergodox_ez/ergodox_ez.c **** }
 760               		.loc 2 61 0
 761 0068 0C94 0000 		jmp matrix_init_user
 762               	.LVL32:
 763               		.cfi_endproc
 764               	.LFE129:
 766               		.section	.text.init_mcp23018,"ax",@progbits
 767               	.global	init_mcp23018
 769               	init_mcp23018:
 770               	.LFB131:
  66:keyboards/ergodox_ez/ergodox_ez.c ****     ergodox_led_all_off();
  67:keyboards/ergodox_ez/ergodox_ez.c ****     ergodox_led_all_set(LED_BRIGHTNESS_DEFAULT);
  68:keyboards/ergodox_ez/ergodox_ez.c ****     ergodox_right_led_1_on();
  69:keyboards/ergodox_ez/ergodox_ez.c ****     _delay_ms(50);
  70:keyboards/ergodox_ez/ergodox_ez.c ****     ergodox_right_led_2_on();
  71:keyboards/ergodox_ez/ergodox_ez.c ****     _delay_ms(50);
  72:keyboards/ergodox_ez/ergodox_ez.c ****     ergodox_right_led_3_on();
  73:keyboards/ergodox_ez/ergodox_ez.c ****     _delay_ms(50);
  74:keyboards/ergodox_ez/ergodox_ez.c **** #ifdef LEFT_LEDS
  75:keyboards/ergodox_ez/ergodox_ez.c ****     ergodox_left_led_1_on();
  76:keyboards/ergodox_ez/ergodox_ez.c ****     _delay_ms(50);
  77:keyboards/ergodox_ez/ergodox_ez.c ****     if (!mcp23018_status) {
  78:keyboards/ergodox_ez/ergodox_ez.c ****       mcp23018_status = ergodox_left_leds_update();
  79:keyboards/ergodox_ez/ergodox_ez.c ****     }
  80:keyboards/ergodox_ez/ergodox_ez.c ****     ergodox_left_led_2_on();
  81:keyboards/ergodox_ez/ergodox_ez.c ****     _delay_ms(50);
  82:keyboards/ergodox_ez/ergodox_ez.c ****     if (!mcp23018_status) {
  83:keyboards/ergodox_ez/ergodox_ez.c ****       mcp23018_status = ergodox_left_leds_update();
  84:keyboards/ergodox_ez/ergodox_ez.c ****     }
  85:keyboards/ergodox_ez/ergodox_ez.c ****     ergodox_left_led_3_on();
  86:keyboards/ergodox_ez/ergodox_ez.c ****     _delay_ms(50);
  87:keyboards/ergodox_ez/ergodox_ez.c ****     if (!mcp23018_status) {
  88:keyboards/ergodox_ez/ergodox_ez.c ****       mcp23018_status = ergodox_left_leds_update();
  89:keyboards/ergodox_ez/ergodox_ez.c ****     }
  90:keyboards/ergodox_ez/ergodox_ez.c **** #endif
  91:keyboards/ergodox_ez/ergodox_ez.c ****     ergodox_right_led_1_off();
  92:keyboards/ergodox_ez/ergodox_ez.c ****     _delay_ms(50);
  93:keyboards/ergodox_ez/ergodox_ez.c ****     ergodox_right_led_2_off();
  94:keyboards/ergodox_ez/ergodox_ez.c ****     _delay_ms(50);
  95:keyboards/ergodox_ez/ergodox_ez.c ****     ergodox_right_led_3_off();
  96:keyboards/ergodox_ez/ergodox_ez.c **** #ifdef LEFT_LEDS
  97:keyboards/ergodox_ez/ergodox_ez.c ****     _delay_ms(50);
  98:keyboards/ergodox_ez/ergodox_ez.c ****     ergodox_left_led_1_off();
  99:keyboards/ergodox_ez/ergodox_ez.c ****     if (!mcp23018_status) {
 100:keyboards/ergodox_ez/ergodox_ez.c ****       mcp23018_status = ergodox_left_leds_update();
 101:keyboards/ergodox_ez/ergodox_ez.c ****     }
 102:keyboards/ergodox_ez/ergodox_ez.c ****     _delay_ms(50);
 103:keyboards/ergodox_ez/ergodox_ez.c ****     ergodox_left_led_2_off();
 104:keyboards/ergodox_ez/ergodox_ez.c ****     if (!mcp23018_status) {
 105:keyboards/ergodox_ez/ergodox_ez.c ****       mcp23018_status = ergodox_left_leds_update();
 106:keyboards/ergodox_ez/ergodox_ez.c ****     }
 107:keyboards/ergodox_ez/ergodox_ez.c ****     _delay_ms(50);
 108:keyboards/ergodox_ez/ergodox_ez.c ****     ergodox_left_led_3_off();
 109:keyboards/ergodox_ez/ergodox_ez.c ****     if (!mcp23018_status) {
 110:keyboards/ergodox_ez/ergodox_ez.c ****       mcp23018_status = ergodox_left_leds_update();
 111:keyboards/ergodox_ez/ergodox_ez.c ****     }
 112:keyboards/ergodox_ez/ergodox_ez.c **** #endif
 113:keyboards/ergodox_ez/ergodox_ez.c **** 
 114:keyboards/ergodox_ez/ergodox_ez.c ****     //ergodox_led_all_on();
 115:keyboards/ergodox_ez/ergodox_ez.c ****     //_delay_ms(333);
 116:keyboards/ergodox_ez/ergodox_ez.c ****     ergodox_led_all_off();
 117:keyboards/ergodox_ez/ergodox_ez.c **** }
 118:keyboards/ergodox_ez/ergodox_ez.c **** 
 119:keyboards/ergodox_ez/ergodox_ez.c **** uint8_t init_mcp23018(void) {
 771               		.loc 2 119 0
 772               		.cfi_startproc
 773               	/* prologue: function */
 774               	/* frame size = 0 */
 775               	/* stack size = 0 */
 776               	.L__stack_usage = 0
 120:keyboards/ergodox_ez/ergodox_ez.c ****     mcp23018_status = 0x20;
 777               		.loc 2 120 0
 778 0000 80E2      		ldi r24,lo8(32)
 779 0002 90E0      		ldi r25,0
 780 0004 9093 0000 		sts mcp23018_status+1,r25
 781 0008 8093 0000 		sts mcp23018_status,r24
 121:keyboards/ergodox_ez/ergodox_ez.c **** 
 122:keyboards/ergodox_ez/ergodox_ez.c ****     // I2C subsystem
 123:keyboards/ergodox_ez/ergodox_ez.c **** 
 124:keyboards/ergodox_ez/ergodox_ez.c ****     // uint8_t sreg_prev;
 125:keyboards/ergodox_ez/ergodox_ez.c ****     // sreg_prev=SREG;
 126:keyboards/ergodox_ez/ergodox_ez.c ****     // cli();
 127:keyboards/ergodox_ez/ergodox_ez.c **** 
 128:keyboards/ergodox_ez/ergodox_ez.c ****     if (i2c_initialized == 0) {
 782               		.loc 2 128 0
 783 000c 8091 0000 		lds r24,i2c_initialized
 784 0010 8111      		cpse r24,__zero_reg__
 785 0012 00C0      		rjmp .L25
 129:keyboards/ergodox_ez/ergodox_ez.c **** 	print("init i2c");
 786               		.loc 2 129 0
 787 0014 80E0      		ldi r24,lo8(__c.6574)
 788 0016 90E0      		ldi r25,hi8(__c.6574)
 789 0018 0E94 0000 		call xputs
 790               	.LVL33:
 130:keyboards/ergodox_ez/ergodox_ez.c ****         i2c_init();  // on pins D(1,0)
 791               		.loc 2 130 0
 792 001c 0E94 0000 		call i2c_init
 793               	.LVL34:
 131:keyboards/ergodox_ez/ergodox_ez.c ****         i2c_initialized = true;
 794               		.loc 2 131 0
 795 0020 81E0      		ldi r24,lo8(1)
 796 0022 8093 0000 		sts i2c_initialized,r24
 797               	.LVL35:
 798               	.LBB161:
 799               	.LBB162:
 800               		.loc 3 187 0
 801 0026 2FEF      		ldi r18,lo8(3199999)
 802 0028 83ED      		ldi r24,hi8(3199999)
 803 002a 90E3      		ldi r25,hlo8(3199999)
 804 002c 2150      	1:	subi r18,1
 805 002e 8040      		sbci r24,0
 806 0030 9040      		sbci r25,0
 807 0032 01F4      		brne 1b
 808 0034 00C0      		rjmp .
 809 0036 0000      		nop
 810               	.LVL36:
 811               	.L25:
 812               	.LBE162:
 813               	.LBE161:
 132:keyboards/ergodox_ez/ergodox_ez.c ****         _delay_ms(1000);
 133:keyboards/ergodox_ez/ergodox_ez.c ****     }
 134:keyboards/ergodox_ez/ergodox_ez.c ****     // i2c_init(); // on pins D(1,0)
 135:keyboards/ergodox_ez/ergodox_ez.c ****     // _delay_ms(1000);
 136:keyboards/ergodox_ez/ergodox_ez.c **** 
 137:keyboards/ergodox_ez/ergodox_ez.c ****     // set pin direction
 138:keyboards/ergodox_ez/ergodox_ez.c ****     // - unused  : input  : 1
 139:keyboards/ergodox_ez/ergodox_ez.c ****     // - input   : input  : 1
 140:keyboards/ergodox_ez/ergodox_ez.c ****     // - driving : output : 0
 141:keyboards/ergodox_ez/ergodox_ez.c ****     mcp23018_status = i2c_start(I2C_ADDR_WRITE, ERGODOX_EZ_I2C_TIMEOUT);    if (mcp23018_status) go
 814               		.loc 2 141 0
 815 0038 64E6      		ldi r22,lo8(100)
 816 003a 70E0      		ldi r23,0
 817 003c 80E4      		ldi r24,lo8(64)
 818 003e 0E94 0000 		call i2c_start
 819               	.LVL37:
 820 0042 9093 0000 		sts mcp23018_status+1,r25
 821 0046 8093 0000 		sts mcp23018_status,r24
 822 004a 892B      		or r24,r25
 823 004c 01F0      		breq .+2
 824 004e 00C0      		rjmp .L27
 142:keyboards/ergodox_ez/ergodox_ez.c ****     mcp23018_status = i2c_write(IODIRA, ERGODOX_EZ_I2C_TIMEOUT);            if (mcp23018_status) go
 825               		.loc 2 142 0
 826 0050 64E6      		ldi r22,lo8(100)
 827 0052 70E0      		ldi r23,0
 828 0054 80E0      		ldi r24,0
 829 0056 0E94 0000 		call i2c_write
 830               	.LVL38:
 831 005a 9093 0000 		sts mcp23018_status+1,r25
 832 005e 8093 0000 		sts mcp23018_status,r24
 833 0062 892B      		or r24,r25
 834 0064 01F0      		breq .+2
 835 0066 00C0      		rjmp .L27
 143:keyboards/ergodox_ez/ergodox_ez.c ****     mcp23018_status = i2c_write(0b00000000, ERGODOX_EZ_I2C_TIMEOUT);        if (mcp23018_status) go
 836               		.loc 2 143 0
 837 0068 64E6      		ldi r22,lo8(100)
 838 006a 70E0      		ldi r23,0
 839 006c 80E0      		ldi r24,0
 840 006e 0E94 0000 		call i2c_write
 841               	.LVL39:
 842 0072 9093 0000 		sts mcp23018_status+1,r25
 843 0076 8093 0000 		sts mcp23018_status,r24
 844 007a 892B      		or r24,r25
 845 007c 01F4      		brne .L27
 144:keyboards/ergodox_ez/ergodox_ez.c ****     mcp23018_status = i2c_write(0b00111111, ERGODOX_EZ_I2C_TIMEOUT);        if (mcp23018_status) go
 846               		.loc 2 144 0
 847 007e 64E6      		ldi r22,lo8(100)
 848 0080 70E0      		ldi r23,0
 849 0082 8FE3      		ldi r24,lo8(63)
 850 0084 0E94 0000 		call i2c_write
 851               	.LVL40:
 852 0088 9093 0000 		sts mcp23018_status+1,r25
 853 008c 8093 0000 		sts mcp23018_status,r24
 854 0090 892B      		or r24,r25
 855 0092 01F4      		brne .L27
 145:keyboards/ergodox_ez/ergodox_ez.c ****     i2c_stop();
 856               		.loc 2 145 0
 857 0094 0E94 0000 		call i2c_stop
 858               	.LVL41:
 146:keyboards/ergodox_ez/ergodox_ez.c **** 
 147:keyboards/ergodox_ez/ergodox_ez.c ****     // set pull-up
 148:keyboards/ergodox_ez/ergodox_ez.c ****     // - unused  : on  : 1
 149:keyboards/ergodox_ez/ergodox_ez.c ****     // - input   : on  : 1
 150:keyboards/ergodox_ez/ergodox_ez.c ****     // - driving : off : 0
 151:keyboards/ergodox_ez/ergodox_ez.c ****     mcp23018_status = i2c_start(I2C_ADDR_WRITE, ERGODOX_EZ_I2C_TIMEOUT);    if (mcp23018_status) go
 859               		.loc 2 151 0
 860 0098 64E6      		ldi r22,lo8(100)
 861 009a 70E0      		ldi r23,0
 862 009c 80E4      		ldi r24,lo8(64)
 863 009e 0E94 0000 		call i2c_start
 864               	.LVL42:
 865 00a2 9093 0000 		sts mcp23018_status+1,r25
 866 00a6 8093 0000 		sts mcp23018_status,r24
 867 00aa 892B      		or r24,r25
 868 00ac 01F4      		brne .L27
 152:keyboards/ergodox_ez/ergodox_ez.c ****     mcp23018_status = i2c_write(GPPUA, ERGODOX_EZ_I2C_TIMEOUT);             if (mcp23018_status) go
 869               		.loc 2 152 0
 870 00ae 64E6      		ldi r22,lo8(100)
 871 00b0 70E0      		ldi r23,0
 872 00b2 8CE0      		ldi r24,lo8(12)
 873 00b4 0E94 0000 		call i2c_write
 874               	.LVL43:
 875 00b8 9093 0000 		sts mcp23018_status+1,r25
 876 00bc 8093 0000 		sts mcp23018_status,r24
 877 00c0 892B      		or r24,r25
 878 00c2 01F4      		brne .L27
 153:keyboards/ergodox_ez/ergodox_ez.c ****     mcp23018_status = i2c_write(0b00000000, ERGODOX_EZ_I2C_TIMEOUT);        if (mcp23018_status) go
 879               		.loc 2 153 0
 880 00c4 64E6      		ldi r22,lo8(100)
 881 00c6 70E0      		ldi r23,0
 882 00c8 80E0      		ldi r24,0
 883 00ca 0E94 0000 		call i2c_write
 884               	.LVL44:
 885 00ce 9093 0000 		sts mcp23018_status+1,r25
 886 00d2 8093 0000 		sts mcp23018_status,r24
 887 00d6 892B      		or r24,r25
 888 00d8 01F4      		brne .L27
 154:keyboards/ergodox_ez/ergodox_ez.c ****     mcp23018_status = i2c_write(0b00111111, ERGODOX_EZ_I2C_TIMEOUT);        if (mcp23018_status) go
 889               		.loc 2 154 0
 890 00da 64E6      		ldi r22,lo8(100)
 891 00dc 70E0      		ldi r23,0
 892 00de 8FE3      		ldi r24,lo8(63)
 893 00e0 0E94 0000 		call i2c_write
 894               	.LVL45:
 895 00e4 9093 0000 		sts mcp23018_status+1,r25
 896 00e8 8093 0000 		sts mcp23018_status,r24
 897               	.L27:
 155:keyboards/ergodox_ez/ergodox_ez.c **** 
 156:keyboards/ergodox_ez/ergodox_ez.c **** out:
 157:keyboards/ergodox_ez/ergodox_ez.c ****     i2c_stop();
 898               		.loc 2 157 0
 899 00ec 0E94 0000 		call i2c_stop
 900               	.LVL46:
 158:keyboards/ergodox_ez/ergodox_ez.c **** 
 159:keyboards/ergodox_ez/ergodox_ez.c **** #ifdef LEFT_LEDS
 160:keyboards/ergodox_ez/ergodox_ez.c ****     if (!mcp23018_status) mcp23018_status = ergodox_left_leds_update();
 161:keyboards/ergodox_ez/ergodox_ez.c **** #endif // LEFT_LEDS
 162:keyboards/ergodox_ez/ergodox_ez.c **** 
 163:keyboards/ergodox_ez/ergodox_ez.c ****     // SREG=sreg_prev;
 164:keyboards/ergodox_ez/ergodox_ez.c **** 
 165:keyboards/ergodox_ez/ergodox_ez.c ****     return mcp23018_status;
 166:keyboards/ergodox_ez/ergodox_ez.c **** }
 901               		.loc 2 166 0
 902 00f0 8091 0000 		lds r24,mcp23018_status
 903 00f4 0895      		ret
 904               		.cfi_endproc
 905               	.LFE131:
 907               		.section	.text.eeconfig_init_kb,"ax",@progbits
 908               	.global	eeconfig_init_kb
 910               	eeconfig_init_kb:
 911               	.LFB132:
 167:keyboards/ergodox_ez/ergodox_ez.c **** 
 168:keyboards/ergodox_ez/ergodox_ez.c **** #ifdef LEFT_LEDS
 169:keyboards/ergodox_ez/ergodox_ez.c **** uint8_t ergodox_left_leds_update(void) {
 170:keyboards/ergodox_ez/ergodox_ez.c ****     if (mcp23018_status) { // if there was an error
 171:keyboards/ergodox_ez/ergodox_ez.c ****         return mcp23018_status;
 172:keyboards/ergodox_ez/ergodox_ez.c ****     }
 173:keyboards/ergodox_ez/ergodox_ez.c **** #define LEFT_LED_1_SHIFT        7       // in MCP23018 port B
 174:keyboards/ergodox_ez/ergodox_ez.c **** #define LEFT_LED_2_SHIFT        6       // in MCP23018 port B
 175:keyboards/ergodox_ez/ergodox_ez.c **** #define LEFT_LED_3_SHIFT        7       // in MCP23018 port A
 176:keyboards/ergodox_ez/ergodox_ez.c **** 
 177:keyboards/ergodox_ez/ergodox_ez.c ****     // set logical value (doesn't matter on inputs)
 178:keyboards/ergodox_ez/ergodox_ez.c ****     // - unused  : hi-Z : 1
 179:keyboards/ergodox_ez/ergodox_ez.c ****     // - input   : hi-Z : 1
 180:keyboards/ergodox_ez/ergodox_ez.c ****     // - driving : hi-Z : 1
 181:keyboards/ergodox_ez/ergodox_ez.c ****     mcp23018_status = i2c_start(I2C_ADDR_WRITE, ERGODOX_EZ_I2C_TIMEOUT);
 182:keyboards/ergodox_ez/ergodox_ez.c ****     if (mcp23018_status) goto out;
 183:keyboards/ergodox_ez/ergodox_ez.c ****     mcp23018_status = i2c_write(OLATA, ERGODOX_EZ_I2C_TIMEOUT);
 184:keyboards/ergodox_ez/ergodox_ez.c ****     if (mcp23018_status) goto out;
 185:keyboards/ergodox_ez/ergodox_ez.c ****     mcp23018_status = i2c_write(0b11111111
 186:keyboards/ergodox_ez/ergodox_ez.c ****                                 & ~(ergodox_left_led_3<<LEFT_LED_3_SHIFT),
 187:keyboards/ergodox_ez/ergodox_ez.c ****                                 ERGODOX_EZ_I2C_TIMEOUT);
 188:keyboards/ergodox_ez/ergodox_ez.c ****     if (mcp23018_status) goto out;
 189:keyboards/ergodox_ez/ergodox_ez.c ****     mcp23018_status = i2c_write(0b11111111
 190:keyboards/ergodox_ez/ergodox_ez.c ****                                 & ~(ergodox_left_led_2<<LEFT_LED_2_SHIFT)
 191:keyboards/ergodox_ez/ergodox_ez.c ****                                 & ~(ergodox_left_led_1<<LEFT_LED_1_SHIFT),
 192:keyboards/ergodox_ez/ergodox_ez.c ****                                 ERGODOX_EZ_I2C_TIMEOUT);
 193:keyboards/ergodox_ez/ergodox_ez.c ****     if (mcp23018_status) goto out;
 194:keyboards/ergodox_ez/ergodox_ez.c **** 
 195:keyboards/ergodox_ez/ergodox_ez.c ****  out:
 196:keyboards/ergodox_ez/ergodox_ez.c ****     i2c_stop();
 197:keyboards/ergodox_ez/ergodox_ez.c ****     return mcp23018_status;
 198:keyboards/ergodox_ez/ergodox_ez.c **** }
 199:keyboards/ergodox_ez/ergodox_ez.c **** #endif
 200:keyboards/ergodox_ez/ergodox_ez.c **** 
 201:keyboards/ergodox_ez/ergodox_ez.c **** 
 202:keyboards/ergodox_ez/ergodox_ez.c **** #ifdef SWAP_HANDS_ENABLE
 203:keyboards/ergodox_ez/ergodox_ez.c **** __attribute__ ((weak))
 204:keyboards/ergodox_ez/ergodox_ez.c **** // swap-hands action needs a matrix to define the swap
 205:keyboards/ergodox_ez/ergodox_ez.c **** const keypos_t hand_swap_config[MATRIX_ROWS][MATRIX_COLS] = {
 206:keyboards/ergodox_ez/ergodox_ez.c ****     /* Left hand, matrix positions */
 207:keyboards/ergodox_ez/ergodox_ez.c ****     {{0,13}, {1,13}, {2,13}, {3,13}, {4,13}, {5,13}},
 208:keyboards/ergodox_ez/ergodox_ez.c ****     {{0,12}, {1,12}, {2,12}, {3,12}, {4,12}, {5,12}},
 209:keyboards/ergodox_ez/ergodox_ez.c ****     {{0,11}, {1,11}, {2,11}, {3,11}, {4,11}, {5,11}},
 210:keyboards/ergodox_ez/ergodox_ez.c ****     {{0,10}, {1,10}, {2,10}, {3,10}, {4,10}, {5,10}},
 211:keyboards/ergodox_ez/ergodox_ez.c ****     {{0,9}, {1,9}, {2,9}, {3,9}, {4,9}, {5,9}},
 212:keyboards/ergodox_ez/ergodox_ez.c ****     {{0,8}, {1,8}, {2,8}, {3,8}, {4,8}, {5,8}},
 213:keyboards/ergodox_ez/ergodox_ez.c ****     {{0,7}, {1,7}, {2,7}, {3,7}, {4,7}, {5,7}},
 214:keyboards/ergodox_ez/ergodox_ez.c ****     /* Right hand, matrix positions */
 215:keyboards/ergodox_ez/ergodox_ez.c ****     {{0,6}, {1,6}, {2,6}, {3,6}, {4,6}, {5,6}},
 216:keyboards/ergodox_ez/ergodox_ez.c ****     {{0,5}, {1,5}, {2,5}, {3,5}, {4,5}, {5,5}},
 217:keyboards/ergodox_ez/ergodox_ez.c ****     {{0,4}, {1,4}, {2,4}, {3,4}, {4,4}, {5,4}},
 218:keyboards/ergodox_ez/ergodox_ez.c ****     {{0,3}, {1,3}, {2,3}, {3,3}, {4,3}, {5,3}},
 219:keyboards/ergodox_ez/ergodox_ez.c ****     {{0,2}, {1,2}, {2,2}, {3,2}, {4,2}, {5,2}},
 220:keyboards/ergodox_ez/ergodox_ez.c ****     {{0,1}, {1,1}, {2,1}, {3,1}, {4,1}, {5,1}},
 221:keyboards/ergodox_ez/ergodox_ez.c ****     {{0,0}, {1,0}, {2,0}, {3,0}, {4,0}, {5,0}},
 222:keyboards/ergodox_ez/ergodox_ez.c **** };
 223:keyboards/ergodox_ez/ergodox_ez.c **** #endif
 224:keyboards/ergodox_ez/ergodox_ez.c **** 
 225:keyboards/ergodox_ez/ergodox_ez.c **** #ifdef RGB_MATRIX_ENABLE
 226:keyboards/ergodox_ez/ergodox_ez.c **** const is31_led g_is31_leds[DRIVER_LED_TOTAL] = {
 227:keyboards/ergodox_ez/ergodox_ez.c **** /*   driver
 228:keyboards/ergodox_ez/ergodox_ez.c ****  *   |  R location
 229:keyboards/ergodox_ez/ergodox_ez.c ****  *   |  |      G location
 230:keyboards/ergodox_ez/ergodox_ez.c ****  *   |  |      |      B location
 231:keyboards/ergodox_ez/ergodox_ez.c ****  *   |  |      |      | */
 232:keyboards/ergodox_ez/ergodox_ez.c ****     {0, C3_1,  C2_1,  C4_1}, // LED1 on right
 233:keyboards/ergodox_ez/ergodox_ez.c ****     {0, C6_1,  C5_1,  C7_1}, // LED2
 234:keyboards/ergodox_ez/ergodox_ez.c ****     {0, C4_2,  C3_2,  C5_2}, // LED3
 235:keyboards/ergodox_ez/ergodox_ez.c ****     {0, C7_2,  C6_2,  C8_2}, // LED4
 236:keyboards/ergodox_ez/ergodox_ez.c ****     {0, C2_3,  C1_3,  C3_3}, // LED5
 237:keyboards/ergodox_ez/ergodox_ez.c ****     {0, C5_3,  C4_3,  C6_3}, // LED6
 238:keyboards/ergodox_ez/ergodox_ez.c ****     {0, C8_3,  C7_3,  C9_3}, // LED7
 239:keyboards/ergodox_ez/ergodox_ez.c ****     {0, C2_4,  C1_4,  C3_4}, // LED8
 240:keyboards/ergodox_ez/ergodox_ez.c ****     {0, C6_4,  C5_4,  C7_4}, // LED9
 241:keyboards/ergodox_ez/ergodox_ez.c ****     {0, C2_5,  C1_5,  C3_5}, // LED10
 242:keyboards/ergodox_ez/ergodox_ez.c ****     {0, C7_5,  C6_5,  C8_5}, // LED11
 243:keyboards/ergodox_ez/ergodox_ez.c ****     {0, C2_6,  C1_6,  C3_6}, // LED12
 244:keyboards/ergodox_ez/ergodox_ez.c ****     {0, C5_6,  C4_6,  C6_6}, // LED13
 245:keyboards/ergodox_ez/ergodox_ez.c ****     {0, C8_6,  C7_6,  C9_6}, // LED14
 246:keyboards/ergodox_ez/ergodox_ez.c ****     {0, C2_7,  C1_7,  C3_7}, // LED15
 247:keyboards/ergodox_ez/ergodox_ez.c ****     {0, C5_7,  C4_7,  C6_7}, // LED16
 248:keyboards/ergodox_ez/ergodox_ez.c ****     {0, C2_8,  C1_8,  C3_8}, // LED17
 249:keyboards/ergodox_ez/ergodox_ez.c ****     {0, C5_8,  C4_8,  C6_8}, // LED18
 250:keyboards/ergodox_ez/ergodox_ez.c **** 
 251:keyboards/ergodox_ez/ergodox_ez.c ****     {0, C3_9,  C2_9,  C4_9}, // LED19
 252:keyboards/ergodox_ez/ergodox_ez.c ****     {0, C6_9,  C5_9,  C7_9}, // LED20
 253:keyboards/ergodox_ez/ergodox_ez.c ****     {0, C4_10, C3_10, C5_10}, // LED21
 254:keyboards/ergodox_ez/ergodox_ez.c ****     {0, C7_10, C6_10, C8_10}, // LED22
 255:keyboards/ergodox_ez/ergodox_ez.c ****     {0, C2_11, C1_11, C3_11}, // LED23
 256:keyboards/ergodox_ez/ergodox_ez.c ****     {0, C5_11, C4_11, C6_11}, // LED24
 257:keyboards/ergodox_ez/ergodox_ez.c **** 
 258:keyboards/ergodox_ez/ergodox_ez.c ****     {1, C3_1,  C2_1,  C4_1}, // LED1 on left
 259:keyboards/ergodox_ez/ergodox_ez.c ****     {1, C6_1,  C5_1,  C7_1}, // LED2
 260:keyboards/ergodox_ez/ergodox_ez.c ****     {1, C4_2,  C3_2,  C5_2}, // LED3
 261:keyboards/ergodox_ez/ergodox_ez.c ****     {1, C7_2,  C6_2,  C8_2}, // LED4
 262:keyboards/ergodox_ez/ergodox_ez.c ****     {1, C2_3,  C1_3,  C3_3}, // LED5
 263:keyboards/ergodox_ez/ergodox_ez.c ****     {1, C5_3,  C4_3,  C6_3}, // LED6
 264:keyboards/ergodox_ez/ergodox_ez.c ****     {1, C8_3,  C7_3,  C9_3}, // LED7
 265:keyboards/ergodox_ez/ergodox_ez.c ****     {1, C2_4,  C1_4,  C3_4}, // LED8
 266:keyboards/ergodox_ez/ergodox_ez.c ****     {1, C6_4,  C5_4,  C7_4}, // LED9
 267:keyboards/ergodox_ez/ergodox_ez.c ****     {1, C2_5,  C1_5,  C3_5}, // LED10
 268:keyboards/ergodox_ez/ergodox_ez.c ****     {1, C7_5,  C6_5,  C8_5}, // LED11
 269:keyboards/ergodox_ez/ergodox_ez.c ****     {1, C2_6,  C1_6,  C3_6}, // LED12
 270:keyboards/ergodox_ez/ergodox_ez.c ****     {1, C5_6,  C4_6,  C6_6}, // LED13
 271:keyboards/ergodox_ez/ergodox_ez.c ****     {1, C8_6,  C7_6,  C9_6}, // LED14
 272:keyboards/ergodox_ez/ergodox_ez.c ****     {1, C2_7,  C1_7,  C3_7}, // LED15
 273:keyboards/ergodox_ez/ergodox_ez.c ****     {1, C5_7,  C4_7,  C6_7}, // LED16
 274:keyboards/ergodox_ez/ergodox_ez.c ****     {1, C2_8,  C1_8,  C3_8}, // LED17
 275:keyboards/ergodox_ez/ergodox_ez.c ****     {1, C5_8,  C4_8,  C6_8}, // LED18
 276:keyboards/ergodox_ez/ergodox_ez.c **** 
 277:keyboards/ergodox_ez/ergodox_ez.c ****     {1, C3_9,  C2_9,  C4_9}, // LED19
 278:keyboards/ergodox_ez/ergodox_ez.c ****     {1, C6_9,  C5_9,  C7_9}, // LED20
 279:keyboards/ergodox_ez/ergodox_ez.c ****     {1, C4_10, C3_10, C5_10}, // LED21
 280:keyboards/ergodox_ez/ergodox_ez.c ****     {1, C7_10, C6_10, C8_10}, // LED22
 281:keyboards/ergodox_ez/ergodox_ez.c ****     {1, C2_11, C1_11, C3_11}, // LED23
 282:keyboards/ergodox_ez/ergodox_ez.c ****     {1, C5_11, C4_11, C6_11} // LED24
 283:keyboards/ergodox_ez/ergodox_ez.c **** };
 284:keyboards/ergodox_ez/ergodox_ez.c **** 
 285:keyboards/ergodox_ez/ergodox_ez.c **** 
 286:keyboards/ergodox_ez/ergodox_ez.c **** led_config_t g_led_config = { {
 287:keyboards/ergodox_ez/ergodox_ez.c ****     { NO_LED, NO_LED, NO_LED, NO_LED, NO_LED, NO_LED },
 288:keyboards/ergodox_ez/ergodox_ez.c ****     {  28,  33,  38,  43,  47, NO_LED },
 289:keyboards/ergodox_ez/ergodox_ez.c ****     {  27,  32,  37,  42,  46, NO_LED },
 290:keyboards/ergodox_ez/ergodox_ez.c ****     {  26,  31,  36,  41,  45, NO_LED },
 291:keyboards/ergodox_ez/ergodox_ez.c ****     {  25,  30,  35,  40,  44, NO_LED },
 292:keyboards/ergodox_ez/ergodox_ez.c ****     {  24,  29,  34,  39, NO_LED, NO_LED },
 293:keyboards/ergodox_ez/ergodox_ez.c ****     { NO_LED, NO_LED, NO_LED, NO_LED, NO_LED, NO_LED },
 294:keyboards/ergodox_ez/ergodox_ez.c ****     { NO_LED, NO_LED, NO_LED, NO_LED, NO_LED, NO_LED },
 295:keyboards/ergodox_ez/ergodox_ez.c ****     {   0,   5,  10,  15, NO_LED, NO_LED },
 296:keyboards/ergodox_ez/ergodox_ez.c ****     {   1,   6,  11,  16,  20, NO_LED },
 297:keyboards/ergodox_ez/ergodox_ez.c ****     {   2,   7,  12,  17,  21, NO_LED },
 298:keyboards/ergodox_ez/ergodox_ez.c ****     {   3,   8,  13,  18,  22, NO_LED },
 299:keyboards/ergodox_ez/ergodox_ez.c ****     {   4,   9,  14,  19,  23, NO_LED },
 300:keyboards/ergodox_ez/ergodox_ez.c ****     { NO_LED, NO_LED, NO_LED, NO_LED, NO_LED, NO_LED }
 301:keyboards/ergodox_ez/ergodox_ez.c **** }, {
 302:keyboards/ergodox_ez/ergodox_ez.c ****     { 137,   0 }, { 154,   0 }, { 172,   0 }, { 189,   0 }, { 206,   0 }, { 137,  12 },
 303:keyboards/ergodox_ez/ergodox_ez.c ****     { 154,  12 }, { 172,  12 }, { 189,  12 }, { 206,  12 }, { 137,  25 }, { 154,  25 },
 304:keyboards/ergodox_ez/ergodox_ez.c ****     { 172,  25 }, { 189,  25 }, { 206,  25 }, { 137,  38 }, { 154,  38 }, { 172,  38 },
 305:keyboards/ergodox_ez/ergodox_ez.c ****     { 189,  38 }, { 206,  38 }, { 154,  51 }, { 172,  51 }, { 189,  51 }, { 206,  51 },
 306:keyboards/ergodox_ez/ergodox_ez.c ****     {  86,   0 }, {  68,   0 }, {  51,   0 }, {  34,   0 }, {  17,   0 }, {  86,  12 },
 307:keyboards/ergodox_ez/ergodox_ez.c ****     {  68,  12 }, {  51,  12 }, {  34,  12 }, {  17,  12 }, {  86,  25 }, {  68,  25 },
 308:keyboards/ergodox_ez/ergodox_ez.c ****     {  51,  25 }, {  34,  25 }, {  17,  25 }, {  86,  38 }, {  68,  38 }, {  51,  38 },
 309:keyboards/ergodox_ez/ergodox_ez.c ****     {  34,  38 }, {  17,  38 }, {  68,  51 }, {  51,  51 }, {  34,  51 }, {  17,  51 }
 310:keyboards/ergodox_ez/ergodox_ez.c **** }, {
 311:keyboards/ergodox_ez/ergodox_ez.c ****     4, 4, 4, 4, 4, 4,
 312:keyboards/ergodox_ez/ergodox_ez.c ****     4, 4, 4, 4, 4, 4,
 313:keyboards/ergodox_ez/ergodox_ez.c ****     4, 4, 4, 4, 4, 4,
 314:keyboards/ergodox_ez/ergodox_ez.c ****     4, 4, 1, 1, 1, 1,
 315:keyboards/ergodox_ez/ergodox_ez.c ****     4, 4, 4, 4, 4, 4,
 316:keyboards/ergodox_ez/ergodox_ez.c ****     4, 4, 4, 4, 4, 4,
 317:keyboards/ergodox_ez/ergodox_ez.c ****     4, 4, 4, 4, 4, 4,
 318:keyboards/ergodox_ez/ergodox_ez.c ****     4, 4, 1, 1, 1, 1
 319:keyboards/ergodox_ez/ergodox_ez.c **** } };
 320:keyboards/ergodox_ez/ergodox_ez.c **** 
 321:keyboards/ergodox_ez/ergodox_ez.c **** void suspend_power_down_kb(void) {
 322:keyboards/ergodox_ez/ergodox_ez.c ****     rgb_matrix_set_color_all(0, 0, 0);
 323:keyboards/ergodox_ez/ergodox_ez.c ****     rgb_matrix_set_suspend_state(true);
 324:keyboards/ergodox_ez/ergodox_ez.c ****     suspend_power_down_user();
 325:keyboards/ergodox_ez/ergodox_ez.c **** }
 326:keyboards/ergodox_ez/ergodox_ez.c **** 
 327:keyboards/ergodox_ez/ergodox_ez.c ****  void suspend_wakeup_init_kb(void) {
 328:keyboards/ergodox_ez/ergodox_ez.c ****     rgb_matrix_set_suspend_state(false);
 329:keyboards/ergodox_ez/ergodox_ez.c ****     suspend_wakeup_init_user();
 330:keyboards/ergodox_ez/ergodox_ez.c **** }
 331:keyboards/ergodox_ez/ergodox_ez.c **** 
 332:keyboards/ergodox_ez/ergodox_ez.c **** #ifdef ORYX_CONFIGURATOR
 333:keyboards/ergodox_ez/ergodox_ez.c **** void keyboard_post_init_kb(void) {
 334:keyboards/ergodox_ez/ergodox_ez.c ****     rgb_matrix_enable_noeeprom();
 335:keyboards/ergodox_ez/ergodox_ez.c ****     keyboard_post_init_user();
 336:keyboards/ergodox_ez/ergodox_ez.c **** }
 337:keyboards/ergodox_ez/ergodox_ez.c **** #endif
 338:keyboards/ergodox_ez/ergodox_ez.c **** #endif
 339:keyboards/ergodox_ez/ergodox_ez.c **** 
 340:keyboards/ergodox_ez/ergodox_ez.c **** #ifdef ORYX_CONFIGURATOR
 341:keyboards/ergodox_ez/ergodox_ez.c **** bool process_record_kb(uint16_t keycode, keyrecord_t *record) {
 342:keyboards/ergodox_ez/ergodox_ez.c ****     switch (keycode) {
 343:keyboards/ergodox_ez/ergodox_ez.c ****         case LED_LEVEL:
 344:keyboards/ergodox_ez/ergodox_ez.c ****             if (record->event.pressed) {
 345:keyboards/ergodox_ez/ergodox_ez.c ****                  keyboard_config.led_level++;
 346:keyboards/ergodox_ez/ergodox_ez.c ****                  if (keyboard_config.led_level > 4) {
 347:keyboards/ergodox_ez/ergodox_ez.c ****                     keyboard_config.led_level = 0;
 348:keyboards/ergodox_ez/ergodox_ez.c ****                  }
 349:keyboards/ergodox_ez/ergodox_ez.c ****                  ergodox_led_all_set((uint8_t)keyboard_config.led_level * 255 / 4 );
 350:keyboards/ergodox_ez/ergodox_ez.c ****                  eeconfig_update_kb(keyboard_config.raw);
 351:keyboards/ergodox_ez/ergodox_ez.c ****                  layer_state_set_kb(layer_state);
 352:keyboards/ergodox_ez/ergodox_ez.c ****             }
 353:keyboards/ergodox_ez/ergodox_ez.c ****             break;
 354:keyboards/ergodox_ez/ergodox_ez.c **** #ifdef RGB_MATRIX_ENABLE
 355:keyboards/ergodox_ez/ergodox_ez.c ****         case TOGGLE_LAYER_COLOR:
 356:keyboards/ergodox_ez/ergodox_ez.c ****             if (record->event.pressed) {
 357:keyboards/ergodox_ez/ergodox_ez.c ****                 keyboard_config.disable_layer_led ^= 1;
 358:keyboards/ergodox_ez/ergodox_ez.c ****                 if (keyboard_config.disable_layer_led)
 359:keyboards/ergodox_ez/ergodox_ez.c ****                     rgb_matrix_set_color_all(0, 0, 0);
 360:keyboards/ergodox_ez/ergodox_ez.c ****                 eeconfig_update_kb(keyboard_config.raw);
 361:keyboards/ergodox_ez/ergodox_ez.c ****             }
 362:keyboards/ergodox_ez/ergodox_ez.c ****             break;
 363:keyboards/ergodox_ez/ergodox_ez.c ****         case RGB_TOG:
 364:keyboards/ergodox_ez/ergodox_ez.c ****             if (record->event.pressed) {
 365:keyboards/ergodox_ez/ergodox_ez.c ****               switch (rgb_matrix_get_flags()) {
 366:keyboards/ergodox_ez/ergodox_ez.c ****                 case LED_FLAG_ALL: {
 367:keyboards/ergodox_ez/ergodox_ez.c ****                     rgb_matrix_set_flags(LED_FLAG_NONE);
 368:keyboards/ergodox_ez/ergodox_ez.c ****                     keyboard_config.rgb_matrix_enable = false;
 369:keyboards/ergodox_ez/ergodox_ez.c ****                     rgb_matrix_set_color_all(0, 0, 0);
 370:keyboards/ergodox_ez/ergodox_ez.c ****                   }
 371:keyboards/ergodox_ez/ergodox_ez.c ****                   break;
 372:keyboards/ergodox_ez/ergodox_ez.c ****                 default: {
 373:keyboards/ergodox_ez/ergodox_ez.c ****                     rgb_matrix_set_flags(LED_FLAG_ALL);
 374:keyboards/ergodox_ez/ergodox_ez.c ****                     keyboard_config.rgb_matrix_enable = true;
 375:keyboards/ergodox_ez/ergodox_ez.c ****                   }
 376:keyboards/ergodox_ez/ergodox_ez.c ****                   break;
 377:keyboards/ergodox_ez/ergodox_ez.c ****               }
 378:keyboards/ergodox_ez/ergodox_ez.c ****               eeconfig_update_kb(keyboard_config.raw);
 379:keyboards/ergodox_ez/ergodox_ez.c ****             }
 380:keyboards/ergodox_ez/ergodox_ez.c ****             return false;
 381:keyboards/ergodox_ez/ergodox_ez.c **** #endif
 382:keyboards/ergodox_ez/ergodox_ez.c ****     }
 383:keyboards/ergodox_ez/ergodox_ez.c ****     return process_record_user(keycode, record);
 384:keyboards/ergodox_ez/ergodox_ez.c **** }
 385:keyboards/ergodox_ez/ergodox_ez.c **** #endif
 386:keyboards/ergodox_ez/ergodox_ez.c **** 
 387:keyboards/ergodox_ez/ergodox_ez.c **** void eeconfig_init_kb(void) {  // EEPROM is getting reset!
 912               		.loc 2 387 0
 913               		.cfi_startproc
 914               	/* prologue: function */
 915               	/* frame size = 0 */
 916               	/* stack size = 0 */
 917               	.L__stack_usage = 0
 388:keyboards/ergodox_ez/ergodox_ez.c ****     keyboard_config.raw = 0;
 918               		.loc 2 388 0
 919 0000 1092 0000 		sts keyboard_config,__zero_reg__
 920 0004 1092 0000 		sts keyboard_config+1,__zero_reg__
 921 0008 1092 0000 		sts keyboard_config+2,__zero_reg__
 922 000c 1092 0000 		sts keyboard_config+3,__zero_reg__
 389:keyboards/ergodox_ez/ergodox_ez.c ****     keyboard_config.led_level = 4;
 390:keyboards/ergodox_ez/ergodox_ez.c ****     keyboard_config.rgb_matrix_enable = true;
 923               		.loc 2 390 0
 924 0010 84E0      		ldi r24,lo8(4)
 925 0012 8061      		ori r24,lo8(1<<4)
 926 0014 8093 0000 		sts keyboard_config,r24
 391:keyboards/ergodox_ez/ergodox_ez.c ****     eeconfig_update_kb(keyboard_config.raw);
 927               		.loc 2 391 0
 928 0018 6091 0000 		lds r22,keyboard_config
 929 001c 7091 0000 		lds r23,keyboard_config+1
 930 0020 8091 0000 		lds r24,keyboard_config+2
 931 0024 9091 0000 		lds r25,keyboard_config+3
 932 0028 0E94 0000 		call eeconfig_update_kb
 933               	.LVL47:
 392:keyboards/ergodox_ez/ergodox_ez.c ****     eeconfig_init_user();
 934               		.loc 2 392 0
 935 002c 0C94 0000 		jmp eeconfig_init_user
 936               	.LVL48:
 937               		.cfi_endproc
 938               	.LFE132:
 940               		.section	.progmem.data.__c.6574,"a",@progbits
 943               	__c.6574:
 944 0000 696E 6974 		.string	"init i2c"
 944      2069 3263 
 944      00
 945               		.weak	hand_swap_config
 946               		.section	.rodata.hand_swap_config,"a",@progbits
 949               	hand_swap_config:
 950 0000 00        		.byte	0
 951 0001 0D        		.byte	13
 952 0002 01        		.byte	1
 953 0003 0D        		.byte	13
 954 0004 02        		.byte	2
 955 0005 0D        		.byte	13
 956 0006 03        		.byte	3
 957 0007 0D        		.byte	13
 958 0008 04        		.byte	4
 959 0009 0D        		.byte	13
 960 000a 05        		.byte	5
 961 000b 0D        		.byte	13
 962 000c 00        		.byte	0
 963 000d 0C        		.byte	12
 964 000e 01        		.byte	1
 965 000f 0C        		.byte	12
 966 0010 02        		.byte	2
 967 0011 0C        		.byte	12
 968 0012 03        		.byte	3
 969 0013 0C        		.byte	12
 970 0014 04        		.byte	4
 971 0015 0C        		.byte	12
 972 0016 05        		.byte	5
 973 0017 0C        		.byte	12
 974 0018 00        		.byte	0
 975 0019 0B        		.byte	11
 976 001a 01        		.byte	1
 977 001b 0B        		.byte	11
 978 001c 02        		.byte	2
 979 001d 0B        		.byte	11
 980 001e 03        		.byte	3
 981 001f 0B        		.byte	11
 982 0020 04        		.byte	4
 983 0021 0B        		.byte	11
 984 0022 05        		.byte	5
 985 0023 0B        		.byte	11
 986 0024 00        		.byte	0
 987 0025 0A        		.byte	10
 988 0026 01        		.byte	1
 989 0027 0A        		.byte	10
 990 0028 02        		.byte	2
 991 0029 0A        		.byte	10
 992 002a 03        		.byte	3
 993 002b 0A        		.byte	10
 994 002c 04        		.byte	4
 995 002d 0A        		.byte	10
 996 002e 05        		.byte	5
 997 002f 0A        		.byte	10
 998 0030 00        		.byte	0
 999 0031 09        		.byte	9
 1000 0032 01        		.byte	1
 1001 0033 09        		.byte	9
 1002 0034 02        		.byte	2
 1003 0035 09        		.byte	9
 1004 0036 03        		.byte	3
 1005 0037 09        		.byte	9
 1006 0038 04        		.byte	4
 1007 0039 09        		.byte	9
 1008 003a 05        		.byte	5
 1009 003b 09        		.byte	9
 1010 003c 00        		.byte	0
 1011 003d 08        		.byte	8
 1012 003e 01        		.byte	1
 1013 003f 08        		.byte	8
 1014 0040 02        		.byte	2
 1015 0041 08        		.byte	8
 1016 0042 03        		.byte	3
 1017 0043 08        		.byte	8
 1018 0044 04        		.byte	4
 1019 0045 08        		.byte	8
 1020 0046 05        		.byte	5
 1021 0047 08        		.byte	8
 1022 0048 00        		.byte	0
 1023 0049 07        		.byte	7
 1024 004a 01        		.byte	1
 1025 004b 07        		.byte	7
 1026 004c 02        		.byte	2
 1027 004d 07        		.byte	7
 1028 004e 03        		.byte	3
 1029 004f 07        		.byte	7
 1030 0050 04        		.byte	4
 1031 0051 07        		.byte	7
 1032 0052 05        		.byte	5
 1033 0053 07        		.byte	7
 1034 0054 00        		.byte	0
 1035 0055 06        		.byte	6
 1036 0056 01        		.byte	1
 1037 0057 06        		.byte	6
 1038 0058 02        		.byte	2
 1039 0059 06        		.byte	6
 1040 005a 03        		.byte	3
 1041 005b 06        		.byte	6
 1042 005c 04        		.byte	4
 1043 005d 06        		.byte	6
 1044 005e 05        		.byte	5
 1045 005f 06        		.byte	6
 1046 0060 00        		.byte	0
 1047 0061 05        		.byte	5
 1048 0062 01        		.byte	1
 1049 0063 05        		.byte	5
 1050 0064 02        		.byte	2
 1051 0065 05        		.byte	5
 1052 0066 03        		.byte	3
 1053 0067 05        		.byte	5
 1054 0068 04        		.byte	4
 1055 0069 05        		.byte	5
 1056 006a 05        		.byte	5
 1057 006b 05        		.byte	5
 1058 006c 00        		.byte	0
 1059 006d 04        		.byte	4
 1060 006e 01        		.byte	1
 1061 006f 04        		.byte	4
 1062 0070 02        		.byte	2
 1063 0071 04        		.byte	4
 1064 0072 03        		.byte	3
 1065 0073 04        		.byte	4
 1066 0074 04        		.byte	4
 1067 0075 04        		.byte	4
 1068 0076 05        		.byte	5
 1069 0077 04        		.byte	4
 1070 0078 00        		.byte	0
 1071 0079 03        		.byte	3
 1072 007a 01        		.byte	1
 1073 007b 03        		.byte	3
 1074 007c 02        		.byte	2
 1075 007d 03        		.byte	3
 1076 007e 03        		.byte	3
 1077 007f 03        		.byte	3
 1078 0080 04        		.byte	4
 1079 0081 03        		.byte	3
 1080 0082 05        		.byte	5
 1081 0083 03        		.byte	3
 1082 0084 00        		.byte	0
 1083 0085 02        		.byte	2
 1084 0086 01        		.byte	1
 1085 0087 02        		.byte	2
 1086 0088 02        		.byte	2
 1087 0089 02        		.byte	2
 1088 008a 03        		.byte	3
 1089 008b 02        		.byte	2
 1090 008c 04        		.byte	4
 1091 008d 02        		.byte	2
 1092 008e 05        		.byte	5
 1093 008f 02        		.byte	2
 1094 0090 00        		.byte	0
 1095 0091 01        		.byte	1
 1096 0092 01        		.byte	1
 1097 0093 01        		.byte	1
 1098 0094 02        		.byte	2
 1099 0095 01        		.byte	1
 1100 0096 03        		.byte	3
 1101 0097 01        		.byte	1
 1102 0098 04        		.byte	4
 1103 0099 01        		.byte	1
 1104 009a 05        		.byte	5
 1105 009b 01        		.byte	1
 1106 009c 00        		.byte	0
 1107 009d 00        		.byte	0
 1108 009e 01        		.byte	1
 1109 009f 00        		.byte	0
 1110 00a0 02        		.byte	2
 1111 00a1 00        		.byte	0
 1112 00a2 03        		.byte	3
 1113 00a3 00        		.byte	0
 1114 00a4 04        		.byte	4
 1115 00a5 00        		.byte	0
 1116 00a6 05        		.byte	5
 1117 00a7 00        		.byte	0
 1118               	.global	mcp23018_status
 1119               		.section	.data.mcp23018_status,"aw",@progbits
 1122               	mcp23018_status:
 1123 0000 2000      		.word	32
 1124               	.global	i2c_initialized
 1125               		.section	.bss.i2c_initialized,"aw",@nobits
 1128               	i2c_initialized:
 1129 0000 00        		.zero	1
 1130               		.comm	keyboard_config,4,1
 1131               		.text
 1132               	.Letext0:
 1133               		.file 4 "/usr/lib/avr/include/stdint.h"
 1134               		.file 5 "tmk_core/common/keyboard.h"
 1135               		.file 6 "tmk_core/common/report.h"
 1136               		.file 7 "drivers/avr/i2c_master.h"
 1137               		.file 8 "lib/lufa/LUFA/Drivers/USB/Core/USBTask.h"
 1138               		.file 9 "tmk_core/common/action_util.h"
 1139               		.file 10 "tmk_core/common/eeconfig.h"
 1140               		.file 11 "quantum/quantum.h"
 1141               		.file 12 "tmk_core/common/avr/xprintf.h"
 1142               		.file 13 "quantum/quantum_keycodes.h"
DEFINED SYMBOLS
                            *ABS*:0000000000000000 ergodox_ez.c
     /tmp/ccAsS2An.s:2      *ABS*:000000000000003e __SP_H__
     /tmp/ccAsS2An.s:3      *ABS*:000000000000003d __SP_L__
     /tmp/ccAsS2An.s:4      *ABS*:000000000000003f __SREG__
     /tmp/ccAsS2An.s:5      *ABS*:0000000000000000 __tmp_reg__
     /tmp/ccAsS2An.s:6      *ABS*:0000000000000001 __zero_reg__
     /tmp/ccAsS2An.s:13     .text.ergodox_board_led_on:0000000000000000 ergodox_board_led_on
     /tmp/ccAsS2An.s:32     .text.ergodox_right_led_1_on:0000000000000000 ergodox_right_led_1_on
     /tmp/ccAsS2An.s:50     .text.ergodox_right_led_2_on:0000000000000000 ergodox_right_led_2_on
     /tmp/ccAsS2An.s:68     .text.ergodox_right_led_3_on:0000000000000000 ergodox_right_led_3_on
     /tmp/ccAsS2An.s:86     .text.ergodox_right_led_on:0000000000000000 ergodox_right_led_on
     /tmp/ccAsS2An.s:120    .text.ergodox_board_led_off:0000000000000000 ergodox_board_led_off
     /tmp/ccAsS2An.s:138    .text.ergodox_right_led_1_off:0000000000000000 ergodox_right_led_1_off
     /tmp/ccAsS2An.s:156    .text.ergodox_right_led_2_off:0000000000000000 ergodox_right_led_2_off
     /tmp/ccAsS2An.s:174    .text.ergodox_right_led_3_off:0000000000000000 ergodox_right_led_3_off
     /tmp/ccAsS2An.s:192    .text.ergodox_right_led_off:0000000000000000 ergodox_right_led_off
     /tmp/ccAsS2An.s:227    .text.ergodox_led_all_on:0000000000000000 ergodox_led_all_on
     /tmp/ccAsS2An.s:270    .text.ergodox_led_all_off:0000000000000000 ergodox_led_all_off
     /tmp/ccAsS2An.s:313    .text.ergodox_right_led_1_set:0000000000000000 ergodox_right_led_1_set
     /tmp/ccAsS2An.s:333    .text.ergodox_right_led_2_set:0000000000000000 ergodox_right_led_2_set
     /tmp/ccAsS2An.s:353    .text.ergodox_right_led_3_set:0000000000000000 ergodox_right_led_3_set
     /tmp/ccAsS2An.s:373    .text.ergodox_right_led_set:0000000000000000 ergodox_right_led_set
     /tmp/ccAsS2An.s:409    .text.ergodox_led_all_set:0000000000000000 ergodox_led_all_set
     /tmp/ccAsS2An.s:450    .text.ergodox_blink_all_leds:0000000000000000 ergodox_blink_all_leds
     /tmp/ccAsS2An.s:678    .text.matrix_init_kb:0000000000000000 matrix_init_kb
                            *COM*:0000000000000004 keyboard_config
     /tmp/ccAsS2An.s:769    .text.init_mcp23018:0000000000000000 init_mcp23018
     /tmp/ccAsS2An.s:1122   .data.mcp23018_status:0000000000000000 mcp23018_status
     /tmp/ccAsS2An.s:1128   .bss.i2c_initialized:0000000000000000 i2c_initialized
     /tmp/ccAsS2An.s:943    .progmem.data.__c.6574:0000000000000000 __c.6574
     /tmp/ccAsS2An.s:910    .text.eeconfig_init_kb:0000000000000000 eeconfig_init_kb
     /tmp/ccAsS2An.s:949    .rodata.hand_swap_config:0000000000000000 hand_swap_config

UNDEFINED SYMBOLS
eeconfig_read_kb
matrix_init_user
xputs
i2c_init
i2c_start
i2c_write
i2c_stop
eeconfig_update_kb
eeconfig_init_user
__do_copy_data
__do_clear_bss
