   1               		.file	"ConfigDescriptors.c"
   2               	__SP_H__ = 0x3e
   3               	__SP_L__ = 0x3d
   4               	__SREG__ = 0x3f
   5               	__tmp_reg__ = 0
   6               	__zero_reg__ = 1
   7               		.text
   8               	.Ltext0:
   9               		.cfi_sections	.debug_frame
  10               		.section	.text.USB_GetNextDescriptor,"ax",@progbits
  12               	USB_GetNextDescriptor:
  13               	.LFB87:
  14               		.file 1 "lib/lufa/LUFA/Drivers/USB/Core/ConfigDescriptors.h"
   1:lib/lufa/LUFA/Drivers/USB/Core/ConfigDescriptors.h **** /*
   2:lib/lufa/LUFA/Drivers/USB/Core/ConfigDescriptors.h ****              LUFA Library
   3:lib/lufa/LUFA/Drivers/USB/Core/ConfigDescriptors.h ****      Copyright (C) Dean Camera, 2019.
   4:lib/lufa/LUFA/Drivers/USB/Core/ConfigDescriptors.h **** 
   5:lib/lufa/LUFA/Drivers/USB/Core/ConfigDescriptors.h ****   dean [at] fourwalledcubicle [dot] com
   6:lib/lufa/LUFA/Drivers/USB/Core/ConfigDescriptors.h ****            www.lufa-lib.org
   7:lib/lufa/LUFA/Drivers/USB/Core/ConfigDescriptors.h **** */
   8:lib/lufa/LUFA/Drivers/USB/Core/ConfigDescriptors.h **** 
   9:lib/lufa/LUFA/Drivers/USB/Core/ConfigDescriptors.h **** /*
  10:lib/lufa/LUFA/Drivers/USB/Core/ConfigDescriptors.h ****   Copyright 2019  Dean Camera (dean [at] fourwalledcubicle [dot] com)
  11:lib/lufa/LUFA/Drivers/USB/Core/ConfigDescriptors.h **** 
  12:lib/lufa/LUFA/Drivers/USB/Core/ConfigDescriptors.h ****   Permission to use, copy, modify, distribute, and sell this
  13:lib/lufa/LUFA/Drivers/USB/Core/ConfigDescriptors.h ****   software and its documentation for any purpose is hereby granted
  14:lib/lufa/LUFA/Drivers/USB/Core/ConfigDescriptors.h ****   without fee, provided that the above copyright notice appear in
  15:lib/lufa/LUFA/Drivers/USB/Core/ConfigDescriptors.h ****   all copies and that both that the copyright notice and this
  16:lib/lufa/LUFA/Drivers/USB/Core/ConfigDescriptors.h ****   permission notice and warranty disclaimer appear in supporting
  17:lib/lufa/LUFA/Drivers/USB/Core/ConfigDescriptors.h ****   documentation, and that the name of the author not be used in
  18:lib/lufa/LUFA/Drivers/USB/Core/ConfigDescriptors.h ****   advertising or publicity pertaining to distribution of the
  19:lib/lufa/LUFA/Drivers/USB/Core/ConfigDescriptors.h ****   software without specific, written prior permission.
  20:lib/lufa/LUFA/Drivers/USB/Core/ConfigDescriptors.h **** 
  21:lib/lufa/LUFA/Drivers/USB/Core/ConfigDescriptors.h ****   The author disclaims all warranties with regard to this
  22:lib/lufa/LUFA/Drivers/USB/Core/ConfigDescriptors.h ****   software, including all implied warranties of merchantability
  23:lib/lufa/LUFA/Drivers/USB/Core/ConfigDescriptors.h ****   and fitness.  In no event shall the author be liable for any
  24:lib/lufa/LUFA/Drivers/USB/Core/ConfigDescriptors.h ****   special, indirect or consequential damages or any damages
  25:lib/lufa/LUFA/Drivers/USB/Core/ConfigDescriptors.h ****   whatsoever resulting from loss of use, data or profits, whether
  26:lib/lufa/LUFA/Drivers/USB/Core/ConfigDescriptors.h ****   in an action of contract, negligence or other tortious action,
  27:lib/lufa/LUFA/Drivers/USB/Core/ConfigDescriptors.h ****   arising out of or in connection with the use or performance of
  28:lib/lufa/LUFA/Drivers/USB/Core/ConfigDescriptors.h ****   this software.
  29:lib/lufa/LUFA/Drivers/USB/Core/ConfigDescriptors.h **** */
  30:lib/lufa/LUFA/Drivers/USB/Core/ConfigDescriptors.h **** 
  31:lib/lufa/LUFA/Drivers/USB/Core/ConfigDescriptors.h **** /** \file
  32:lib/lufa/LUFA/Drivers/USB/Core/ConfigDescriptors.h ****  *  \brief USB Configuration Descriptor definitions.
  33:lib/lufa/LUFA/Drivers/USB/Core/ConfigDescriptors.h ****  *  \copydetails Group_ConfigDescriptorParser
  34:lib/lufa/LUFA/Drivers/USB/Core/ConfigDescriptors.h ****  *
  35:lib/lufa/LUFA/Drivers/USB/Core/ConfigDescriptors.h ****  *  \note This file should not be included directly. It is automatically included as needed by the 
  36:lib/lufa/LUFA/Drivers/USB/Core/ConfigDescriptors.h ****  *        dispatch header located in LUFA/Drivers/USB/USB.h.
  37:lib/lufa/LUFA/Drivers/USB/Core/ConfigDescriptors.h ****  */
  38:lib/lufa/LUFA/Drivers/USB/Core/ConfigDescriptors.h **** 
  39:lib/lufa/LUFA/Drivers/USB/Core/ConfigDescriptors.h **** /** \ingroup Group_StdDescriptors
  40:lib/lufa/LUFA/Drivers/USB/Core/ConfigDescriptors.h ****  *  \defgroup Group_ConfigDescriptorParser Configuration Descriptor Parser
  41:lib/lufa/LUFA/Drivers/USB/Core/ConfigDescriptors.h ****  *  \brief USB Configuration Descriptor definitions.
  42:lib/lufa/LUFA/Drivers/USB/Core/ConfigDescriptors.h ****  *
  43:lib/lufa/LUFA/Drivers/USB/Core/ConfigDescriptors.h ****  *  This section of the library gives a friendly API which can be used in host applications to easi
  44:lib/lufa/LUFA/Drivers/USB/Core/ConfigDescriptors.h ****  *  parse an attached device's configuration descriptor so that endpoint, interface and other descr
  45:lib/lufa/LUFA/Drivers/USB/Core/ConfigDescriptors.h ****  *  data can be extracted and used as needed.
  46:lib/lufa/LUFA/Drivers/USB/Core/ConfigDescriptors.h ****  *
  47:lib/lufa/LUFA/Drivers/USB/Core/ConfigDescriptors.h ****  *  @{
  48:lib/lufa/LUFA/Drivers/USB/Core/ConfigDescriptors.h ****  */
  49:lib/lufa/LUFA/Drivers/USB/Core/ConfigDescriptors.h **** 
  50:lib/lufa/LUFA/Drivers/USB/Core/ConfigDescriptors.h **** #ifndef __CONFIGDESCRIPTORS_H__
  51:lib/lufa/LUFA/Drivers/USB/Core/ConfigDescriptors.h **** #define __CONFIGDESCRIPTORS_H__
  52:lib/lufa/LUFA/Drivers/USB/Core/ConfigDescriptors.h **** 
  53:lib/lufa/LUFA/Drivers/USB/Core/ConfigDescriptors.h **** 	/* Includes: */
  54:lib/lufa/LUFA/Drivers/USB/Core/ConfigDescriptors.h **** 		#include "../../../Common/Common.h"
  55:lib/lufa/LUFA/Drivers/USB/Core/ConfigDescriptors.h **** 		#include "USBMode.h"
  56:lib/lufa/LUFA/Drivers/USB/Core/ConfigDescriptors.h **** 		#include "HostStandardReq.h"
  57:lib/lufa/LUFA/Drivers/USB/Core/ConfigDescriptors.h **** 		#include "StdDescriptors.h"
  58:lib/lufa/LUFA/Drivers/USB/Core/ConfigDescriptors.h **** 
  59:lib/lufa/LUFA/Drivers/USB/Core/ConfigDescriptors.h **** 	/* Enable C linkage for C++ Compilers: */
  60:lib/lufa/LUFA/Drivers/USB/Core/ConfigDescriptors.h **** 		#if defined(__cplusplus)
  61:lib/lufa/LUFA/Drivers/USB/Core/ConfigDescriptors.h **** 			extern "C" {
  62:lib/lufa/LUFA/Drivers/USB/Core/ConfigDescriptors.h **** 		#endif
  63:lib/lufa/LUFA/Drivers/USB/Core/ConfigDescriptors.h **** 
  64:lib/lufa/LUFA/Drivers/USB/Core/ConfigDescriptors.h **** 	/* Preprocessor Checks: */
  65:lib/lufa/LUFA/Drivers/USB/Core/ConfigDescriptors.h **** 		#if !defined(__INCLUDE_FROM_USB_DRIVER)
  66:lib/lufa/LUFA/Drivers/USB/Core/ConfigDescriptors.h **** 			#error Do not include this file directly. Include LUFA/Drivers/USB/USB.h instead.
  67:lib/lufa/LUFA/Drivers/USB/Core/ConfigDescriptors.h **** 		#endif
  68:lib/lufa/LUFA/Drivers/USB/Core/ConfigDescriptors.h **** 
  69:lib/lufa/LUFA/Drivers/USB/Core/ConfigDescriptors.h **** 	/* Public Interface - May be used in end-application: */
  70:lib/lufa/LUFA/Drivers/USB/Core/ConfigDescriptors.h **** 		/* Macros: */
  71:lib/lufa/LUFA/Drivers/USB/Core/ConfigDescriptors.h **** 			/** Casts a pointer to a descriptor inside the configuration descriptor into a pointer to the gi
  72:lib/lufa/LUFA/Drivers/USB/Core/ConfigDescriptors.h **** 			 *  descriptor type.
  73:lib/lufa/LUFA/Drivers/USB/Core/ConfigDescriptors.h **** 			 *
  74:lib/lufa/LUFA/Drivers/USB/Core/ConfigDescriptors.h **** 			 *  Usage Example:
  75:lib/lufa/LUFA/Drivers/USB/Core/ConfigDescriptors.h **** 			 *  \code
  76:lib/lufa/LUFA/Drivers/USB/Core/ConfigDescriptors.h **** 			 *  uint8_t* CurrDescriptor = &ConfigDescriptor[0]; // Pointing to the configuration header
  77:lib/lufa/LUFA/Drivers/USB/Core/ConfigDescriptors.h **** 			 *  USB_Descriptor_Configuration_Header_t* ConfigHeaderPtr = DESCRIPTOR_PCAST(CurrDescriptor,
  78:lib/lufa/LUFA/Drivers/USB/Core/ConfigDescriptors.h **** 			 *                                                           USB_Descriptor_Configuration_Header
  79:lib/lufa/LUFA/Drivers/USB/Core/ConfigDescriptors.h **** 			 *
  80:lib/lufa/LUFA/Drivers/USB/Core/ConfigDescriptors.h **** 			 *  // Can now access elements of the configuration header struct using the -> indirection opera
  81:lib/lufa/LUFA/Drivers/USB/Core/ConfigDescriptors.h **** 			 *  \endcode
  82:lib/lufa/LUFA/Drivers/USB/Core/ConfigDescriptors.h **** 			 */
  83:lib/lufa/LUFA/Drivers/USB/Core/ConfigDescriptors.h **** 			#define DESCRIPTOR_PCAST(DescriptorPtr, Type) ((Type*)(DescriptorPtr))
  84:lib/lufa/LUFA/Drivers/USB/Core/ConfigDescriptors.h **** 
  85:lib/lufa/LUFA/Drivers/USB/Core/ConfigDescriptors.h **** 			/** Casts a pointer to a descriptor inside the configuration descriptor into the given descripto
  86:lib/lufa/LUFA/Drivers/USB/Core/ConfigDescriptors.h **** 			 *  type (as an actual struct instance rather than a pointer to a struct).
  87:lib/lufa/LUFA/Drivers/USB/Core/ConfigDescriptors.h **** 			 *
  88:lib/lufa/LUFA/Drivers/USB/Core/ConfigDescriptors.h **** 			 *  Usage Example:
  89:lib/lufa/LUFA/Drivers/USB/Core/ConfigDescriptors.h **** 			 *  \code
  90:lib/lufa/LUFA/Drivers/USB/Core/ConfigDescriptors.h **** 			 *  uint8_t* CurrDescriptor = &ConfigDescriptor[0]; // Pointing to the configuration header
  91:lib/lufa/LUFA/Drivers/USB/Core/ConfigDescriptors.h **** 			 *  USB_Descriptor_Configuration_Header_t ConfigHeader = DESCRIPTOR_CAST(CurrDescriptor,
  92:lib/lufa/LUFA/Drivers/USB/Core/ConfigDescriptors.h **** 			 *                                                       USB_Descriptor_Configuration_Header_t);
  93:lib/lufa/LUFA/Drivers/USB/Core/ConfigDescriptors.h **** 			 *
  94:lib/lufa/LUFA/Drivers/USB/Core/ConfigDescriptors.h **** 			 *  // Can now access elements of the configuration header struct using the . operator
  95:lib/lufa/LUFA/Drivers/USB/Core/ConfigDescriptors.h **** 			 *  \endcode
  96:lib/lufa/LUFA/Drivers/USB/Core/ConfigDescriptors.h **** 			 */
  97:lib/lufa/LUFA/Drivers/USB/Core/ConfigDescriptors.h **** 			#define DESCRIPTOR_CAST(DescriptorPtr, Type)  (*DESCRIPTOR_PCAST(DescriptorPtr, Type))
  98:lib/lufa/LUFA/Drivers/USB/Core/ConfigDescriptors.h **** 
  99:lib/lufa/LUFA/Drivers/USB/Core/ConfigDescriptors.h **** 			/** Returns the descriptor's type, expressed as the 8-bit type value in the header of the descri
 100:lib/lufa/LUFA/Drivers/USB/Core/ConfigDescriptors.h **** 			 *  This value's meaning depends on the descriptor's placement in the descriptor, but standard t
 101:lib/lufa/LUFA/Drivers/USB/Core/ConfigDescriptors.h **** 			 *  values can be accessed in the \ref USB_DescriptorTypes_t enum.
 102:lib/lufa/LUFA/Drivers/USB/Core/ConfigDescriptors.h **** 			 */
 103:lib/lufa/LUFA/Drivers/USB/Core/ConfigDescriptors.h **** 			#define DESCRIPTOR_TYPE(DescriptorPtr)    DESCRIPTOR_PCAST(DescriptorPtr, USB_Descriptor_Header_
 104:lib/lufa/LUFA/Drivers/USB/Core/ConfigDescriptors.h **** 
 105:lib/lufa/LUFA/Drivers/USB/Core/ConfigDescriptors.h **** 			/** Returns the descriptor's size, expressed as the 8-bit value indicating the number of bytes. 
 106:lib/lufa/LUFA/Drivers/USB/Core/ConfigDescriptors.h **** 			#define DESCRIPTOR_SIZE(DescriptorPtr)    DESCRIPTOR_PCAST(DescriptorPtr, USB_Descriptor_Header_
 107:lib/lufa/LUFA/Drivers/USB/Core/ConfigDescriptors.h **** 
 108:lib/lufa/LUFA/Drivers/USB/Core/ConfigDescriptors.h **** 		/* Type Defines: */
 109:lib/lufa/LUFA/Drivers/USB/Core/ConfigDescriptors.h **** 			/** Type define for a Configuration Descriptor comparator function (function taking a pointer to
 110:lib/lufa/LUFA/Drivers/USB/Core/ConfigDescriptors.h **** 			 *  of type void, returning a uint8_t value).
 111:lib/lufa/LUFA/Drivers/USB/Core/ConfigDescriptors.h **** 			 *
 112:lib/lufa/LUFA/Drivers/USB/Core/ConfigDescriptors.h **** 			 *  \see \ref USB_GetNextDescriptorComp function for more details.
 113:lib/lufa/LUFA/Drivers/USB/Core/ConfigDescriptors.h **** 			 */
 114:lib/lufa/LUFA/Drivers/USB/Core/ConfigDescriptors.h **** 			typedef uint8_t (* ConfigComparatorPtr_t)(void*);
 115:lib/lufa/LUFA/Drivers/USB/Core/ConfigDescriptors.h **** 
 116:lib/lufa/LUFA/Drivers/USB/Core/ConfigDescriptors.h **** 		/* Enums: */
 117:lib/lufa/LUFA/Drivers/USB/Core/ConfigDescriptors.h **** 			/** Enum for the possible return codes of the \ref USB_Host_GetDeviceConfigDescriptor() function
 118:lib/lufa/LUFA/Drivers/USB/Core/ConfigDescriptors.h **** 			enum USB_Host_GetConfigDescriptor_ErrorCodes_t
 119:lib/lufa/LUFA/Drivers/USB/Core/ConfigDescriptors.h **** 			{
 120:lib/lufa/LUFA/Drivers/USB/Core/ConfigDescriptors.h **** 				HOST_GETCONFIG_Successful       = 0, /**< No error occurred while retrieving the configuration 
 121:lib/lufa/LUFA/Drivers/USB/Core/ConfigDescriptors.h **** 				HOST_GETCONFIG_DeviceDisconnect = 1, /**< The attached device was disconnected while retrieving
 122:lib/lufa/LUFA/Drivers/USB/Core/ConfigDescriptors.h **** 				                                      *   descriptor.
 123:lib/lufa/LUFA/Drivers/USB/Core/ConfigDescriptors.h **** 				                                      */
 124:lib/lufa/LUFA/Drivers/USB/Core/ConfigDescriptors.h **** 				HOST_GETCONFIG_PipeError        = 2, /**< An error occurred in the pipe while sending the reque
 125:lib/lufa/LUFA/Drivers/USB/Core/ConfigDescriptors.h **** 				HOST_GETCONFIG_SetupStalled     = 3, /**< The attached device stalled the request to retrieve t
 126:lib/lufa/LUFA/Drivers/USB/Core/ConfigDescriptors.h **** 				                                      *   descriptor.
 127:lib/lufa/LUFA/Drivers/USB/Core/ConfigDescriptors.h **** 				                                      */
 128:lib/lufa/LUFA/Drivers/USB/Core/ConfigDescriptors.h **** 				HOST_GETCONFIG_SoftwareTimeOut  = 4, /**< The request or data transfer timed out. */
 129:lib/lufa/LUFA/Drivers/USB/Core/ConfigDescriptors.h **** 				HOST_GETCONFIG_BuffOverflow     = 5, /**< The device's configuration descriptor is too large to
 130:lib/lufa/LUFA/Drivers/USB/Core/ConfigDescriptors.h **** 				                                      *   buffer.
 131:lib/lufa/LUFA/Drivers/USB/Core/ConfigDescriptors.h **** 				                                      */
 132:lib/lufa/LUFA/Drivers/USB/Core/ConfigDescriptors.h **** 				HOST_GETCONFIG_InvalidData      = 6, /**< The device returned invalid configuration descriptor 
 133:lib/lufa/LUFA/Drivers/USB/Core/ConfigDescriptors.h **** 			};
 134:lib/lufa/LUFA/Drivers/USB/Core/ConfigDescriptors.h **** 
 135:lib/lufa/LUFA/Drivers/USB/Core/ConfigDescriptors.h **** 			/** Enum for return values of a descriptor comparator function. */
 136:lib/lufa/LUFA/Drivers/USB/Core/ConfigDescriptors.h **** 			enum DSearch_Return_ErrorCodes_t
 137:lib/lufa/LUFA/Drivers/USB/Core/ConfigDescriptors.h **** 			{
 138:lib/lufa/LUFA/Drivers/USB/Core/ConfigDescriptors.h **** 				DESCRIPTOR_SEARCH_Found                = 0, /**< Current descriptor matches comparator criteria
 139:lib/lufa/LUFA/Drivers/USB/Core/ConfigDescriptors.h **** 				DESCRIPTOR_SEARCH_Fail                 = 1, /**< No further descriptor could possibly match cri
 140:lib/lufa/LUFA/Drivers/USB/Core/ConfigDescriptors.h **** 				DESCRIPTOR_SEARCH_NotFound             = 2, /**< Current descriptor does not match comparator c
 141:lib/lufa/LUFA/Drivers/USB/Core/ConfigDescriptors.h **** 			};
 142:lib/lufa/LUFA/Drivers/USB/Core/ConfigDescriptors.h **** 
 143:lib/lufa/LUFA/Drivers/USB/Core/ConfigDescriptors.h **** 			/** Enum for return values of \ref USB_GetNextDescriptorComp(). */
 144:lib/lufa/LUFA/Drivers/USB/Core/ConfigDescriptors.h **** 			enum DSearch_Comp_Return_ErrorCodes_t
 145:lib/lufa/LUFA/Drivers/USB/Core/ConfigDescriptors.h **** 			{
 146:lib/lufa/LUFA/Drivers/USB/Core/ConfigDescriptors.h **** 				DESCRIPTOR_SEARCH_COMP_Found           = 0, /**< Configuration descriptor now points to descrip
 147:lib/lufa/LUFA/Drivers/USB/Core/ConfigDescriptors.h **** 				                                             *   search criteria of the given comparator functi
 148:lib/lufa/LUFA/Drivers/USB/Core/ConfigDescriptors.h **** 				DESCRIPTOR_SEARCH_COMP_Fail            = 1, /**< Comparator function returned \ref DESCRIPTOR_S
 149:lib/lufa/LUFA/Drivers/USB/Core/ConfigDescriptors.h **** 				DESCRIPTOR_SEARCH_COMP_EndOfDescriptor = 2, /**< End of configuration descriptor reached before
 150:lib/lufa/LUFA/Drivers/USB/Core/ConfigDescriptors.h **** 			};
 151:lib/lufa/LUFA/Drivers/USB/Core/ConfigDescriptors.h **** 
 152:lib/lufa/LUFA/Drivers/USB/Core/ConfigDescriptors.h **** 		/* Function Prototypes: */
 153:lib/lufa/LUFA/Drivers/USB/Core/ConfigDescriptors.h **** 			/** Retrieves the configuration descriptor data from an attached device via a standard request i
 154:lib/lufa/LUFA/Drivers/USB/Core/ConfigDescriptors.h **** 			 *  including validity and size checking to prevent a buffer overflow.
 155:lib/lufa/LUFA/Drivers/USB/Core/ConfigDescriptors.h **** 			 *
 156:lib/lufa/LUFA/Drivers/USB/Core/ConfigDescriptors.h **** 			 *  \param[in]     ConfigNumber   Device configuration descriptor number to fetch from the devic
 157:lib/lufa/LUFA/Drivers/USB/Core/ConfigDescriptors.h **** 			 *                                single configuration devices).
 158:lib/lufa/LUFA/Drivers/USB/Core/ConfigDescriptors.h **** 			 *  \param[in,out] ConfigSizePtr  Pointer to a location for storing the retrieved configuration 
 159:lib/lufa/LUFA/Drivers/USB/Core/ConfigDescriptors.h **** 			 *  \param[out]    BufferPtr      Pointer to the buffer for storing the configuration descriptor
 160:lib/lufa/LUFA/Drivers/USB/Core/ConfigDescriptors.h **** 			 *  \param[out]    BufferSize     Size of the allocated buffer where the configuration descripto
 161:lib/lufa/LUFA/Drivers/USB/Core/ConfigDescriptors.h **** 			 *
 162:lib/lufa/LUFA/Drivers/USB/Core/ConfigDescriptors.h **** 			 *  \return A value from the \ref USB_Host_GetConfigDescriptor_ErrorCodes_t enum.
 163:lib/lufa/LUFA/Drivers/USB/Core/ConfigDescriptors.h **** 			 */
 164:lib/lufa/LUFA/Drivers/USB/Core/ConfigDescriptors.h **** 			uint8_t USB_Host_GetDeviceConfigDescriptor(const uint8_t ConfigNumber,
 165:lib/lufa/LUFA/Drivers/USB/Core/ConfigDescriptors.h **** 			                                           uint16_t* const ConfigSizePtr,
 166:lib/lufa/LUFA/Drivers/USB/Core/ConfigDescriptors.h **** 			                                           void* const BufferPtr,
 167:lib/lufa/LUFA/Drivers/USB/Core/ConfigDescriptors.h **** 			                                           const uint16_t BufferSize) ATTR_NON_NULL_PTR_ARG(2) A
 168:lib/lufa/LUFA/Drivers/USB/Core/ConfigDescriptors.h **** 
 169:lib/lufa/LUFA/Drivers/USB/Core/ConfigDescriptors.h **** 			/** Skips to the next sub-descriptor inside the configuration descriptor of the specified type v
 170:lib/lufa/LUFA/Drivers/USB/Core/ConfigDescriptors.h **** 			 *  The bytes remaining value is automatically decremented.
 171:lib/lufa/LUFA/Drivers/USB/Core/ConfigDescriptors.h **** 			 *
 172:lib/lufa/LUFA/Drivers/USB/Core/ConfigDescriptors.h **** 			 * \param[in,out] BytesRem       Pointer to the number of bytes remaining of the configuration d
 173:lib/lufa/LUFA/Drivers/USB/Core/ConfigDescriptors.h **** 			 * \param[in,out] CurrConfigLoc  Pointer to the current descriptor inside the configuration desc
 174:lib/lufa/LUFA/Drivers/USB/Core/ConfigDescriptors.h **** 			 * \param[in]     Type           Descriptor type value to search for.
 175:lib/lufa/LUFA/Drivers/USB/Core/ConfigDescriptors.h **** 			 */
 176:lib/lufa/LUFA/Drivers/USB/Core/ConfigDescriptors.h **** 			void USB_GetNextDescriptorOfType(uint16_t* const BytesRem,
 177:lib/lufa/LUFA/Drivers/USB/Core/ConfigDescriptors.h **** 			                                 void** const CurrConfigLoc,
 178:lib/lufa/LUFA/Drivers/USB/Core/ConfigDescriptors.h **** 			                                 const uint8_t Type)
 179:lib/lufa/LUFA/Drivers/USB/Core/ConfigDescriptors.h **** 			                                 ATTR_NON_NULL_PTR_ARG(1) ATTR_NON_NULL_PTR_ARG(2);
 180:lib/lufa/LUFA/Drivers/USB/Core/ConfigDescriptors.h **** 
 181:lib/lufa/LUFA/Drivers/USB/Core/ConfigDescriptors.h **** 			/** Skips to the next sub-descriptor inside the configuration descriptor of the specified type v
 182:lib/lufa/LUFA/Drivers/USB/Core/ConfigDescriptors.h **** 			 *  which must come before a descriptor of the second given type value. If the BeforeType type
 183:lib/lufa/LUFA/Drivers/USB/Core/ConfigDescriptors.h **** 			 *  descriptor is reached first, the number of bytes remaining to process is set to zero and the
 184:lib/lufa/LUFA/Drivers/USB/Core/ConfigDescriptors.h **** 			 *  function exits. The bytes remaining value is automatically decremented.
 185:lib/lufa/LUFA/Drivers/USB/Core/ConfigDescriptors.h **** 			 *
 186:lib/lufa/LUFA/Drivers/USB/Core/ConfigDescriptors.h **** 			 * \param[in,out] BytesRem       Pointer to the number of bytes remaining of the configuration d
 187:lib/lufa/LUFA/Drivers/USB/Core/ConfigDescriptors.h **** 			 * \param[in,out] CurrConfigLoc  Pointer to the current descriptor inside the configuration desc
 188:lib/lufa/LUFA/Drivers/USB/Core/ConfigDescriptors.h **** 			 * \param[in]     Type           Descriptor type value to search for.
 189:lib/lufa/LUFA/Drivers/USB/Core/ConfigDescriptors.h **** 			 * \param[in]     BeforeType     Descriptor type value which must not be reached before the give
 190:lib/lufa/LUFA/Drivers/USB/Core/ConfigDescriptors.h **** 			 */
 191:lib/lufa/LUFA/Drivers/USB/Core/ConfigDescriptors.h **** 			void USB_GetNextDescriptorOfTypeBefore(uint16_t* const BytesRem,
 192:lib/lufa/LUFA/Drivers/USB/Core/ConfigDescriptors.h **** 			                                       void** const CurrConfigLoc,
 193:lib/lufa/LUFA/Drivers/USB/Core/ConfigDescriptors.h **** 			                                       const uint8_t Type,
 194:lib/lufa/LUFA/Drivers/USB/Core/ConfigDescriptors.h **** 			                                       const uint8_t BeforeType)
 195:lib/lufa/LUFA/Drivers/USB/Core/ConfigDescriptors.h **** 			                                       ATTR_NON_NULL_PTR_ARG(1) ATTR_NON_NULL_PTR_ARG(2);
 196:lib/lufa/LUFA/Drivers/USB/Core/ConfigDescriptors.h **** 
 197:lib/lufa/LUFA/Drivers/USB/Core/ConfigDescriptors.h **** 			/** Skips to the next sub-descriptor inside the configuration descriptor of the specified type v
 198:lib/lufa/LUFA/Drivers/USB/Core/ConfigDescriptors.h **** 			 *  which must come after a descriptor of the second given type value. The bytes remaining value
 199:lib/lufa/LUFA/Drivers/USB/Core/ConfigDescriptors.h **** 			 *  automatically decremented.
 200:lib/lufa/LUFA/Drivers/USB/Core/ConfigDescriptors.h **** 			 *
 201:lib/lufa/LUFA/Drivers/USB/Core/ConfigDescriptors.h **** 			 * \param[in,out] BytesRem       Pointer to the number of bytes remaining of the configuration d
 202:lib/lufa/LUFA/Drivers/USB/Core/ConfigDescriptors.h **** 			 * \param[in,out] CurrConfigLoc  Pointer to the current descriptor inside the configuration desc
 203:lib/lufa/LUFA/Drivers/USB/Core/ConfigDescriptors.h **** 			 * \param[in]     Type           Descriptor type value to search for.
 204:lib/lufa/LUFA/Drivers/USB/Core/ConfigDescriptors.h **** 			 * \param[in]     AfterType      Descriptor type value which must be reached before the given Ty
 205:lib/lufa/LUFA/Drivers/USB/Core/ConfigDescriptors.h **** 			 */
 206:lib/lufa/LUFA/Drivers/USB/Core/ConfigDescriptors.h **** 			void USB_GetNextDescriptorOfTypeAfter(uint16_t* const BytesRem,
 207:lib/lufa/LUFA/Drivers/USB/Core/ConfigDescriptors.h **** 			                                      void** const CurrConfigLoc,
 208:lib/lufa/LUFA/Drivers/USB/Core/ConfigDescriptors.h **** 			                                      const uint8_t Type,
 209:lib/lufa/LUFA/Drivers/USB/Core/ConfigDescriptors.h **** 			                                      const uint8_t AfterType)
 210:lib/lufa/LUFA/Drivers/USB/Core/ConfigDescriptors.h **** 			                                      ATTR_NON_NULL_PTR_ARG(1) ATTR_NON_NULL_PTR_ARG(2);
 211:lib/lufa/LUFA/Drivers/USB/Core/ConfigDescriptors.h **** 
 212:lib/lufa/LUFA/Drivers/USB/Core/ConfigDescriptors.h **** 			/** Searches for the next descriptor in the given configuration descriptor using a pre-made comp
 213:lib/lufa/LUFA/Drivers/USB/Core/ConfigDescriptors.h **** 			 *  function. The routine updates the position and remaining configuration descriptor bytes valu
 214:lib/lufa/LUFA/Drivers/USB/Core/ConfigDescriptors.h **** 			 *  automatically. If a comparator routine fails a search, the descriptor pointer is retreated b
 215:lib/lufa/LUFA/Drivers/USB/Core/ConfigDescriptors.h **** 			 *  so that the next descriptor search invocation will start from the descriptor which first cau
 216:lib/lufa/LUFA/Drivers/USB/Core/ConfigDescriptors.h **** 			 *  original search to fail. This behavior allows for one comparator to be used immediately afte
 217:lib/lufa/LUFA/Drivers/USB/Core/ConfigDescriptors.h **** 			 *  has failed, starting the second search from the descriptor which failed the first.
 218:lib/lufa/LUFA/Drivers/USB/Core/ConfigDescriptors.h **** 			 *
 219:lib/lufa/LUFA/Drivers/USB/Core/ConfigDescriptors.h **** 			 *  Comparator functions should be standard functions which accept a pointer to the header of th
 220:lib/lufa/LUFA/Drivers/USB/Core/ConfigDescriptors.h **** 			 *  descriptor inside the configuration descriptor which is being compared, and should return a 
 221:lib/lufa/LUFA/Drivers/USB/Core/ConfigDescriptors.h **** 			 *  the \ref DSearch_Return_ErrorCodes_t enum as a uint8_t value.
 222:lib/lufa/LUFA/Drivers/USB/Core/ConfigDescriptors.h **** 			 *
 223:lib/lufa/LUFA/Drivers/USB/Core/ConfigDescriptors.h **** 			 *  \note This function is available in USB Host mode only.
 224:lib/lufa/LUFA/Drivers/USB/Core/ConfigDescriptors.h **** 			 *
 225:lib/lufa/LUFA/Drivers/USB/Core/ConfigDescriptors.h **** 			 *  \param[in,out] BytesRem           Pointer to an int storing the remaining bytes in the confi
 226:lib/lufa/LUFA/Drivers/USB/Core/ConfigDescriptors.h **** 			 *  \param[in,out] CurrConfigLoc      Pointer to the current position in the configuration descr
 227:lib/lufa/LUFA/Drivers/USB/Core/ConfigDescriptors.h **** 			 *  \param[in]     ComparatorRoutine  Name of the comparator search function to use on the confi
 228:lib/lufa/LUFA/Drivers/USB/Core/ConfigDescriptors.h **** 			 *
 229:lib/lufa/LUFA/Drivers/USB/Core/ConfigDescriptors.h **** 			 *  \return Value of one of the members of the \ref DSearch_Comp_Return_ErrorCodes_t enum.
 230:lib/lufa/LUFA/Drivers/USB/Core/ConfigDescriptors.h **** 			 *
 231:lib/lufa/LUFA/Drivers/USB/Core/ConfigDescriptors.h **** 			 *  Usage Example:
 232:lib/lufa/LUFA/Drivers/USB/Core/ConfigDescriptors.h **** 			 *  \code
 233:lib/lufa/LUFA/Drivers/USB/Core/ConfigDescriptors.h **** 			 *  uint8_t EndpointSearcher(void* CurrentDescriptor); // Comparator Prototype
 234:lib/lufa/LUFA/Drivers/USB/Core/ConfigDescriptors.h **** 			 *
 235:lib/lufa/LUFA/Drivers/USB/Core/ConfigDescriptors.h **** 			 *  uint8_t EndpointSearcher(void* CurrentDescriptor)
 236:lib/lufa/LUFA/Drivers/USB/Core/ConfigDescriptors.h **** 			 *  {
 237:lib/lufa/LUFA/Drivers/USB/Core/ConfigDescriptors.h **** 			 *     if (DESCRIPTOR_TYPE(CurrentDescriptor) == DTYPE_Endpoint)
 238:lib/lufa/LUFA/Drivers/USB/Core/ConfigDescriptors.h **** 			 *         return DESCRIPTOR_SEARCH_Found;
 239:lib/lufa/LUFA/Drivers/USB/Core/ConfigDescriptors.h **** 			 *     else
 240:lib/lufa/LUFA/Drivers/USB/Core/ConfigDescriptors.h **** 			 *         return DESCRIPTOR_SEARCH_NotFound;
 241:lib/lufa/LUFA/Drivers/USB/Core/ConfigDescriptors.h **** 			 *  }
 242:lib/lufa/LUFA/Drivers/USB/Core/ConfigDescriptors.h **** 			 *
 243:lib/lufa/LUFA/Drivers/USB/Core/ConfigDescriptors.h **** 			 *  //...
 244:lib/lufa/LUFA/Drivers/USB/Core/ConfigDescriptors.h **** 			 *
 245:lib/lufa/LUFA/Drivers/USB/Core/ConfigDescriptors.h **** 			 *  // After retrieving configuration descriptor:
 246:lib/lufa/LUFA/Drivers/USB/Core/ConfigDescriptors.h **** 			 *  if (USB_Host_GetNextDescriptorComp(&BytesRemaining, &CurrentConfigLoc, EndpointSearcher) ==
 247:lib/lufa/LUFA/Drivers/USB/Core/ConfigDescriptors.h **** 			 *      Descriptor_Search_Comp_Found)
 248:lib/lufa/LUFA/Drivers/USB/Core/ConfigDescriptors.h **** 			 *  {
 249:lib/lufa/LUFA/Drivers/USB/Core/ConfigDescriptors.h **** 			 *      // Do something with the endpoint descriptor
 250:lib/lufa/LUFA/Drivers/USB/Core/ConfigDescriptors.h **** 			 *  }
 251:lib/lufa/LUFA/Drivers/USB/Core/ConfigDescriptors.h **** 			 *  \endcode
 252:lib/lufa/LUFA/Drivers/USB/Core/ConfigDescriptors.h **** 			 */
 253:lib/lufa/LUFA/Drivers/USB/Core/ConfigDescriptors.h **** 			uint8_t USB_GetNextDescriptorComp(uint16_t* const BytesRem,
 254:lib/lufa/LUFA/Drivers/USB/Core/ConfigDescriptors.h **** 			                                  void** const CurrConfigLoc,
 255:lib/lufa/LUFA/Drivers/USB/Core/ConfigDescriptors.h **** 			                                  ConfigComparatorPtr_t const ComparatorRoutine) ATTR_NON_NULL_P
 256:lib/lufa/LUFA/Drivers/USB/Core/ConfigDescriptors.h **** 			                                  ATTR_NON_NULL_PTR_ARG(2) ATTR_NON_NULL_PTR_ARG(3);
 257:lib/lufa/LUFA/Drivers/USB/Core/ConfigDescriptors.h **** 
 258:lib/lufa/LUFA/Drivers/USB/Core/ConfigDescriptors.h **** 		/* Inline Functions: */
 259:lib/lufa/LUFA/Drivers/USB/Core/ConfigDescriptors.h **** 			/** Skips over the current sub-descriptor inside the configuration descriptor, so that the point
 260:lib/lufa/LUFA/Drivers/USB/Core/ConfigDescriptors.h **** 			    points to the next sub-descriptor. The bytes remaining value is automatically decremented.
 261:lib/lufa/LUFA/Drivers/USB/Core/ConfigDescriptors.h **** 			 *
 262:lib/lufa/LUFA/Drivers/USB/Core/ConfigDescriptors.h **** 			 * \param[in,out] BytesRem       Pointer to the number of bytes remaining of the configuration d
 263:lib/lufa/LUFA/Drivers/USB/Core/ConfigDescriptors.h **** 			 * \param[in,out] CurrConfigLoc  Pointer to the current descriptor inside the configuration desc
 264:lib/lufa/LUFA/Drivers/USB/Core/ConfigDescriptors.h **** 			 */
 265:lib/lufa/LUFA/Drivers/USB/Core/ConfigDescriptors.h **** 			static inline void USB_GetNextDescriptor(uint16_t* const BytesRem,
 266:lib/lufa/LUFA/Drivers/USB/Core/ConfigDescriptors.h **** 			                                         void** CurrConfigLoc) ATTR_NON_NULL_PTR_ARG(1) ATTR_NON
 267:lib/lufa/LUFA/Drivers/USB/Core/ConfigDescriptors.h **** 			static inline void USB_GetNextDescriptor(uint16_t* const BytesRem,
 268:lib/lufa/LUFA/Drivers/USB/Core/ConfigDescriptors.h **** 			                                         void** CurrConfigLoc)
 269:lib/lufa/LUFA/Drivers/USB/Core/ConfigDescriptors.h **** 			{
  15               		.loc 1 269 0
  16               		.cfi_startproc
  17               	.LVL0:
  18 0000 CF93      		push r28
  19               	.LCFI0:
  20               		.cfi_def_cfa_offset 3
  21               		.cfi_offset 28, -2
  22 0002 DF93      		push r29
  23               	.LCFI1:
  24               		.cfi_def_cfa_offset 4
  25               		.cfi_offset 29, -3
  26               	/* prologue: function */
  27               	/* frame size = 0 */
  28               	/* stack size = 2 */
  29               	.L__stack_usage = 2
  30 0004 DC01      		movw r26,r24
 270:lib/lufa/LUFA/Drivers/USB/Core/ConfigDescriptors.h **** 				uint16_t CurrDescriptorSize = DESCRIPTOR_CAST(*CurrConfigLoc, USB_Descriptor_Header_t).Size;
  31               		.loc 1 270 0
  32 0006 EB01      		movw r28,r22
  33 0008 E881      		ld r30,Y
  34 000a F981      		ldd r31,Y+1
  35 000c 2081      		ld r18,Z
  36               	.LVL1:
 271:lib/lufa/LUFA/Drivers/USB/Core/ConfigDescriptors.h **** 
 272:lib/lufa/LUFA/Drivers/USB/Core/ConfigDescriptors.h **** 				if (*BytesRem < CurrDescriptorSize)
  37               		.loc 1 272 0
  38 000e 8D91      		ld r24,X+
  39 0010 9C91      		ld r25,X
  40 0012 1197      		sbiw r26,1
  41               	.LVL2:
  42 0014 30E0      		ldi r19,0
  43 0016 8217      		cp r24,r18
  44 0018 9307      		cpc r25,r19
  45 001a 00F4      		brsh .L2
  46 001c 9C01      		movw r18,r24
  47               	.LVL3:
  48               	.L2:
 273:lib/lufa/LUFA/Drivers/USB/Core/ConfigDescriptors.h **** 				  CurrDescriptorSize = *BytesRem;
 274:lib/lufa/LUFA/Drivers/USB/Core/ConfigDescriptors.h **** 
 275:lib/lufa/LUFA/Drivers/USB/Core/ConfigDescriptors.h **** 				*CurrConfigLoc  = (void*)((uintptr_t)*CurrConfigLoc + CurrDescriptorSize);
  49               		.loc 1 275 0
  50 001e E20F      		add r30,r18
  51 0020 F31F      		adc r31,r19
  52 0022 EB01      		movw r28,r22
  53 0024 F983      		std Y+1,r31
  54 0026 E883      		st Y,r30
 276:lib/lufa/LUFA/Drivers/USB/Core/ConfigDescriptors.h **** 				*BytesRem      -= CurrDescriptorSize;
  55               		.loc 1 276 0
  56 0028 8D91      		ld r24,X+
  57 002a 9C91      		ld r25,X
  58 002c 1197      		sbiw r26,1
  59 002e 821B      		sub r24,r18
  60 0030 930B      		sbc r25,r19
  61 0032 8D93      		st X+,r24
  62 0034 9C93      		st X,r25
  63               	/* epilogue start */
 277:lib/lufa/LUFA/Drivers/USB/Core/ConfigDescriptors.h **** 			}
  64               		.loc 1 277 0
  65 0036 DF91      		pop r29
  66 0038 CF91      		pop r28
  67 003a 0895      		ret
  68               		.cfi_endproc
  69               	.LFE87:
  71               		.section	.text.USB_GetNextDescriptorOfType,"ax",@progbits
  72               	.global	USB_GetNextDescriptorOfType
  74               	USB_GetNextDescriptorOfType:
  75               	.LFB88:
  76               		.file 2 "lib/lufa/LUFA/Drivers/USB/Core/ConfigDescriptors.c"
   1:lib/lufa/LUFA/Drivers/USB/Core/ConfigDescriptors.c **** /*
   2:lib/lufa/LUFA/Drivers/USB/Core/ConfigDescriptors.c ****              LUFA Library
   3:lib/lufa/LUFA/Drivers/USB/Core/ConfigDescriptors.c ****      Copyright (C) Dean Camera, 2019.
   4:lib/lufa/LUFA/Drivers/USB/Core/ConfigDescriptors.c **** 
   5:lib/lufa/LUFA/Drivers/USB/Core/ConfigDescriptors.c ****   dean [at] fourwalledcubicle [dot] com
   6:lib/lufa/LUFA/Drivers/USB/Core/ConfigDescriptors.c ****            www.lufa-lib.org
   7:lib/lufa/LUFA/Drivers/USB/Core/ConfigDescriptors.c **** */
   8:lib/lufa/LUFA/Drivers/USB/Core/ConfigDescriptors.c **** 
   9:lib/lufa/LUFA/Drivers/USB/Core/ConfigDescriptors.c **** /*
  10:lib/lufa/LUFA/Drivers/USB/Core/ConfigDescriptors.c ****   Copyright 2019  Dean Camera (dean [at] fourwalledcubicle [dot] com)
  11:lib/lufa/LUFA/Drivers/USB/Core/ConfigDescriptors.c **** 
  12:lib/lufa/LUFA/Drivers/USB/Core/ConfigDescriptors.c ****   Permission to use, copy, modify, distribute, and sell this
  13:lib/lufa/LUFA/Drivers/USB/Core/ConfigDescriptors.c ****   software and its documentation for any purpose is hereby granted
  14:lib/lufa/LUFA/Drivers/USB/Core/ConfigDescriptors.c ****   without fee, provided that the above copyright notice appear in
  15:lib/lufa/LUFA/Drivers/USB/Core/ConfigDescriptors.c ****   all copies and that both that the copyright notice and this
  16:lib/lufa/LUFA/Drivers/USB/Core/ConfigDescriptors.c ****   permission notice and warranty disclaimer appear in supporting
  17:lib/lufa/LUFA/Drivers/USB/Core/ConfigDescriptors.c ****   documentation, and that the name of the author not be used in
  18:lib/lufa/LUFA/Drivers/USB/Core/ConfigDescriptors.c ****   advertising or publicity pertaining to distribution of the
  19:lib/lufa/LUFA/Drivers/USB/Core/ConfigDescriptors.c ****   software without specific, written prior permission.
  20:lib/lufa/LUFA/Drivers/USB/Core/ConfigDescriptors.c **** 
  21:lib/lufa/LUFA/Drivers/USB/Core/ConfigDescriptors.c ****   The author disclaims all warranties with regard to this
  22:lib/lufa/LUFA/Drivers/USB/Core/ConfigDescriptors.c ****   software, including all implied warranties of merchantability
  23:lib/lufa/LUFA/Drivers/USB/Core/ConfigDescriptors.c ****   and fitness.  In no event shall the author be liable for any
  24:lib/lufa/LUFA/Drivers/USB/Core/ConfigDescriptors.c ****   special, indirect or consequential damages or any damages
  25:lib/lufa/LUFA/Drivers/USB/Core/ConfigDescriptors.c ****   whatsoever resulting from loss of use, data or profits, whether
  26:lib/lufa/LUFA/Drivers/USB/Core/ConfigDescriptors.c ****   in an action of contract, negligence or other tortious action,
  27:lib/lufa/LUFA/Drivers/USB/Core/ConfigDescriptors.c ****   arising out of or in connection with the use or performance of
  28:lib/lufa/LUFA/Drivers/USB/Core/ConfigDescriptors.c ****   this software.
  29:lib/lufa/LUFA/Drivers/USB/Core/ConfigDescriptors.c **** */
  30:lib/lufa/LUFA/Drivers/USB/Core/ConfigDescriptors.c **** 
  31:lib/lufa/LUFA/Drivers/USB/Core/ConfigDescriptors.c **** #define  __INCLUDE_FROM_USB_DRIVER
  32:lib/lufa/LUFA/Drivers/USB/Core/ConfigDescriptors.c **** #include "ConfigDescriptors.h"
  33:lib/lufa/LUFA/Drivers/USB/Core/ConfigDescriptors.c **** 
  34:lib/lufa/LUFA/Drivers/USB/Core/ConfigDescriptors.c **** #if defined(USB_CAN_BE_HOST)
  35:lib/lufa/LUFA/Drivers/USB/Core/ConfigDescriptors.c **** uint8_t USB_Host_GetDeviceConfigDescriptor(const uint8_t ConfigNumber,
  36:lib/lufa/LUFA/Drivers/USB/Core/ConfigDescriptors.c ****                                            uint16_t* const ConfigSizePtr,
  37:lib/lufa/LUFA/Drivers/USB/Core/ConfigDescriptors.c ****                                            void* const BufferPtr,
  38:lib/lufa/LUFA/Drivers/USB/Core/ConfigDescriptors.c ****                                            const uint16_t BufferSize)
  39:lib/lufa/LUFA/Drivers/USB/Core/ConfigDescriptors.c **** {
  40:lib/lufa/LUFA/Drivers/USB/Core/ConfigDescriptors.c **** 	uint8_t ErrorCode;
  41:lib/lufa/LUFA/Drivers/USB/Core/ConfigDescriptors.c **** 	uint8_t ConfigHeader[sizeof(USB_Descriptor_Configuration_Header_t)];
  42:lib/lufa/LUFA/Drivers/USB/Core/ConfigDescriptors.c **** 
  43:lib/lufa/LUFA/Drivers/USB/Core/ConfigDescriptors.c **** 	USB_ControlRequest = (USB_Request_Header_t)
  44:lib/lufa/LUFA/Drivers/USB/Core/ConfigDescriptors.c **** 		{
  45:lib/lufa/LUFA/Drivers/USB/Core/ConfigDescriptors.c **** 			.bmRequestType = (REQDIR_DEVICETOHOST | REQTYPE_STANDARD | REQREC_DEVICE),
  46:lib/lufa/LUFA/Drivers/USB/Core/ConfigDescriptors.c **** 			.bRequest      = REQ_GetDescriptor,
  47:lib/lufa/LUFA/Drivers/USB/Core/ConfigDescriptors.c **** 			.wValue        = ((DTYPE_Configuration << 8) | (ConfigNumber - 1)),
  48:lib/lufa/LUFA/Drivers/USB/Core/ConfigDescriptors.c **** 			.wIndex        = 0,
  49:lib/lufa/LUFA/Drivers/USB/Core/ConfigDescriptors.c **** 			.wLength       = sizeof(USB_Descriptor_Configuration_Header_t),
  50:lib/lufa/LUFA/Drivers/USB/Core/ConfigDescriptors.c **** 		};
  51:lib/lufa/LUFA/Drivers/USB/Core/ConfigDescriptors.c **** 
  52:lib/lufa/LUFA/Drivers/USB/Core/ConfigDescriptors.c **** 	Pipe_SelectPipe(PIPE_CONTROLPIPE);
  53:lib/lufa/LUFA/Drivers/USB/Core/ConfigDescriptors.c **** 
  54:lib/lufa/LUFA/Drivers/USB/Core/ConfigDescriptors.c **** 	if ((ErrorCode = USB_Host_SendControlRequest(ConfigHeader)) != HOST_SENDCONTROL_Successful)
  55:lib/lufa/LUFA/Drivers/USB/Core/ConfigDescriptors.c **** 	  return ErrorCode;
  56:lib/lufa/LUFA/Drivers/USB/Core/ConfigDescriptors.c **** 
  57:lib/lufa/LUFA/Drivers/USB/Core/ConfigDescriptors.c **** 	*ConfigSizePtr = le16_to_cpu(DESCRIPTOR_PCAST(ConfigHeader, USB_Descriptor_Configuration_Header_t)
  58:lib/lufa/LUFA/Drivers/USB/Core/ConfigDescriptors.c **** 
  59:lib/lufa/LUFA/Drivers/USB/Core/ConfigDescriptors.c **** 	if (*ConfigSizePtr > BufferSize)
  60:lib/lufa/LUFA/Drivers/USB/Core/ConfigDescriptors.c **** 	  return HOST_GETCONFIG_BuffOverflow;
  61:lib/lufa/LUFA/Drivers/USB/Core/ConfigDescriptors.c **** 
  62:lib/lufa/LUFA/Drivers/USB/Core/ConfigDescriptors.c **** 	USB_ControlRequest.wLength = *ConfigSizePtr;
  63:lib/lufa/LUFA/Drivers/USB/Core/ConfigDescriptors.c **** 
  64:lib/lufa/LUFA/Drivers/USB/Core/ConfigDescriptors.c **** 	if ((ErrorCode = USB_Host_SendControlRequest(BufferPtr)) != HOST_SENDCONTROL_Successful)
  65:lib/lufa/LUFA/Drivers/USB/Core/ConfigDescriptors.c **** 	  return ErrorCode;
  66:lib/lufa/LUFA/Drivers/USB/Core/ConfigDescriptors.c **** 
  67:lib/lufa/LUFA/Drivers/USB/Core/ConfigDescriptors.c **** 	if (DESCRIPTOR_TYPE(BufferPtr) != DTYPE_Configuration)
  68:lib/lufa/LUFA/Drivers/USB/Core/ConfigDescriptors.c **** 	  return HOST_GETCONFIG_InvalidData;
  69:lib/lufa/LUFA/Drivers/USB/Core/ConfigDescriptors.c **** 
  70:lib/lufa/LUFA/Drivers/USB/Core/ConfigDescriptors.c **** 	return HOST_GETCONFIG_Successful;
  71:lib/lufa/LUFA/Drivers/USB/Core/ConfigDescriptors.c **** }
  72:lib/lufa/LUFA/Drivers/USB/Core/ConfigDescriptors.c **** #endif
  73:lib/lufa/LUFA/Drivers/USB/Core/ConfigDescriptors.c **** 
  74:lib/lufa/LUFA/Drivers/USB/Core/ConfigDescriptors.c **** void USB_GetNextDescriptorOfType(uint16_t* const BytesRem,
  75:lib/lufa/LUFA/Drivers/USB/Core/ConfigDescriptors.c ****                                  void** const CurrConfigLoc,
  76:lib/lufa/LUFA/Drivers/USB/Core/ConfigDescriptors.c ****                                  const uint8_t Type)
  77:lib/lufa/LUFA/Drivers/USB/Core/ConfigDescriptors.c **** {
  77               		.loc 2 77 0
  78               		.cfi_startproc
  79               	.LVL4:
  80 0000 FF92      		push r15
  81               	.LCFI2:
  82               		.cfi_def_cfa_offset 3
  83               		.cfi_offset 15, -2
  84 0002 0F93      		push r16
  85               	.LCFI3:
  86               		.cfi_def_cfa_offset 4
  87               		.cfi_offset 16, -3
  88 0004 1F93      		push r17
  89               	.LCFI4:
  90               		.cfi_def_cfa_offset 5
  91               		.cfi_offset 17, -4
  92 0006 CF93      		push r28
  93               	.LCFI5:
  94               		.cfi_def_cfa_offset 6
  95               		.cfi_offset 28, -5
  96 0008 DF93      		push r29
  97               	.LCFI6:
  98               		.cfi_def_cfa_offset 7
  99               		.cfi_offset 29, -6
 100               	/* prologue: function */
 101               	/* frame size = 0 */
 102               	/* stack size = 5 */
 103               	.L__stack_usage = 5
 104 000a EC01      		movw r28,r24
 105 000c 8B01      		movw r16,r22
 106 000e F42E      		mov r15,r20
 107               	.LVL5:
 108               	.L5:
  78:lib/lufa/LUFA/Drivers/USB/Core/ConfigDescriptors.c **** 	while (*BytesRem)
 109               		.loc 2 78 0
 110 0010 8881      		ld r24,Y
 111 0012 9981      		ldd r25,Y+1
 112 0014 892B      		or r24,r25
 113 0016 01F0      		breq .L4
  79:lib/lufa/LUFA/Drivers/USB/Core/ConfigDescriptors.c **** 	{
  80:lib/lufa/LUFA/Drivers/USB/Core/ConfigDescriptors.c **** 		USB_GetNextDescriptor(BytesRem, CurrConfigLoc);
 114               		.loc 2 80 0
 115 0018 B801      		movw r22,r16
 116 001a CE01      		movw r24,r28
 117 001c 0E94 0000 		call USB_GetNextDescriptor
 118               	.LVL6:
  81:lib/lufa/LUFA/Drivers/USB/Core/ConfigDescriptors.c **** 
  82:lib/lufa/LUFA/Drivers/USB/Core/ConfigDescriptors.c **** 		if (DESCRIPTOR_TYPE(*CurrConfigLoc) == Type)
 119               		.loc 2 82 0
 120 0020 D801      		movw r26,r16
 121 0022 ED91      		ld r30,X+
 122 0024 FC91      		ld r31,X
 123 0026 8181      		ldd r24,Z+1
 124 0028 8F11      		cpse r24,r15
 125 002a 00C0      		rjmp .L5
 126               	.L4:
 127               	/* epilogue start */
  83:lib/lufa/LUFA/Drivers/USB/Core/ConfigDescriptors.c **** 		  return;
  84:lib/lufa/LUFA/Drivers/USB/Core/ConfigDescriptors.c **** 	}
  85:lib/lufa/LUFA/Drivers/USB/Core/ConfigDescriptors.c **** }
 128               		.loc 2 85 0
 129 002c DF91      		pop r29
 130 002e CF91      		pop r28
 131               	.LVL7:
 132 0030 1F91      		pop r17
 133 0032 0F91      		pop r16
 134               	.LVL8:
 135 0034 FF90      		pop r15
 136               	.LVL9:
 137 0036 0895      		ret
 138               		.cfi_endproc
 139               	.LFE88:
 141               		.section	.text.USB_GetNextDescriptorOfTypeBefore,"ax",@progbits
 142               	.global	USB_GetNextDescriptorOfTypeBefore
 144               	USB_GetNextDescriptorOfTypeBefore:
 145               	.LFB89:
  86:lib/lufa/LUFA/Drivers/USB/Core/ConfigDescriptors.c **** 
  87:lib/lufa/LUFA/Drivers/USB/Core/ConfigDescriptors.c **** void USB_GetNextDescriptorOfTypeBefore(uint16_t* const BytesRem,
  88:lib/lufa/LUFA/Drivers/USB/Core/ConfigDescriptors.c ****                                        void** const CurrConfigLoc,
  89:lib/lufa/LUFA/Drivers/USB/Core/ConfigDescriptors.c ****                                        const uint8_t Type,
  90:lib/lufa/LUFA/Drivers/USB/Core/ConfigDescriptors.c ****                                        const uint8_t BeforeType)
  91:lib/lufa/LUFA/Drivers/USB/Core/ConfigDescriptors.c **** {
 146               		.loc 2 91 0
 147               		.cfi_startproc
 148               	.LVL10:
 149 0000 EF92      		push r14
 150               	.LCFI7:
 151               		.cfi_def_cfa_offset 3
 152               		.cfi_offset 14, -2
 153 0002 FF92      		push r15
 154               	.LCFI8:
 155               		.cfi_def_cfa_offset 4
 156               		.cfi_offset 15, -3
 157 0004 0F93      		push r16
 158               	.LCFI9:
 159               		.cfi_def_cfa_offset 5
 160               		.cfi_offset 16, -4
 161 0006 1F93      		push r17
 162               	.LCFI10:
 163               		.cfi_def_cfa_offset 6
 164               		.cfi_offset 17, -5
 165 0008 CF93      		push r28
 166               	.LCFI11:
 167               		.cfi_def_cfa_offset 7
 168               		.cfi_offset 28, -6
 169 000a DF93      		push r29
 170               	.LCFI12:
 171               		.cfi_def_cfa_offset 8
 172               		.cfi_offset 29, -7
 173               	/* prologue: function */
 174               	/* frame size = 0 */
 175               	/* stack size = 6 */
 176               	.L__stack_usage = 6
 177 000c EC01      		movw r28,r24
 178 000e 8B01      		movw r16,r22
 179 0010 F42E      		mov r15,r20
 180 0012 E22E      		mov r14,r18
 181               	.LVL11:
 182               	.L10:
  92:lib/lufa/LUFA/Drivers/USB/Core/ConfigDescriptors.c **** 	while (*BytesRem)
 183               		.loc 2 92 0
 184 0014 8881      		ld r24,Y
 185 0016 9981      		ldd r25,Y+1
 186 0018 892B      		or r24,r25
 187 001a 01F0      		breq .L9
  93:lib/lufa/LUFA/Drivers/USB/Core/ConfigDescriptors.c **** 	{
  94:lib/lufa/LUFA/Drivers/USB/Core/ConfigDescriptors.c **** 		USB_GetNextDescriptor(BytesRem, CurrConfigLoc);
 188               		.loc 2 94 0
 189 001c B801      		movw r22,r16
 190 001e CE01      		movw r24,r28
 191 0020 0E94 0000 		call USB_GetNextDescriptor
 192               	.LVL12:
  95:lib/lufa/LUFA/Drivers/USB/Core/ConfigDescriptors.c **** 
  96:lib/lufa/LUFA/Drivers/USB/Core/ConfigDescriptors.c **** 		if (DESCRIPTOR_TYPE(*CurrConfigLoc) == Type)
 193               		.loc 2 96 0
 194 0024 D801      		movw r26,r16
 195 0026 ED91      		ld r30,X+
 196 0028 FC91      		ld r31,X
 197 002a 8181      		ldd r24,Z+1
 198 002c 8F15      		cp r24,r15
 199 002e 01F0      		breq .L9
  97:lib/lufa/LUFA/Drivers/USB/Core/ConfigDescriptors.c **** 		{
  98:lib/lufa/LUFA/Drivers/USB/Core/ConfigDescriptors.c **** 			return;
  99:lib/lufa/LUFA/Drivers/USB/Core/ConfigDescriptors.c **** 		}
 100:lib/lufa/LUFA/Drivers/USB/Core/ConfigDescriptors.c **** 		else if (DESCRIPTOR_TYPE(*CurrConfigLoc) == BeforeType)
 200               		.loc 2 100 0
 201 0030 8E11      		cpse r24,r14
 202 0032 00C0      		rjmp .L10
 101:lib/lufa/LUFA/Drivers/USB/Core/ConfigDescriptors.c **** 		{
 102:lib/lufa/LUFA/Drivers/USB/Core/ConfigDescriptors.c **** 			*BytesRem = 0;
 203               		.loc 2 102 0
 204 0034 1982      		std Y+1,__zero_reg__
 205 0036 1882      		st Y,__zero_reg__
 206               	.L9:
 207               	/* epilogue start */
 103:lib/lufa/LUFA/Drivers/USB/Core/ConfigDescriptors.c **** 			return;
 104:lib/lufa/LUFA/Drivers/USB/Core/ConfigDescriptors.c **** 		}
 105:lib/lufa/LUFA/Drivers/USB/Core/ConfigDescriptors.c **** 	}
 106:lib/lufa/LUFA/Drivers/USB/Core/ConfigDescriptors.c **** }
 208               		.loc 2 106 0
 209 0038 DF91      		pop r29
 210 003a CF91      		pop r28
 211               	.LVL13:
 212 003c 1F91      		pop r17
 213 003e 0F91      		pop r16
 214               	.LVL14:
 215 0040 FF90      		pop r15
 216               	.LVL15:
 217 0042 EF90      		pop r14
 218               	.LVL16:
 219 0044 0895      		ret
 220               		.cfi_endproc
 221               	.LFE89:
 223               		.section	.text.USB_GetNextDescriptorOfTypeAfter,"ax",@progbits
 224               	.global	USB_GetNextDescriptorOfTypeAfter
 226               	USB_GetNextDescriptorOfTypeAfter:
 227               	.LFB90:
 107:lib/lufa/LUFA/Drivers/USB/Core/ConfigDescriptors.c **** 
 108:lib/lufa/LUFA/Drivers/USB/Core/ConfigDescriptors.c **** void USB_GetNextDescriptorOfTypeAfter(uint16_t* const BytesRem,
 109:lib/lufa/LUFA/Drivers/USB/Core/ConfigDescriptors.c ****                                       void** const CurrConfigLoc,
 110:lib/lufa/LUFA/Drivers/USB/Core/ConfigDescriptors.c ****                                       const uint8_t Type,
 111:lib/lufa/LUFA/Drivers/USB/Core/ConfigDescriptors.c ****                                       const uint8_t AfterType)
 112:lib/lufa/LUFA/Drivers/USB/Core/ConfigDescriptors.c **** {
 228               		.loc 2 112 0
 229               		.cfi_startproc
 230               	.LVL17:
 231 0000 FF92      		push r15
 232               	.LCFI13:
 233               		.cfi_def_cfa_offset 3
 234               		.cfi_offset 15, -2
 235 0002 0F93      		push r16
 236               	.LCFI14:
 237               		.cfi_def_cfa_offset 4
 238               		.cfi_offset 16, -3
 239 0004 1F93      		push r17
 240               	.LCFI15:
 241               		.cfi_def_cfa_offset 5
 242               		.cfi_offset 17, -4
 243 0006 CF93      		push r28
 244               	.LCFI16:
 245               		.cfi_def_cfa_offset 6
 246               		.cfi_offset 28, -5
 247 0008 DF93      		push r29
 248               	.LCFI17:
 249               		.cfi_def_cfa_offset 7
 250               		.cfi_offset 29, -6
 251               	/* prologue: function */
 252               	/* frame size = 0 */
 253               	/* stack size = 5 */
 254               	.L__stack_usage = 5
 255 000a EC01      		movw r28,r24
 256 000c 8B01      		movw r16,r22
 257 000e F42E      		mov r15,r20
 113:lib/lufa/LUFA/Drivers/USB/Core/ConfigDescriptors.c **** 	USB_GetNextDescriptorOfType(BytesRem, CurrConfigLoc, AfterType);
 258               		.loc 2 113 0
 259 0010 422F      		mov r20,r18
 260               	.LVL18:
 261 0012 0E94 0000 		call USB_GetNextDescriptorOfType
 262               	.LVL19:
 114:lib/lufa/LUFA/Drivers/USB/Core/ConfigDescriptors.c **** 
 115:lib/lufa/LUFA/Drivers/USB/Core/ConfigDescriptors.c **** 	if (*BytesRem)
 263               		.loc 2 115 0
 264 0016 8881      		ld r24,Y
 265 0018 9981      		ldd r25,Y+1
 266 001a 892B      		or r24,r25
 267 001c 01F0      		breq .L16
 116:lib/lufa/LUFA/Drivers/USB/Core/ConfigDescriptors.c **** 	  USB_GetNextDescriptorOfType(BytesRem, CurrConfigLoc, Type);
 268               		.loc 2 116 0
 269 001e 4F2D      		mov r20,r15
 270 0020 B801      		movw r22,r16
 271 0022 CE01      		movw r24,r28
 272               	/* epilogue start */
 117:lib/lufa/LUFA/Drivers/USB/Core/ConfigDescriptors.c **** }
 273               		.loc 2 117 0
 274 0024 DF91      		pop r29
 275 0026 CF91      		pop r28
 276               	.LVL20:
 277 0028 1F91      		pop r17
 278 002a 0F91      		pop r16
 279               	.LVL21:
 280 002c FF90      		pop r15
 281               	.LVL22:
 116:lib/lufa/LUFA/Drivers/USB/Core/ConfigDescriptors.c **** 	  USB_GetNextDescriptorOfType(BytesRem, CurrConfigLoc, Type);
 282               		.loc 2 116 0
 283 002e 0C94 0000 		jmp USB_GetNextDescriptorOfType
 284               	.LVL23:
 285               	.L16:
 286               	/* epilogue start */
 287               		.loc 2 117 0
 288 0032 DF91      		pop r29
 289 0034 CF91      		pop r28
 290               	.LVL24:
 291 0036 1F91      		pop r17
 292 0038 0F91      		pop r16
 293               	.LVL25:
 294 003a FF90      		pop r15
 295               	.LVL26:
 296 003c 0895      		ret
 297               		.cfi_endproc
 298               	.LFE90:
 300               		.section	.text.USB_GetNextDescriptorComp,"ax",@progbits
 301               	.global	USB_GetNextDescriptorComp
 303               	USB_GetNextDescriptorComp:
 304               	.LFB91:
 118:lib/lufa/LUFA/Drivers/USB/Core/ConfigDescriptors.c **** 
 119:lib/lufa/LUFA/Drivers/USB/Core/ConfigDescriptors.c **** uint8_t USB_GetNextDescriptorComp(uint16_t* const BytesRem,
 120:lib/lufa/LUFA/Drivers/USB/Core/ConfigDescriptors.c ****                                   void** const CurrConfigLoc,
 121:lib/lufa/LUFA/Drivers/USB/Core/ConfigDescriptors.c ****                                   ConfigComparatorPtr_t const ComparatorRoutine)
 122:lib/lufa/LUFA/Drivers/USB/Core/ConfigDescriptors.c **** {
 305               		.loc 2 122 0
 306               		.cfi_startproc
 307               	.LVL27:
 308 0000 AF92      		push r10
 309               	.LCFI18:
 310               		.cfi_def_cfa_offset 3
 311               		.cfi_offset 10, -2
 312 0002 BF92      		push r11
 313               	.LCFI19:
 314               		.cfi_def_cfa_offset 4
 315               		.cfi_offset 11, -3
 316 0004 CF92      		push r12
 317               	.LCFI20:
 318               		.cfi_def_cfa_offset 5
 319               		.cfi_offset 12, -4
 320 0006 DF92      		push r13
 321               	.LCFI21:
 322               		.cfi_def_cfa_offset 6
 323               		.cfi_offset 13, -5
 324 0008 EF92      		push r14
 325               	.LCFI22:
 326               		.cfi_def_cfa_offset 7
 327               		.cfi_offset 14, -6
 328 000a FF92      		push r15
 329               	.LCFI23:
 330               		.cfi_def_cfa_offset 8
 331               		.cfi_offset 15, -7
 332 000c 0F93      		push r16
 333               	.LCFI24:
 334               		.cfi_def_cfa_offset 9
 335               		.cfi_offset 16, -8
 336 000e 1F93      		push r17
 337               	.LCFI25:
 338               		.cfi_def_cfa_offset 10
 339               		.cfi_offset 17, -9
 340 0010 CF93      		push r28
 341               	.LCFI26:
 342               		.cfi_def_cfa_offset 11
 343               		.cfi_offset 28, -10
 344 0012 DF93      		push r29
 345               	.LCFI27:
 346               		.cfi_def_cfa_offset 12
 347               		.cfi_offset 29, -11
 348               	/* prologue: function */
 349               	/* frame size = 0 */
 350               	/* stack size = 10 */
 351               	.L__stack_usage = 10
 352 0014 8C01      		movw r16,r24
 353 0016 EB01      		movw r28,r22
 354 0018 6A01      		movw r12,r20
 355               	.LVL28:
 356               	.L19:
 123:lib/lufa/LUFA/Drivers/USB/Core/ConfigDescriptors.c **** 	uint8_t ErrorCode;
 124:lib/lufa/LUFA/Drivers/USB/Core/ConfigDescriptors.c **** 
 125:lib/lufa/LUFA/Drivers/USB/Core/ConfigDescriptors.c **** 	while (*BytesRem)
 357               		.loc 2 125 0
 358 001a F801      		movw r30,r16
 359 001c E080      		ld r14,Z
 360 001e F180      		ldd r15,Z+1
 361 0020 E114      		cp r14,__zero_reg__
 362 0022 F104      		cpc r15,__zero_reg__
 363 0024 01F0      		breq .L25
 364               	.LBB2:
 126:lib/lufa/LUFA/Drivers/USB/Core/ConfigDescriptors.c **** 	{
 127:lib/lufa/LUFA/Drivers/USB/Core/ConfigDescriptors.c **** 		uint8_t* PrevDescLoc  = *CurrConfigLoc;
 365               		.loc 2 127 0
 366 0026 A880      		ld r10,Y
 367 0028 B980      		ldd r11,Y+1
 368               	.LVL29:
 128:lib/lufa/LUFA/Drivers/USB/Core/ConfigDescriptors.c **** 		uint16_t PrevBytesRem = *BytesRem;
 129:lib/lufa/LUFA/Drivers/USB/Core/ConfigDescriptors.c **** 
 130:lib/lufa/LUFA/Drivers/USB/Core/ConfigDescriptors.c **** 		USB_GetNextDescriptor(BytesRem, CurrConfigLoc);
 369               		.loc 2 130 0
 370 002a BE01      		movw r22,r28
 371 002c C801      		movw r24,r16
 372 002e 0E94 0000 		call USB_GetNextDescriptor
 373               	.LVL30:
 131:lib/lufa/LUFA/Drivers/USB/Core/ConfigDescriptors.c **** 
 132:lib/lufa/LUFA/Drivers/USB/Core/ConfigDescriptors.c **** 		if ((ErrorCode = ComparatorRoutine(*CurrConfigLoc)) != DESCRIPTOR_SEARCH_NotFound)
 374               		.loc 2 132 0
 375 0032 8881      		ld r24,Y
 376 0034 9981      		ldd r25,Y+1
 377 0036 F601      		movw r30,r12
 378 0038 0995      		icall
 379               	.LVL31:
 380 003a 8230      		cpi r24,lo8(2)
 381 003c 01F0      		breq .L19
 133:lib/lufa/LUFA/Drivers/USB/Core/ConfigDescriptors.c **** 		{
 134:lib/lufa/LUFA/Drivers/USB/Core/ConfigDescriptors.c **** 			if (ErrorCode == DESCRIPTOR_SEARCH_Fail)
 382               		.loc 2 134 0
 383 003e 8130      		cpi r24,lo8(1)
 384 0040 01F4      		brne .L20
 135:lib/lufa/LUFA/Drivers/USB/Core/ConfigDescriptors.c **** 			{
 136:lib/lufa/LUFA/Drivers/USB/Core/ConfigDescriptors.c **** 				*CurrConfigLoc = PrevDescLoc;
 385               		.loc 2 136 0
 386 0042 B982      		std Y+1,r11
 387 0044 A882      		st Y,r10
 137:lib/lufa/LUFA/Drivers/USB/Core/ConfigDescriptors.c **** 				*BytesRem      = PrevBytesRem;
 388               		.loc 2 137 0
 389 0046 F801      		movw r30,r16
 390 0048 F182      		std Z+1,r15
 391 004a E082      		st Z,r14
 392 004c 00C0      		rjmp .L20
 393               	.LVL32:
 394               	.L25:
 395               	.LBE2:
 138:lib/lufa/LUFA/Drivers/USB/Core/ConfigDescriptors.c **** 			}
 139:lib/lufa/LUFA/Drivers/USB/Core/ConfigDescriptors.c **** 
 140:lib/lufa/LUFA/Drivers/USB/Core/ConfigDescriptors.c **** 			return ErrorCode;
 141:lib/lufa/LUFA/Drivers/USB/Core/ConfigDescriptors.c **** 		}
 142:lib/lufa/LUFA/Drivers/USB/Core/ConfigDescriptors.c **** 	}
 143:lib/lufa/LUFA/Drivers/USB/Core/ConfigDescriptors.c **** 
 144:lib/lufa/LUFA/Drivers/USB/Core/ConfigDescriptors.c **** 	return DESCRIPTOR_SEARCH_COMP_EndOfDescriptor;
 396               		.loc 2 144 0
 397 004e 82E0      		ldi r24,lo8(2)
 398               	.L20:
 399               	/* epilogue start */
 145:lib/lufa/LUFA/Drivers/USB/Core/ConfigDescriptors.c **** }
 400               		.loc 2 145 0
 401 0050 DF91      		pop r29
 402 0052 CF91      		pop r28
 403               	.LVL33:
 404 0054 1F91      		pop r17
 405 0056 0F91      		pop r16
 406               	.LVL34:
 407 0058 FF90      		pop r15
 408 005a EF90      		pop r14
 409 005c DF90      		pop r13
 410 005e CF90      		pop r12
 411               	.LVL35:
 412 0060 BF90      		pop r11
 413 0062 AF90      		pop r10
 414 0064 0895      		ret
 415               		.cfi_endproc
 416               	.LFE91:
 418               		.text
 419               	.Letext0:
 420               		.file 3 "/usr/lib/avr/include/stdint.h"
 421               		.file 4 "lib/lufa/LUFA/Drivers/USB/Core/AVR8/../StdDescriptors.h"
DEFINED SYMBOLS
                            *ABS*:0000000000000000 ConfigDescriptors.c
     /tmp/cca1gjWB.s:2      *ABS*:000000000000003e __SP_H__
     /tmp/cca1gjWB.s:3      *ABS*:000000000000003d __SP_L__
     /tmp/cca1gjWB.s:4      *ABS*:000000000000003f __SREG__
     /tmp/cca1gjWB.s:5      *ABS*:0000000000000000 __tmp_reg__
     /tmp/cca1gjWB.s:6      *ABS*:0000000000000001 __zero_reg__
     /tmp/cca1gjWB.s:12     .text.USB_GetNextDescriptor:0000000000000000 USB_GetNextDescriptor
     /tmp/cca1gjWB.s:74     .text.USB_GetNextDescriptorOfType:0000000000000000 USB_GetNextDescriptorOfType
     /tmp/cca1gjWB.s:144    .text.USB_GetNextDescriptorOfTypeBefore:0000000000000000 USB_GetNextDescriptorOfTypeBefore
     /tmp/cca1gjWB.s:226    .text.USB_GetNextDescriptorOfTypeAfter:0000000000000000 USB_GetNextDescriptorOfTypeAfter
     /tmp/cca1gjWB.s:303    .text.USB_GetNextDescriptorComp:0000000000000000 USB_GetNextDescriptorComp

NO UNDEFINED SYMBOLS
