   1               		.file	"process_magic.c"
   2               	__SP_H__ = 0x3e
   3               	__SP_L__ = 0x3d
   4               	__SREG__ = 0x3f
   5               	__tmp_reg__ = 0
   6               	__zero_reg__ = 1
   7               		.text
   8               	.Ltext0:
   9               		.cfi_sections	.debug_frame
  10               		.section	.text.process_magic,"ax",@progbits
  11               	.global	process_magic
  13               	process_magic:
  14               	.LFB112:
  15               		.file 1 "quantum/process_keycode/process_magic.c"
   1:quantum/process_keycode/process_magic.c **** /* Copyright 2019 Jack Humbert
   2:quantum/process_keycode/process_magic.c ****  *
   3:quantum/process_keycode/process_magic.c ****  * This program is free software: you can redistribute it and/or modify
   4:quantum/process_keycode/process_magic.c ****  * it under the terms of the GNU General Public License as published by
   5:quantum/process_keycode/process_magic.c ****  * the Free Software Foundation, either version 2 of the License, or
   6:quantum/process_keycode/process_magic.c ****  * (at your option) any later version.
   7:quantum/process_keycode/process_magic.c ****  *
   8:quantum/process_keycode/process_magic.c ****  * This program is distributed in the hope that it will be useful,
   9:quantum/process_keycode/process_magic.c ****  * but WITHOUT ANY WARRANTY; without even the implied warranty of
  10:quantum/process_keycode/process_magic.c ****  * MERCHANTABILITY or FITNESS FOR A PARTICULAR PURPOSE.  See the
  11:quantum/process_keycode/process_magic.c ****  * GNU General Public License for more details.
  12:quantum/process_keycode/process_magic.c ****  *
  13:quantum/process_keycode/process_magic.c ****  * You should have received a copy of the GNU General Public License
  14:quantum/process_keycode/process_magic.c ****  * along with this program.  If not, see <http://www.gnu.org/licenses/>.
  15:quantum/process_keycode/process_magic.c ****  */
  16:quantum/process_keycode/process_magic.c **** #include "process_magic.h"
  17:quantum/process_keycode/process_magic.c **** 
  18:quantum/process_keycode/process_magic.c **** #ifdef AUDIO_ENABLE
  19:quantum/process_keycode/process_magic.c **** #    ifndef AG_NORM_SONG
  20:quantum/process_keycode/process_magic.c **** #        define AG_NORM_SONG SONG(AG_NORM_SOUND)
  21:quantum/process_keycode/process_magic.c **** #    endif
  22:quantum/process_keycode/process_magic.c **** #    ifndef AG_SWAP_SONG
  23:quantum/process_keycode/process_magic.c **** #        define AG_SWAP_SONG SONG(AG_SWAP_SOUND)
  24:quantum/process_keycode/process_magic.c **** #    endif
  25:quantum/process_keycode/process_magic.c **** #    ifndef CG_NORM_SONG
  26:quantum/process_keycode/process_magic.c **** #        define CG_NORM_SONG SONG(AG_NORM_SOUND)
  27:quantum/process_keycode/process_magic.c **** #    endif
  28:quantum/process_keycode/process_magic.c **** #    ifndef CG_SWAP_SONG
  29:quantum/process_keycode/process_magic.c **** #        define CG_SWAP_SONG SONG(AG_SWAP_SOUND)
  30:quantum/process_keycode/process_magic.c **** #    endif
  31:quantum/process_keycode/process_magic.c **** float ag_norm_song[][2] = AG_NORM_SONG;
  32:quantum/process_keycode/process_magic.c **** float ag_swap_song[][2] = AG_SWAP_SONG;
  33:quantum/process_keycode/process_magic.c **** float cg_norm_song[][2] = CG_NORM_SONG;
  34:quantum/process_keycode/process_magic.c **** float cg_swap_song[][2] = CG_SWAP_SONG;
  35:quantum/process_keycode/process_magic.c **** #endif
  36:quantum/process_keycode/process_magic.c **** 
  37:quantum/process_keycode/process_magic.c **** /**
  38:quantum/process_keycode/process_magic.c ****  * MAGIC actions (BOOTMAGIC without the boot)
  39:quantum/process_keycode/process_magic.c ****  */
  40:quantum/process_keycode/process_magic.c **** bool process_magic(uint16_t keycode, keyrecord_t *record) {
  16               		.loc 1 40 0
  17               		.cfi_startproc
  18               	.LVL0:
  19 0000 CF93      		push r28
  20               	.LCFI0:
  21               		.cfi_def_cfa_offset 3
  22               		.cfi_offset 28, -2
  23 0002 DF93      		push r29
  24               	.LCFI1:
  25               		.cfi_def_cfa_offset 4
  26               		.cfi_offset 29, -3
  27               	/* prologue: function */
  28               	/* frame size = 0 */
  29               	/* stack size = 2 */
  30               	.L__stack_usage = 2
  31 0004 EC01      		movw r28,r24
  41:quantum/process_keycode/process_magic.c ****     // skip anything that isn't a keyup
  42:quantum/process_keycode/process_magic.c ****     if (record->event.pressed) {
  32               		.loc 1 42 0
  33 0006 FB01      		movw r30,r22
  34 0008 8281      		ldd r24,Z+2
  35               	.LVL1:
  36 000a 8823      		tst r24
  37 000c 01F4      		brne .+2
  38 000e 00C0      		rjmp .L41
  43:quantum/process_keycode/process_magic.c ****         switch (keycode) {
  39               		.loc 1 43 0
  40 0010 C230      		cpi r28,2
  41 0012 FCE5      		ldi r31,92
  42 0014 DF07      		cpc r29,r31
  43 0016 00F4      		brsh .+2
  44 0018 00C0      		rjmp .L2
  45 001a C631      		cpi r28,22
  46 001c 9CE5      		ldi r25,92
  47 001e D907      		cpc r29,r25
  48 0020 00F0      		brlo .L3
  49 0022 9E01      		movw r18,r28
  50 0024 2A5F      		subi r18,-6
  51 0026 3C45      		sbci r19,92
  52 0028 2930      		cpi r18,9
  53 002a 3105      		cpc r19,__zero_reg__
  54 002c 00F0      		brlo .+2
  55 002e 00C0      		rjmp .L2
  56               	.L3:
  44:quantum/process_keycode/process_magic.c ****             case MAGIC_SWAP_CONTROL_CAPSLOCK ... MAGIC_TOGGLE_ALT_GUI:
  45:quantum/process_keycode/process_magic.c ****             case MAGIC_SWAP_LCTL_LGUI ... MAGIC_EE_HANDS_RIGHT:
  46:quantum/process_keycode/process_magic.c ****                 /* keymap config */
  47:quantum/process_keycode/process_magic.c ****                 keymap_config.raw = eeconfig_read_keymap();
  57               		.loc 1 47 0
  58 0030 0E94 0000 		call eeconfig_read_keymap
  59               	.LVL2:
  60 0034 9093 0000 		sts keymap_config+1,r25
  61 0038 8093 0000 		sts keymap_config,r24
  48:quantum/process_keycode/process_magic.c ****                 switch (keycode) {
  62               		.loc 1 48 0
  63 003c C031      		cpi r28,16
  64 003e ECE5      		ldi r30,92
  65 0040 DE07      		cpc r29,r30
  66 0042 01F4      		brne .+2
  67 0044 00C0      		rjmp .L5
  68 0046 00F0      		brlo .+2
  69 0048 00C0      		rjmp .L6
  70 004a C830      		cpi r28,8
  71 004c 8CE5      		ldi r24,92
  72 004e D807      		cpc r29,r24
  73 0050 01F4      		brne .+2
  74 0052 00C0      		rjmp .L7
  75 0054 00F4      		brsh .L8
  76 0056 C430      		cpi r28,4
  77 0058 ECE5      		ldi r30,92
  78 005a DE07      		cpc r29,r30
  79 005c 01F4      		brne .+2
  80 005e 00C0      		rjmp .L9
  81 0060 00F4      		brsh .L10
  82 0062 C230      		cpi r28,2
  83 0064 8CE5      		ldi r24,92
  84 0066 D807      		cpc r29,r24
  85 0068 01F4      		brne .+2
  86 006a 00C0      		rjmp .L11
  87 006c C330      		cpi r28,3
  88 006e DC45      		sbci r29,92
  89 0070 01F0      		breq .+2
  90 0072 00C0      		rjmp .L4
  49:quantum/process_keycode/process_magic.c ****                     case MAGIC_SWAP_CONTROL_CAPSLOCK:
  50:quantum/process_keycode/process_magic.c ****                         keymap_config.swap_control_capslock = true;
  51:quantum/process_keycode/process_magic.c ****                         break;
  52:quantum/process_keycode/process_magic.c ****                     case MAGIC_CAPSLOCK_TO_CONTROL:
  53:quantum/process_keycode/process_magic.c ****                         keymap_config.capslock_to_control = true;
  91               		.loc 1 53 0
  92 0074 8091 0000 		lds r24,keymap_config
  93 0078 8260      		ori r24,lo8(1<<1)
  94 007a 00C0      		rjmp .L46
  95               	.L10:
  48:quantum/process_keycode/process_magic.c ****                 switch (keycode) {
  96               		.loc 1 48 0
  97 007c C630      		cpi r28,6
  98 007e ECE5      		ldi r30,92
  99 0080 DE07      		cpc r29,r30
 100 0082 01F4      		brne .+2
 101 0084 00C0      		rjmp .L13
 102 0086 00F0      		brlo .+2
 103 0088 00C0      		rjmp .L54
  54:quantum/process_keycode/process_magic.c ****                         break;
  55:quantum/process_keycode/process_magic.c ****                     case MAGIC_SWAP_LALT_LGUI:
  56:quantum/process_keycode/process_magic.c ****                         keymap_config.swap_lalt_lgui = true;
  57:quantum/process_keycode/process_magic.c ****                         break;
  58:quantum/process_keycode/process_magic.c ****                     case MAGIC_SWAP_RALT_RGUI:
  59:quantum/process_keycode/process_magic.c ****                         keymap_config.swap_ralt_rgui = true;
 104               		.loc 1 59 0
 105 008a 8091 0000 		lds r24,keymap_config
 106 008e 8860      		ori r24,lo8(1<<3)
 107 0090 00C0      		rjmp .L46
 108               	.L8:
  48:quantum/process_keycode/process_magic.c ****                     case MAGIC_SWAP_CONTROL_CAPSLOCK:
 109               		.loc 1 48 0
 110 0092 CC30      		cpi r28,12
 111 0094 8CE5      		ldi r24,92
 112 0096 D807      		cpc r29,r24
 113 0098 01F4      		brne .+2
 114 009a 00C0      		rjmp .L16
 115 009c 00F4      		brsh .L17
 116 009e CA30      		cpi r28,10
 117 00a0 ECE5      		ldi r30,92
 118 00a2 DE07      		cpc r29,r30
 119 00a4 01F4      		brne .+2
 120 00a6 00C0      		rjmp .L18
 121 00a8 00F0      		brlo .+2
 122 00aa 00C0      		rjmp .L55
  60:quantum/process_keycode/process_magic.c ****                         break;
  61:quantum/process_keycode/process_magic.c ****                     case MAGIC_SWAP_LCTL_LGUI:
  62:quantum/process_keycode/process_magic.c ****                         keymap_config.swap_lctl_lgui = true;
  63:quantum/process_keycode/process_magic.c ****                         break;
  64:quantum/process_keycode/process_magic.c ****                     case MAGIC_SWAP_RCTL_RGUI:
  65:quantum/process_keycode/process_magic.c ****                         keymap_config.swap_rctl_rgui = true;
  66:quantum/process_keycode/process_magic.c ****                         break;
  67:quantum/process_keycode/process_magic.c ****                     case MAGIC_NO_GUI:
  68:quantum/process_keycode/process_magic.c ****                         keymap_config.no_gui = true;
  69:quantum/process_keycode/process_magic.c ****                         break;
  70:quantum/process_keycode/process_magic.c ****                     case MAGIC_SWAP_GRAVE_ESC:
  71:quantum/process_keycode/process_magic.c ****                         keymap_config.swap_grave_esc = true;
  72:quantum/process_keycode/process_magic.c ****                         break;
  73:quantum/process_keycode/process_magic.c ****                     case MAGIC_SWAP_BACKSLASH_BACKSPACE:
  74:quantum/process_keycode/process_magic.c ****                         keymap_config.swap_backslash_backspace = true;
  75:quantum/process_keycode/process_magic.c ****                         break;
  76:quantum/process_keycode/process_magic.c ****                     case MAGIC_HOST_NKRO:
  77:quantum/process_keycode/process_magic.c ****                         clear_keyboard();  // clear first buffer to prevent stuck keys
 123               		.loc 1 77 0
 124 00ac 0E94 0000 		call clear_keyboard
 125               	.LVL3:
  78:quantum/process_keycode/process_magic.c ****                         keymap_config.nkro = true;
 126               		.loc 1 78 0
 127 00b0 8091 0000 		lds r24,keymap_config
 128 00b4 8068      		ori r24,lo8(1<<7)
 129 00b6 00C0      		rjmp .L46
 130               	.L17:
  48:quantum/process_keycode/process_magic.c ****                     case MAGIC_SWAP_CONTROL_CAPSLOCK:
 131               		.loc 1 48 0
 132 00b8 CE30      		cpi r28,14
 133 00ba 8CE5      		ldi r24,92
 134 00bc D807      		cpc r29,r24
 135 00be 01F4      		brne .+2
 136 00c0 00C0      		rjmp .L21
 137 00c2 00F0      		brlo .+2
 138 00c4 00C0      		rjmp .L56
  79:quantum/process_keycode/process_magic.c ****                         break;
  80:quantum/process_keycode/process_magic.c ****                     case MAGIC_SWAP_ALT_GUI:
  81:quantum/process_keycode/process_magic.c ****                         keymap_config.swap_lalt_lgui = keymap_config.swap_ralt_rgui = true;
  82:quantum/process_keycode/process_magic.c **** #ifdef AUDIO_ENABLE
  83:quantum/process_keycode/process_magic.c ****                         PLAY_SONG(ag_swap_song);
  84:quantum/process_keycode/process_magic.c **** #endif
  85:quantum/process_keycode/process_magic.c ****                         break;
  86:quantum/process_keycode/process_magic.c ****                     case MAGIC_SWAP_CTL_GUI:
  87:quantum/process_keycode/process_magic.c ****                         keymap_config.swap_lctl_lgui = keymap_config.swap_rctl_rgui = true;
  88:quantum/process_keycode/process_magic.c **** #ifdef AUDIO_ENABLE
  89:quantum/process_keycode/process_magic.c ****                         PLAY_SONG(cg_swap_song);
  90:quantum/process_keycode/process_magic.c **** #endif
  91:quantum/process_keycode/process_magic.c ****                         break;
  92:quantum/process_keycode/process_magic.c ****                     case MAGIC_UNSWAP_CONTROL_CAPSLOCK:
  93:quantum/process_keycode/process_magic.c ****                         keymap_config.swap_control_capslock = false;
  94:quantum/process_keycode/process_magic.c ****                         break;
  95:quantum/process_keycode/process_magic.c ****                     case MAGIC_UNCAPSLOCK_TO_CONTROL:
  96:quantum/process_keycode/process_magic.c ****                         keymap_config.capslock_to_control = false;
  97:quantum/process_keycode/process_magic.c ****                         break;
  98:quantum/process_keycode/process_magic.c ****                     case MAGIC_UNSWAP_LALT_LGUI:
  99:quantum/process_keycode/process_magic.c ****                         keymap_config.swap_lalt_lgui = false;
 139               		.loc 1 99 0
 140 00c6 8091 0000 		lds r24,keymap_config
 141 00ca 00C0      		rjmp .L50
 142               	.L6:
  48:quantum/process_keycode/process_magic.c ****                     case MAGIC_SWAP_CONTROL_CAPSLOCK:
 143               		.loc 1 48 0
 144 00cc CB3F      		cpi r28,-5
 145 00ce ECE5      		ldi r30,92
 146 00d0 DE07      		cpc r29,r30
 147 00d2 01F4      		brne .+2
 148 00d4 00C0      		rjmp .L24
 149 00d6 00F4      		brsh .L25
 150 00d8 C331      		cpi r28,19
 151 00da 8CE5      		ldi r24,92
 152 00dc D807      		cpc r29,r24
 153 00de 01F4      		brne .+2
 154 00e0 00C0      		rjmp .L26
 155 00e2 00F4      		brsh .L27
 156 00e4 C131      		cpi r28,17
 157 00e6 ECE5      		ldi r30,92
 158 00e8 DE07      		cpc r29,r30
 159 00ea 01F4      		brne .+2
 160 00ec 00C0      		rjmp .L28
 161 00ee C231      		cpi r28,18
 162 00f0 DC45      		sbci r29,92
 163 00f2 01F0      		breq .+2
 164 00f4 00C0      		rjmp .L4
 100:quantum/process_keycode/process_magic.c ****                         break;
 101:quantum/process_keycode/process_magic.c ****                     case MAGIC_UNSWAP_RALT_RGUI:
 102:quantum/process_keycode/process_magic.c ****                         keymap_config.swap_ralt_rgui = false;
 103:quantum/process_keycode/process_magic.c ****                         break;
 104:quantum/process_keycode/process_magic.c ****                     case MAGIC_UNSWAP_LCTL_LGUI:
 105:quantum/process_keycode/process_magic.c ****                         keymap_config.swap_lctl_lgui = false;
 106:quantum/process_keycode/process_magic.c ****                         break;
 107:quantum/process_keycode/process_magic.c ****                     case MAGIC_UNSWAP_RCTL_RGUI:
 108:quantum/process_keycode/process_magic.c ****                         keymap_config.swap_rctl_rgui = false;
 109:quantum/process_keycode/process_magic.c ****                         break;
 110:quantum/process_keycode/process_magic.c ****                     case MAGIC_UNNO_GUI:
 111:quantum/process_keycode/process_magic.c ****                         keymap_config.no_gui = false;
 112:quantum/process_keycode/process_magic.c ****                         break;
 113:quantum/process_keycode/process_magic.c ****                     case MAGIC_UNSWAP_GRAVE_ESC:
 114:quantum/process_keycode/process_magic.c ****                         keymap_config.swap_grave_esc = false;
 115:quantum/process_keycode/process_magic.c ****                         break;
 116:quantum/process_keycode/process_magic.c ****                     case MAGIC_UNSWAP_BACKSLASH_BACKSPACE:
 117:quantum/process_keycode/process_magic.c ****                         keymap_config.swap_backslash_backspace = false;
 118:quantum/process_keycode/process_magic.c ****                         break;
 119:quantum/process_keycode/process_magic.c ****                     case MAGIC_UNHOST_NKRO:
 120:quantum/process_keycode/process_magic.c ****                         clear_keyboard();  // clear first buffer to prevent stuck keys
 165               		.loc 1 120 0
 166 00f6 0E94 0000 		call clear_keyboard
 167               	.LVL4:
 121:quantum/process_keycode/process_magic.c ****                         keymap_config.nkro = false;
 168               		.loc 1 121 0
 169 00fa 8091 0000 		lds r24,keymap_config
 170 00fe 8F77      		andi r24,lo8(~(1<<7))
 171 0100 00C0      		rjmp .L46
 172               	.L27:
  48:quantum/process_keycode/process_magic.c ****                     case MAGIC_SWAP_CONTROL_CAPSLOCK:
 173               		.loc 1 48 0
 174 0102 C531      		cpi r28,21
 175 0104 8CE5      		ldi r24,92
 176 0106 D807      		cpc r29,r24
 177 0108 01F4      		brne .+2
 178 010a 00C0      		rjmp .L30
 179 010c 00F4      		brsh .+2
 180 010e 00C0      		rjmp .L31
 181 0110 CA3F      		cpi r28,-6
 182 0112 DC45      		sbci r29,92
 183 0114 01F0      		breq .+2
 184 0116 00C0      		rjmp .L4
  62:quantum/process_keycode/process_magic.c ****                         break;
 185               		.loc 1 62 0
 186 0118 8091 0000 		lds r24,keymap_config+1
 187 011c 00C0      		rjmp .L51
 188               	.L25:
  48:quantum/process_keycode/process_magic.c ****                     case MAGIC_SWAP_CONTROL_CAPSLOCK:
 189               		.loc 1 48 0
 190 011e CF3F      		cpi r28,-1
 191 0120 FCE5      		ldi r31,92
 192 0122 DF07      		cpc r29,r31
 193 0124 01F4      		brne .+2
 194 0126 00C0      		rjmp .L33
 195 0128 00F4      		brsh .L34
 196 012a CD3F      		cpi r28,-3
 197 012c 9CE5      		ldi r25,92
 198 012e D907      		cpc r29,r25
 199 0130 01F4      		brne .+2
 200 0132 00C0      		rjmp .L35
 201 0134 00F4      		brsh .+2
 202 0136 00C0      		rjmp .L45
  87:quantum/process_keycode/process_magic.c **** #ifdef AUDIO_ENABLE
 203               		.loc 1 87 0
 204 0138 8091 0000 		lds r24,keymap_config+1
 205 013c 8260      		ori r24,lo8(2)
 206 013e 00C0      		rjmp .L51
 207               	.L34:
  48:quantum/process_keycode/process_magic.c ****                     case MAGIC_SWAP_CONTROL_CAPSLOCK:
 208               		.loc 1 48 0
 209 0140 C130      		cpi r28,1
 210 0142 FDE5      		ldi r31,93
 211 0144 DF07      		cpc r29,r31
 212 0146 01F4      		brne .+2
 213 0148 00C0      		rjmp .L38
 214 014a 00F4      		brsh .+2
 215 014c 00C0      		rjmp .L39
 216 014e C230      		cpi r28,2
 217 0150 DD45      		sbci r29,93
 218 0152 01F0      		breq .+2
 219 0154 00C0      		rjmp .L4
 122:quantum/process_keycode/process_magic.c ****                         break;
 123:quantum/process_keycode/process_magic.c ****                     case MAGIC_UNSWAP_ALT_GUI:
 124:quantum/process_keycode/process_magic.c ****                         keymap_config.swap_lalt_lgui = keymap_config.swap_ralt_rgui = false;
 125:quantum/process_keycode/process_magic.c **** #ifdef AUDIO_ENABLE
 126:quantum/process_keycode/process_magic.c ****                         PLAY_SONG(ag_norm_song);
 127:quantum/process_keycode/process_magic.c **** #endif
 128:quantum/process_keycode/process_magic.c ****                         break;
 129:quantum/process_keycode/process_magic.c ****                     case MAGIC_UNSWAP_CTL_GUI:
 130:quantum/process_keycode/process_magic.c ****                         keymap_config.swap_lctl_lgui = keymap_config.swap_rctl_rgui = false;
 131:quantum/process_keycode/process_magic.c **** #ifdef AUDIO_ENABLE
 132:quantum/process_keycode/process_magic.c ****                         PLAY_SONG(cg_norm_song);
 133:quantum/process_keycode/process_magic.c **** #endif
 134:quantum/process_keycode/process_magic.c ****                         break;
 135:quantum/process_keycode/process_magic.c ****                     case MAGIC_TOGGLE_ALT_GUI:
 136:quantum/process_keycode/process_magic.c ****                         keymap_config.swap_lalt_lgui = !keymap_config.swap_lalt_lgui;
 137:quantum/process_keycode/process_magic.c ****                         keymap_config.swap_ralt_rgui = keymap_config.swap_lalt_lgui;
 138:quantum/process_keycode/process_magic.c **** #ifdef AUDIO_ENABLE
 139:quantum/process_keycode/process_magic.c ****                         if (keymap_config.swap_ralt_rgui) {
 140:quantum/process_keycode/process_magic.c ****                             PLAY_SONG(ag_swap_song);
 141:quantum/process_keycode/process_magic.c ****                         } else {
 142:quantum/process_keycode/process_magic.c ****                             PLAY_SONG(ag_norm_song);
 143:quantum/process_keycode/process_magic.c ****                         }
 144:quantum/process_keycode/process_magic.c **** #endif
 145:quantum/process_keycode/process_magic.c ****                         break;
 146:quantum/process_keycode/process_magic.c ****                     case MAGIC_TOGGLE_CTL_GUI:
 147:quantum/process_keycode/process_magic.c ****                         keymap_config.swap_lctl_lgui = !keymap_config.swap_lctl_lgui;
 148:quantum/process_keycode/process_magic.c ****                         keymap_config.swap_rctl_rgui = keymap_config.swap_lctl_lgui;
 149:quantum/process_keycode/process_magic.c **** #ifdef AUDIO_ENABLE
 150:quantum/process_keycode/process_magic.c ****                         if (keymap_config.swap_rctl_rgui) {
 151:quantum/process_keycode/process_magic.c ****                             PLAY_SONG(cg_swap_song);
 152:quantum/process_keycode/process_magic.c ****                         } else {
 153:quantum/process_keycode/process_magic.c ****                             PLAY_SONG(cg_norm_song);
 154:quantum/process_keycode/process_magic.c ****                         }
 155:quantum/process_keycode/process_magic.c **** #endif
 156:quantum/process_keycode/process_magic.c ****                         break;
 157:quantum/process_keycode/process_magic.c ****                     case MAGIC_TOGGLE_NKRO:
 158:quantum/process_keycode/process_magic.c ****                         clear_keyboard();  // clear first buffer to prevent stuck keys
 159:quantum/process_keycode/process_magic.c ****                         keymap_config.nkro = !keymap_config.nkro;
 160:quantum/process_keycode/process_magic.c ****                         break;
 161:quantum/process_keycode/process_magic.c ****                     case MAGIC_EE_HANDS_LEFT:
 162:quantum/process_keycode/process_magic.c ****                         eeconfig_update_handedness(true);
 163:quantum/process_keycode/process_magic.c ****                         break;
 164:quantum/process_keycode/process_magic.c ****                     case MAGIC_EE_HANDS_RIGHT:
 165:quantum/process_keycode/process_magic.c ****                         eeconfig_update_handedness(false);
 220               		.loc 1 165 0
 221 0156 80E0      		ldi r24,0
 222 0158 00C0      		rjmp .L47
 223               	.L11:
  50:quantum/process_keycode/process_magic.c ****                         break;
 224               		.loc 1 50 0
 225 015a 8091 0000 		lds r24,keymap_config
 226 015e 8160      		ori r24,lo8(1<<0)
 227 0160 00C0      		rjmp .L46
 228               	.L13:
  68:quantum/process_keycode/process_magic.c ****                         break;
 229               		.loc 1 68 0
 230 0162 8091 0000 		lds r24,keymap_config
 231 0166 8061      		ori r24,lo8(1<<4)
 232               	.L46:
  53:quantum/process_keycode/process_magic.c ****                         break;
 233               		.loc 1 53 0
 234 0168 8093 0000 		sts keymap_config,r24
  54:quantum/process_keycode/process_magic.c ****                     case MAGIC_SWAP_LALT_LGUI:
 235               		.loc 1 54 0
 236 016c 00C0      		rjmp .L4
 237               	.L9:
  56:quantum/process_keycode/process_magic.c ****                         break;
 238               		.loc 1 56 0
 239 016e 8091 0000 		lds r24,keymap_config
 240 0172 00C0      		rjmp .L49
 241               	.L24:
  65:quantum/process_keycode/process_magic.c ****                         break;
 242               		.loc 1 65 0
 243 0174 8091 0000 		lds r24,keymap_config+1
 244 0178 8260      		ori r24,lo8(1<<1)
 245               	.L48:
 246 017a 8093 0000 		sts keymap_config+1,r24
  66:quantum/process_keycode/process_magic.c ****                     case MAGIC_NO_GUI:
 247               		.loc 1 66 0
 248 017e 00C0      		rjmp .L4
 249               	.L54:
  71:quantum/process_keycode/process_magic.c ****                         break;
 250               		.loc 1 71 0
 251 0180 8091 0000 		lds r24,keymap_config
 252 0184 8062      		ori r24,lo8(1<<5)
 253 0186 00C0      		rjmp .L46
 254               	.L7:
  74:quantum/process_keycode/process_magic.c ****                         break;
 255               		.loc 1 74 0
 256 0188 8091 0000 		lds r24,keymap_config
 257 018c 8064      		ori r24,lo8(1<<6)
 258 018e 00C0      		rjmp .L46
 259               	.L18:
  81:quantum/process_keycode/process_magic.c **** #ifdef AUDIO_ENABLE
 260               		.loc 1 81 0
 261 0190 8091 0000 		lds r24,keymap_config
 262 0194 8860      		ori r24,lo8(8)
 263               	.L49:
 264 0196 8460      		ori r24,lo8(1<<2)
 265 0198 00C0      		rjmp .L46
 266               	.L51:
  87:quantum/process_keycode/process_magic.c **** #ifdef AUDIO_ENABLE
 267               		.loc 1 87 0
 268 019a 8160      		ori r24,lo8(1<<0)
 269 019c 00C0      		rjmp .L48
 270               	.L55:
  93:quantum/process_keycode/process_magic.c ****                         break;
 271               		.loc 1 93 0
 272 019e 8091 0000 		lds r24,keymap_config
 273 01a2 8E7F      		andi r24,lo8(~(1<<0))
 274 01a4 00C0      		rjmp .L46
 275               	.L16:
  96:quantum/process_keycode/process_magic.c ****                         break;
 276               		.loc 1 96 0
 277 01a6 8091 0000 		lds r24,keymap_config
 278 01aa 8D7F      		andi r24,lo8(~(1<<1))
 279 01ac 00C0      		rjmp .L46
 280               	.L21:
 102:quantum/process_keycode/process_magic.c ****                         break;
 281               		.loc 1 102 0
 282 01ae 8091 0000 		lds r24,keymap_config
 283 01b2 877F      		andi r24,lo8(~(1<<3))
 284 01b4 00C0      		rjmp .L46
 285               	.L45:
 105:quantum/process_keycode/process_magic.c ****                         break;
 286               		.loc 1 105 0
 287 01b6 8091 0000 		lds r24,keymap_config+1
 288 01ba 00C0      		rjmp .L52
 289               	.L35:
 108:quantum/process_keycode/process_magic.c ****                         break;
 290               		.loc 1 108 0
 291 01bc 8091 0000 		lds r24,keymap_config+1
 292 01c0 8D7F      		andi r24,lo8(~(1<<1))
 293 01c2 00C0      		rjmp .L48
 294               	.L56:
 111:quantum/process_keycode/process_magic.c ****                         break;
 295               		.loc 1 111 0
 296 01c4 8091 0000 		lds r24,keymap_config
 297 01c8 8F7E      		andi r24,lo8(~(1<<4))
 298 01ca 00C0      		rjmp .L46
 299               	.L5:
 114:quantum/process_keycode/process_magic.c ****                         break;
 300               		.loc 1 114 0
 301 01cc 8091 0000 		lds r24,keymap_config
 302 01d0 8F7D      		andi r24,lo8(~(1<<5))
 303 01d2 00C0      		rjmp .L46
 304               	.L28:
 117:quantum/process_keycode/process_magic.c ****                         break;
 305               		.loc 1 117 0
 306 01d4 8091 0000 		lds r24,keymap_config
 307 01d8 8F7B      		andi r24,lo8(~(1<<6))
 308 01da 00C0      		rjmp .L46
 309               	.L26:
 124:quantum/process_keycode/process_magic.c **** #ifdef AUDIO_ENABLE
 310               		.loc 1 124 0
 311 01dc 8091 0000 		lds r24,keymap_config
 312 01e0 877F      		andi r24,lo8(-9)
 313               	.L50:
 314 01e2 8B7F      		andi r24,lo8(~(1<<2))
 315 01e4 00C0      		rjmp .L46
 316               	.L33:
 130:quantum/process_keycode/process_magic.c **** #ifdef AUDIO_ENABLE
 317               		.loc 1 130 0
 318 01e6 8091 0000 		lds r24,keymap_config+1
 319 01ea 8D7F      		andi r24,lo8(-3)
 320               	.L52:
 321 01ec 8E7F      		andi r24,lo8(~(1<<0))
 322 01ee 00C0      		rjmp .L48
 323               	.L30:
 136:quantum/process_keycode/process_magic.c ****                         keymap_config.swap_ralt_rgui = keymap_config.swap_lalt_lgui;
 324               		.loc 1 136 0
 325 01f0 8091 0000 		lds r24,keymap_config
 326 01f4 82FB      		bst r24,2
 327 01f6 2227      		clr r18
 328 01f8 20F9      		bld r18,0
 329 01fa 91E0      		ldi r25,lo8(1)
 330 01fc 9227      		eor r25,r18
 331 01fe 90FB      		bst r25,0
 332 0200 82F9      		bld r24,2
 137:quantum/process_keycode/process_magic.c **** #ifdef AUDIO_ENABLE
 333               		.loc 1 137 0
 334 0202 90FB      		bst r25,0
 335 0204 83F9      		bld r24,3
 336 0206 00C0      		rjmp .L46
 337               	.L39:
 147:quantum/process_keycode/process_magic.c ****                         keymap_config.swap_rctl_rgui = keymap_config.swap_lctl_lgui;
 338               		.loc 1 147 0
 339 0208 8091 0000 		lds r24,keymap_config+1
 340 020c 982F      		mov r25,r24
 341 020e 9095      		com r25
 342 0210 9170      		andi r25,lo8(1)
 343 0212 8E7F      		andi r24,lo8(-2)
 148:quantum/process_keycode/process_magic.c **** #ifdef AUDIO_ENABLE
 344               		.loc 1 148 0
 345 0214 892B      		or r24,r25
 346 0216 90FB      		bst r25,0
 347 0218 81F9      		bld r24,1
 348 021a 00C0      		rjmp .L48
 349               	.L31:
 158:quantum/process_keycode/process_magic.c ****                         keymap_config.nkro = !keymap_config.nkro;
 350               		.loc 1 158 0
 351 021c 0E94 0000 		call clear_keyboard
 352               	.LVL5:
 159:quantum/process_keycode/process_magic.c ****                         break;
 353               		.loc 1 159 0
 354 0220 8091 0000 		lds r24,keymap_config
 355 0224 87FB      		bst r24,7
 356 0226 2227      		clr r18
 357 0228 20F9      		bld r18,0
 358 022a 91E0      		ldi r25,lo8(1)
 359 022c 9227      		eor r25,r18
 360 022e 90FB      		bst r25,0
 361 0230 87F9      		bld r24,7
 362 0232 00C0      		rjmp .L46
 363               	.L38:
 162:quantum/process_keycode/process_magic.c ****                         break;
 364               		.loc 1 162 0
 365 0234 81E0      		ldi r24,lo8(1)
 366               	.L47:
 367               		.loc 1 165 0
 368 0236 0E94 0000 		call eeconfig_update_handedness
 369               	.LVL6:
 370               	.L4:
 166:quantum/process_keycode/process_magic.c ****                         break;
 167:quantum/process_keycode/process_magic.c ****                 }
 168:quantum/process_keycode/process_magic.c **** 
 169:quantum/process_keycode/process_magic.c ****                 eeconfig_update_keymap(keymap_config.raw);
 371               		.loc 1 169 0
 372 023a 8091 0000 		lds r24,keymap_config
 373 023e 9091 0000 		lds r25,keymap_config+1
 374 0242 0E94 0000 		call eeconfig_update_keymap
 375               	.LVL7:
 170:quantum/process_keycode/process_magic.c ****                 clear_keyboard();  // clear to prevent stuck keys
 376               		.loc 1 170 0
 377 0246 0E94 0000 		call clear_keyboard
 378               	.LVL8:
 171:quantum/process_keycode/process_magic.c **** 
 172:quantum/process_keycode/process_magic.c ****                 return false;
 379               		.loc 1 172 0
 380 024a 80E0      		ldi r24,0
 381 024c 00C0      		rjmp .L2
 382               	.LVL9:
 383               	.L41:
 173:quantum/process_keycode/process_magic.c ****         }
 174:quantum/process_keycode/process_magic.c ****     }
 175:quantum/process_keycode/process_magic.c **** 
 176:quantum/process_keycode/process_magic.c ****     // Not a magic keycode so continue processing
 177:quantum/process_keycode/process_magic.c ****     return true;
 384               		.loc 1 177 0
 385 024e 81E0      		ldi r24,lo8(1)
 386               	.LVL10:
 387               	.L2:
 388               	/* epilogue start */
 178:quantum/process_keycode/process_magic.c **** }
 389               		.loc 1 178 0
 390 0250 DF91      		pop r29
 391 0252 CF91      		pop r28
 392               	.LVL11:
 393 0254 0895      		ret
 394               		.cfi_endproc
 395               	.LFE112:
 397               		.text
 398               	.Letext0:
 399               		.file 2 "/usr/lib/avr/include/stdint.h"
 400               		.file 3 "tmk_core/common/keyboard.h"
 401               		.file 4 "tmk_core/common/action.h"
 402               		.file 5 "tmk_core/common/report.h"
 403               		.file 6 "quantum/keycode_config.h"
 404               		.file 7 "lib/lufa/LUFA/Drivers/USB/Core/USBTask.h"
 405               		.file 8 "tmk_core/common/action_util.h"
 406               		.file 9 "tmk_core/common/eeconfig.h"
 407               		.file 10 "quantum/quantum_keycodes.h"
DEFINED SYMBOLS
                            *ABS*:0000000000000000 process_magic.c
     /tmp/ccZLKITw.s:2      *ABS*:000000000000003e __SP_H__
     /tmp/ccZLKITw.s:3      *ABS*:000000000000003d __SP_L__
     /tmp/ccZLKITw.s:4      *ABS*:000000000000003f __SREG__
     /tmp/ccZLKITw.s:5      *ABS*:0000000000000000 __tmp_reg__
     /tmp/ccZLKITw.s:6      *ABS*:0000000000000001 __zero_reg__
     /tmp/ccZLKITw.s:13     .text.process_magic:0000000000000000 process_magic

UNDEFINED SYMBOLS
eeconfig_read_keymap
keymap_config
clear_keyboard
eeconfig_update_handedness
eeconfig_update_keymap
