   1               		.file	"util.c"
   2               	__SP_H__ = 0x3e
   3               	__SP_L__ = 0x3d
   4               	__SREG__ = 0x3f
   5               	__tmp_reg__ = 0
   6               	__zero_reg__ = 1
   7               		.text
   8               	.Ltext0:
   9               		.cfi_sections	.debug_frame
  10               		.section	.text.bitpop,"ax",@progbits
  11               	.global	bitpop
  13               	bitpop:
  14               	.LFB0:
  15               		.file 1 "tmk_core/common/util.c"
   1:tmk_core/common/util.c **** /*
   2:tmk_core/common/util.c **** Copyright 2011 Jun Wako <wakojun@gmail.com>
   3:tmk_core/common/util.c **** 
   4:tmk_core/common/util.c **** This program is free software: you can redistribute it and/or modify
   5:tmk_core/common/util.c **** it under the terms of the GNU General Public License as published by
   6:tmk_core/common/util.c **** the Free Software Foundation, either version 2 of the License, or
   7:tmk_core/common/util.c **** (at your option) any later version.
   8:tmk_core/common/util.c **** 
   9:tmk_core/common/util.c **** This program is distributed in the hope that it will be useful,
  10:tmk_core/common/util.c **** but WITHOUT ANY WARRANTY; without even the implied warranty of
  11:tmk_core/common/util.c **** MERCHANTABILITY or FITNESS FOR A PARTICULAR PURPOSE.  See the
  12:tmk_core/common/util.c **** GNU General Public License for more details.
  13:tmk_core/common/util.c **** 
  14:tmk_core/common/util.c **** You should have received a copy of the GNU General Public License
  15:tmk_core/common/util.c **** along with this program.  If not, see <http://www.gnu.org/licenses/>.
  16:tmk_core/common/util.c **** */
  17:tmk_core/common/util.c **** 
  18:tmk_core/common/util.c **** #include "util.h"
  19:tmk_core/common/util.c **** 
  20:tmk_core/common/util.c **** // bit population - return number of on-bit
  21:tmk_core/common/util.c **** __attribute__((noinline)) uint8_t bitpop(uint8_t bits) {
  16               		.loc 1 21 0
  17               		.cfi_startproc
  18               	.LVL0:
  19               	/* prologue: function */
  20               	/* frame size = 0 */
  21               	/* stack size = 0 */
  22               	.L__stack_usage = 0
  22:tmk_core/common/util.c ****     uint8_t c;
  23:tmk_core/common/util.c ****     for (c = 0; bits; c++) bits &= bits - 1;
  23               		.loc 1 23 0
  24 0000 90E0      		ldi r25,0
  25               	.LVL1:
  26               	.L2:
  27               		.loc 1 23 0 is_stmt 0 discriminator 1
  28 0002 8823      		tst r24
  29 0004 01F0      		breq .L5
  30               		.loc 1 23 0 discriminator 3
  31 0006 2FEF      		ldi r18,lo8(-1)
  32 0008 280F      		add r18,r24
  33 000a 8223      		and r24,r18
  34               	.LVL2:
  35 000c 9F5F      		subi r25,lo8(-(1))
  36               	.LVL3:
  37 000e 00C0      		rjmp .L2
  38               	.L5:
  24:tmk_core/common/util.c ****     return c;
  25:tmk_core/common/util.c ****     /*
  26:tmk_core/common/util.c ****         const uint8_t bit_count[] = { 0, 1, 1, 2, 1, 2, 2, 3, 1, 2, 2, 3, 2, 3, 3, 4 };
  27:tmk_core/common/util.c ****         return bit_count[bits>>4] + bit_count[bits&0x0F]
  28:tmk_core/common/util.c ****     */
  29:tmk_core/common/util.c **** }
  39               		.loc 1 29 0 is_stmt 1
  40 0010 892F      		mov r24,r25
  41               	.LVL4:
  42 0012 0895      		ret
  43               		.cfi_endproc
  44               	.LFE0:
  46               		.section	.text.bitpop16,"ax",@progbits
  47               	.global	bitpop16
  49               	bitpop16:
  50               	.LFB1:
  30:tmk_core/common/util.c **** 
  31:tmk_core/common/util.c **** uint8_t bitpop16(uint16_t bits) {
  51               		.loc 1 31 0
  52               		.cfi_startproc
  53               	.LVL5:
  54               	/* prologue: function */
  55               	/* frame size = 0 */
  56               	/* stack size = 0 */
  57               	.L__stack_usage = 0
  32:tmk_core/common/util.c ****     uint8_t c;
  33:tmk_core/common/util.c ****     for (c = 0; bits; c++) bits &= bits - 1;
  58               		.loc 1 33 0
  59 0000 20E0      		ldi r18,0
  60               	.LVL6:
  61               	.L7:
  62               		.loc 1 33 0 is_stmt 0 discriminator 1
  63 0002 0097      		sbiw r24,0
  64 0004 01F0      		breq .L9
  65               		.loc 1 33 0 discriminator 3
  66 0006 AC01      		movw r20,r24
  67 0008 4150      		subi r20,1
  68 000a 5109      		sbc r21,__zero_reg__
  69 000c 8423      		and r24,r20
  70 000e 9523      		and r25,r21
  71               	.LVL7:
  72 0010 2F5F      		subi r18,lo8(-(1))
  73               	.LVL8:
  74 0012 00C0      		rjmp .L7
  75               	.L9:
  34:tmk_core/common/util.c ****     return c;
  35:tmk_core/common/util.c **** }
  76               		.loc 1 35 0 is_stmt 1
  77 0014 822F      		mov r24,r18
  78               	.LVL9:
  79 0016 0895      		ret
  80               		.cfi_endproc
  81               	.LFE1:
  83               		.section	.text.bitpop32,"ax",@progbits
  84               	.global	bitpop32
  86               	bitpop32:
  87               	.LFB2:
  36:tmk_core/common/util.c **** 
  37:tmk_core/common/util.c **** uint8_t bitpop32(uint32_t bits) {
  88               		.loc 1 37 0
  89               		.cfi_startproc
  90               	.LVL10:
  91 0000 CF92      		push r12
  92               	.LCFI0:
  93               		.cfi_def_cfa_offset 3
  94               		.cfi_offset 12, -2
  95 0002 DF92      		push r13
  96               	.LCFI1:
  97               		.cfi_def_cfa_offset 4
  98               		.cfi_offset 13, -3
  99 0004 EF92      		push r14
 100               	.LCFI2:
 101               		.cfi_def_cfa_offset 5
 102               		.cfi_offset 14, -4
 103 0006 FF92      		push r15
 104               	.LCFI3:
 105               		.cfi_def_cfa_offset 6
 106               		.cfi_offset 15, -5
 107               	/* prologue: function */
 108               	/* frame size = 0 */
 109               	/* stack size = 4 */
 110               	.L__stack_usage = 4
 111               	.LVL11:
  38:tmk_core/common/util.c ****     uint8_t c;
  39:tmk_core/common/util.c ****     for (c = 0; bits; c++) bits &= bits - 1;
 112               		.loc 1 39 0
 113 0008 20E0      		ldi r18,0
 114               	.LVL12:
 115               	.L11:
 116               		.loc 1 39 0 is_stmt 0 discriminator 1
 117 000a 6115      		cp r22,__zero_reg__
 118 000c 7105      		cpc r23,__zero_reg__
 119 000e 8105      		cpc r24,__zero_reg__
 120 0010 9105      		cpc r25,__zero_reg__
 121 0012 01F0      		breq .L13
 122               		.loc 1 39 0 discriminator 3
 123 0014 6B01      		movw r12,r22
 124 0016 7C01      		movw r14,r24
 125 0018 31E0      		ldi r19,1
 126 001a C31A      		sub r12,r19
 127 001c D108      		sbc r13,__zero_reg__
 128 001e E108      		sbc r14,__zero_reg__
 129 0020 F108      		sbc r15,__zero_reg__
 130 0022 6C21      		and r22,r12
 131 0024 7D21      		and r23,r13
 132 0026 8E21      		and r24,r14
 133 0028 9F21      		and r25,r15
 134               	.LVL13:
 135 002a 2F5F      		subi r18,lo8(-(1))
 136               	.LVL14:
 137 002c 00C0      		rjmp .L11
 138               	.L13:
  40:tmk_core/common/util.c ****     return c;
  41:tmk_core/common/util.c **** }
 139               		.loc 1 41 0 is_stmt 1
 140 002e 822F      		mov r24,r18
 141               	/* epilogue start */
 142 0030 FF90      		pop r15
 143 0032 EF90      		pop r14
 144 0034 DF90      		pop r13
 145 0036 CF90      		pop r12
 146 0038 0895      		ret
 147               		.cfi_endproc
 148               	.LFE2:
 150               		.section	.text.biton,"ax",@progbits
 151               	.global	biton
 153               	biton:
 154               	.LFB3:
  42:tmk_core/common/util.c **** 
  43:tmk_core/common/util.c **** // most significant on-bit - return highest location of on-bit
  44:tmk_core/common/util.c **** // NOTE: return 0 when bit0 is on or all bits are off
  45:tmk_core/common/util.c **** __attribute__((noinline)) uint8_t biton(uint8_t bits) {
 155               		.loc 1 45 0
 156               		.cfi_startproc
 157               	.LVL15:
 158               	/* prologue: function */
 159               	/* frame size = 0 */
 160               	/* stack size = 0 */
 161               	.L__stack_usage = 0
  46:tmk_core/common/util.c ****     uint8_t n = 0;
  47:tmk_core/common/util.c ****     if (bits >> 4) {
 162               		.loc 1 47 0
 163 0000 982F      		mov r25,r24
 164 0002 9295      		swap r25
 165 0004 9F70      		andi r25,lo8(15)
 166 0006 01F0      		breq .L18
 167 0008 892F      		mov r24,r25
 168               	.LVL16:
  48:tmk_core/common/util.c ****         bits >>= 4;
  49:tmk_core/common/util.c ****         n += 4;
 169               		.loc 1 49 0
 170 000a 24E0      		ldi r18,lo8(4)
 171 000c 00C0      		rjmp .L15
 172               	.LVL17:
 173               	.L18:
  46:tmk_core/common/util.c ****     uint8_t n = 0;
 174               		.loc 1 46 0
 175 000e 20E0      		ldi r18,0
 176               	.LVL18:
 177               	.L15:
  50:tmk_core/common/util.c ****     }
  51:tmk_core/common/util.c ****     if (bits >> 2) {
 178               		.loc 1 51 0
 179 0010 982F      		mov r25,r24
 180 0012 9695      		lsr r25
 181 0014 9695      		lsr r25
 182 0016 01F0      		breq .L16
 183               	.LVL19:
  52:tmk_core/common/util.c ****         bits >>= 2;
  53:tmk_core/common/util.c ****         n += 2;
 184               		.loc 1 53 0
 185 0018 2E5F      		subi r18,lo8(-(2))
 186               	.LVL20:
 187 001a 892F      		mov r24,r25
 188               	.LVL21:
 189               	.L16:
  54:tmk_core/common/util.c ****     }
  55:tmk_core/common/util.c ****     if (bits >> 1) {
 190               		.loc 1 55 0
 191 001c 982F      		mov r25,r24
 192 001e 9695      		lsr r25
 193 0020 01F0      		breq .L17
 194               	.LVL22:
  56:tmk_core/common/util.c ****         bits >>= 1;
  57:tmk_core/common/util.c ****         n += 1;
 195               		.loc 1 57 0
 196 0022 2F5F      		subi r18,lo8(-(1))
 197               	.LVL23:
 198               	.L17:
  58:tmk_core/common/util.c ****     }
  59:tmk_core/common/util.c ****     return n;
  60:tmk_core/common/util.c **** }
 199               		.loc 1 60 0
 200 0024 822F      		mov r24,r18
 201 0026 0895      		ret
 202               		.cfi_endproc
 203               	.LFE3:
 205               		.section	.text.biton16,"ax",@progbits
 206               	.global	biton16
 208               	biton16:
 209               	.LFB4:
  61:tmk_core/common/util.c **** 
  62:tmk_core/common/util.c **** uint8_t biton16(uint16_t bits) {
 210               		.loc 1 62 0
 211               		.cfi_startproc
 212               	.LVL24:
 213               	/* prologue: function */
 214               	/* frame size = 0 */
 215               	/* stack size = 0 */
 216               	.L__stack_usage = 0
  63:tmk_core/common/util.c ****     uint8_t n = 0;
  64:tmk_core/common/util.c ****     if (bits >> 8) {
 217               		.loc 1 64 0
 218 0000 292F      		mov r18,r25
 219 0002 3327      		clr r19
 220 0004 2115      		cp r18,__zero_reg__
 221 0006 3105      		cpc r19,__zero_reg__
 222 0008 01F0      		breq .L30
 223 000a C901      		movw r24,r18
 224               	.LVL25:
  65:tmk_core/common/util.c ****         bits >>= 8;
  66:tmk_core/common/util.c ****         n += 8;
 225               		.loc 1 66 0
 226 000c 48E0      		ldi r20,lo8(8)
 227 000e 00C0      		rjmp .L26
 228               	.LVL26:
 229               	.L30:
  63:tmk_core/common/util.c ****     uint8_t n = 0;
 230               		.loc 1 63 0
 231 0010 40E0      		ldi r20,0
 232               	.LVL27:
 233               	.L26:
  67:tmk_core/common/util.c ****     }
  68:tmk_core/common/util.c ****     if (bits >> 4) {
 234               		.loc 1 68 0
 235 0012 9C01      		movw r18,r24
 236 0014 64E0      		ldi r22,4
 237               		1:
 238 0016 3695      		lsr r19
 239 0018 2795      		ror r18
 240 001a 6A95      		dec r22
 241 001c 01F4      		brne 1b
 242 001e 2115      		cp r18,__zero_reg__
 243 0020 3105      		cpc r19,__zero_reg__
 244 0022 01F0      		breq .L27
 245               	.LVL28:
  69:tmk_core/common/util.c ****         bits >>= 4;
  70:tmk_core/common/util.c ****         n += 4;
 246               		.loc 1 70 0
 247 0024 4C5F      		subi r20,lo8(-(4))
 248               	.LVL29:
 249 0026 C901      		movw r24,r18
 250               	.LVL30:
 251               	.L27:
  71:tmk_core/common/util.c ****     }
  72:tmk_core/common/util.c ****     if (bits >> 2) {
 252               		.loc 1 72 0
 253 0028 9C01      		movw r18,r24
 254 002a 3695      		lsr r19
 255 002c 2795      		ror r18
 256 002e 3695      		lsr r19
 257 0030 2795      		ror r18
 258 0032 2115      		cp r18,__zero_reg__
 259 0034 3105      		cpc r19,__zero_reg__
 260 0036 01F0      		breq .L28
 261               	.LVL31:
  73:tmk_core/common/util.c ****         bits >>= 2;
  74:tmk_core/common/util.c ****         n += 2;
 262               		.loc 1 74 0
 263 0038 4E5F      		subi r20,lo8(-(2))
 264               	.LVL32:
 265 003a C901      		movw r24,r18
 266               	.LVL33:
 267               	.L28:
  75:tmk_core/common/util.c ****     }
  76:tmk_core/common/util.c ****     if (bits >> 1) {
 268               		.loc 1 76 0
 269 003c 9C01      		movw r18,r24
 270 003e 3695      		lsr r19
 271 0040 2795      		ror r18
 272               	.LVL34:
 273 0042 232B      		or r18,r19
 274 0044 01F0      		breq .L29
  77:tmk_core/common/util.c ****         bits >>= 1;
  78:tmk_core/common/util.c ****         n += 1;
 275               		.loc 1 78 0
 276 0046 4F5F      		subi r20,lo8(-(1))
 277               	.LVL35:
 278               	.L29:
  79:tmk_core/common/util.c ****     }
  80:tmk_core/common/util.c ****     return n;
  81:tmk_core/common/util.c **** }
 279               		.loc 1 81 0
 280 0048 842F      		mov r24,r20
 281 004a 0895      		ret
 282               		.cfi_endproc
 283               	.LFE4:
 285               		.section	.text.biton32,"ax",@progbits
 286               	.global	biton32
 288               	biton32:
 289               	.LFB5:
  82:tmk_core/common/util.c **** 
  83:tmk_core/common/util.c **** uint8_t biton32(uint32_t bits) {
 290               		.loc 1 83 0
 291               		.cfi_startproc
 292               	.LVL36:
 293 0000 CF92      		push r12
 294               	.LCFI4:
 295               		.cfi_def_cfa_offset 3
 296               		.cfi_offset 12, -2
 297 0002 DF92      		push r13
 298               	.LCFI5:
 299               		.cfi_def_cfa_offset 4
 300               		.cfi_offset 13, -3
 301 0004 EF92      		push r14
 302               	.LCFI6:
 303               		.cfi_def_cfa_offset 5
 304               		.cfi_offset 14, -4
 305 0006 FF92      		push r15
 306               	.LCFI7:
 307               		.cfi_def_cfa_offset 6
 308               		.cfi_offset 15, -5
 309               	/* prologue: function */
 310               	/* frame size = 0 */
 311               	/* stack size = 4 */
 312               	.L__stack_usage = 4
 313               	.LVL37:
  84:tmk_core/common/util.c ****     uint8_t n = 0;
  85:tmk_core/common/util.c ****     if (bits >> 16) {
 314               		.loc 1 85 0
 315 0008 6C01      		movw r12,r24
 316 000a EE24      		clr r14
 317 000c FF24      		clr r15
 318 000e C114      		cp r12,__zero_reg__
 319 0010 D104      		cpc r13,__zero_reg__
 320 0012 E104      		cpc r14,__zero_reg__
 321 0014 F104      		cpc r15,__zero_reg__
 322 0016 01F0      		breq .L46
 323 0018 C701      		movw r24,r14
 324 001a B601      		movw r22,r12
 325               	.LVL38:
  86:tmk_core/common/util.c ****         bits >>= 16;
  87:tmk_core/common/util.c ****         n += 16;
 326               		.loc 1 87 0
 327 001c 20E1      		ldi r18,lo8(16)
 328 001e 00C0      		rjmp .L41
 329               	.LVL39:
 330               	.L46:
  84:tmk_core/common/util.c ****     uint8_t n = 0;
 331               		.loc 1 84 0
 332 0020 20E0      		ldi r18,0
 333               	.LVL40:
 334               	.L41:
  88:tmk_core/common/util.c ****     }
  89:tmk_core/common/util.c ****     if (bits >> 8) {
 335               		.loc 1 89 0
 336 0022 C72E      		mov r12,r23
 337 0024 D82E      		mov r13,r24
 338 0026 E92E      		mov r14,r25
 339 0028 FF24      		clr r15
 340 002a C114      		cp r12,__zero_reg__
 341 002c D104      		cpc r13,__zero_reg__
 342 002e E104      		cpc r14,__zero_reg__
 343 0030 F104      		cpc r15,__zero_reg__
 344 0032 01F0      		breq .L42
 345               	.LVL41:
  90:tmk_core/common/util.c ****         bits >>= 8;
  91:tmk_core/common/util.c ****         n += 8;
 346               		.loc 1 91 0
 347 0034 285F      		subi r18,lo8(-(8))
 348               	.LVL42:
 349 0036 C701      		movw r24,r14
 350 0038 B601      		movw r22,r12
 351               	.LVL43:
 352               	.L42:
  92:tmk_core/common/util.c ****     }
  93:tmk_core/common/util.c ****     if (bits >> 4) {
 353               		.loc 1 93 0
 354 003a 6B01      		movw r12,r22
 355 003c 7C01      		movw r14,r24
 356 003e 54E0      		ldi r21,4
 357               		1:
 358 0040 F694      		lsr r15
 359 0042 E794      		ror r14
 360 0044 D794      		ror r13
 361 0046 C794      		ror r12
 362 0048 5A95      		dec r21
 363 004a 01F4      		brne 1b
 364 004c C114      		cp r12,__zero_reg__
 365 004e D104      		cpc r13,__zero_reg__
 366 0050 E104      		cpc r14,__zero_reg__
 367 0052 F104      		cpc r15,__zero_reg__
 368 0054 01F0      		breq .L43
 369               	.LVL44:
  94:tmk_core/common/util.c ****         bits >>= 4;
  95:tmk_core/common/util.c ****         n += 4;
 370               		.loc 1 95 0
 371 0056 2C5F      		subi r18,lo8(-(4))
 372               	.LVL45:
 373 0058 C701      		movw r24,r14
 374 005a B601      		movw r22,r12
 375               	.LVL46:
 376               	.L43:
  96:tmk_core/common/util.c ****     }
  97:tmk_core/common/util.c ****     if (bits >> 2) {
 377               		.loc 1 97 0
 378 005c 6B01      		movw r12,r22
 379 005e 7C01      		movw r14,r24
 380 0060 42E0      		ldi r20,2
 381               		1:
 382 0062 F694      		lsr r15
 383 0064 E794      		ror r14
 384 0066 D794      		ror r13
 385 0068 C794      		ror r12
 386 006a 4A95      		dec r20
 387 006c 01F4      		brne 1b
 388 006e C114      		cp r12,__zero_reg__
 389 0070 D104      		cpc r13,__zero_reg__
 390 0072 E104      		cpc r14,__zero_reg__
 391 0074 F104      		cpc r15,__zero_reg__
 392 0076 01F0      		breq .L44
 393               	.LVL47:
  98:tmk_core/common/util.c ****         bits >>= 2;
  99:tmk_core/common/util.c ****         n += 2;
 394               		.loc 1 99 0
 395 0078 2E5F      		subi r18,lo8(-(2))
 396               	.LVL48:
 397 007a C701      		movw r24,r14
 398 007c B601      		movw r22,r12
 399               	.LVL49:
 400               	.L44:
 100:tmk_core/common/util.c ****     }
 101:tmk_core/common/util.c ****     if (bits >> 1) {
 401               		.loc 1 101 0
 402 007e DC01      		movw r26,r24
 403 0080 CB01      		movw r24,r22
 404 0082 B695      		lsr r27
 405 0084 A795      		ror r26
 406 0086 9795      		ror r25
 407 0088 8795      		ror r24
 408 008a 892B      		or r24,r25
 409 008c 8A2B      		or r24,r26
 410 008e 8B2B      		or r24,r27
 411 0090 01F0      		breq .L45
 412               	.LVL50:
 102:tmk_core/common/util.c ****         bits >>= 1;
 103:tmk_core/common/util.c ****         n += 1;
 413               		.loc 1 103 0
 414 0092 2F5F      		subi r18,lo8(-(1))
 415               	.LVL51:
 416               	.L45:
 104:tmk_core/common/util.c ****     }
 105:tmk_core/common/util.c ****     return n;
 106:tmk_core/common/util.c **** }
 417               		.loc 1 106 0
 418 0094 822F      		mov r24,r18
 419               	/* epilogue start */
 420 0096 FF90      		pop r15
 421 0098 EF90      		pop r14
 422 009a DF90      		pop r13
 423 009c CF90      		pop r12
 424 009e 0895      		ret
 425               		.cfi_endproc
 426               	.LFE5:
 428               		.section	.text.bitrev,"ax",@progbits
 429               	.global	bitrev
 431               	bitrev:
 432               	.LFB6:
 107:tmk_core/common/util.c **** 
 108:tmk_core/common/util.c **** __attribute__((noinline)) uint8_t bitrev(uint8_t bits) {
 433               		.loc 1 108 0
 434               		.cfi_startproc
 435               	.LVL52:
 436               	/* prologue: function */
 437               	/* frame size = 0 */
 438               	/* stack size = 0 */
 439               	.L__stack_usage = 0
 109:tmk_core/common/util.c ****     bits = (bits & 0x0f) << 4 | (bits & 0xf0) >> 4;
 440               		.loc 1 109 0
 441 0000 8295      		swap r24
 442               	.LVL53:
 110:tmk_core/common/util.c ****     bits = (bits & 0b00110011) << 2 | (bits & 0b11001100) >> 2;
 443               		.loc 1 110 0
 444 0002 982F      		mov r25,r24
 445 0004 9373      		andi r25,lo8(51)
 446 0006 44E0      		ldi r20,lo8(4)
 447 0008 949F      		mul r25,r20
 448 000a 9001      		movw r18,r0
 449 000c 1124      		clr __zero_reg__
 450 000e 8C7C      		andi r24,lo8(-52)
 451               	.LVL54:
 452 0010 8695      		lsr r24
 453 0012 8695      		lsr r24
 454 0014 282B      		or r18,r24
 455               	.LVL55:
 111:tmk_core/common/util.c ****     bits = (bits & 0b01010101) << 1 | (bits & 0b10101010) >> 1;
 456               		.loc 1 111 0
 457 0016 822F      		mov r24,r18
 458 0018 8575      		andi r24,lo8(85)
 459 001a 880F      		lsl r24
 460 001c 2A7A      		andi r18,lo8(-86)
 461               	.LVL56:
 462 001e 2695      		lsr r18
 463               	.LVL57:
 112:tmk_core/common/util.c ****     return bits;
 113:tmk_core/common/util.c **** }
 464               		.loc 1 113 0
 465 0020 822B      		or r24,r18
 466               	.LVL58:
 467 0022 0895      		ret
 468               		.cfi_endproc
 469               	.LFE6:
 471               		.section	.text.bitrev16,"ax",@progbits
 472               	.global	bitrev16
 474               	bitrev16:
 475               	.LFB7:
 114:tmk_core/common/util.c **** 
 115:tmk_core/common/util.c **** uint16_t bitrev16(uint16_t bits) {
 476               		.loc 1 115 0
 477               		.cfi_startproc
 478               	.LVL59:
 479 0000 CF93      		push r28
 480               	.LCFI8:
 481               		.cfi_def_cfa_offset 3
 482               		.cfi_offset 28, -2
 483 0002 DF93      		push r29
 484               	.LCFI9:
 485               		.cfi_def_cfa_offset 4
 486               		.cfi_offset 29, -3
 487               	/* prologue: function */
 488               	/* frame size = 0 */
 489               	/* stack size = 2 */
 490               	.L__stack_usage = 2
 491 0004 D92F      		mov r29,r25
 116:tmk_core/common/util.c ****     bits = bitrev(bits & 0x00ff) << 8 | bitrev((bits & 0xff00) >> 8);
 492               		.loc 1 116 0
 493 0006 0E94 0000 		call bitrev
 494               	.LVL60:
 495 000a C82F      		mov r28,r24
 496 000c 8D2F      		mov r24,r29
 497 000e 0E94 0000 		call bitrev
 498               	.LVL61:
 117:tmk_core/common/util.c ****     return bits;
 499               		.loc 1 117 0
 500 0012 2C2F      		mov r18,r28
 501 0014 30E0      		ldi r19,0
 502 0016 322F      		mov r19,r18
 503 0018 2227      		clr r18
 118:tmk_core/common/util.c **** }
 504               		.loc 1 118 0
 505 001a A901      		movw r20,r18
 506 001c 482B      		or r20,r24
 507 001e CA01      		movw r24,r20
 508               	.LVL62:
 509               	/* epilogue start */
 510 0020 DF91      		pop r29
 511 0022 CF91      		pop r28
 512 0024 0895      		ret
 513               		.cfi_endproc
 514               	.LFE7:
 516               		.section	.text.bitrev32,"ax",@progbits
 517               	.global	bitrev32
 519               	bitrev32:
 520               	.LFB8:
 119:tmk_core/common/util.c **** 
 120:tmk_core/common/util.c **** uint32_t bitrev32(uint32_t bits) {
 521               		.loc 1 120 0
 522               		.cfi_startproc
 523               	.LVL63:
 524 0000 CF92      		push r12
 525               	.LCFI10:
 526               		.cfi_def_cfa_offset 3
 527               		.cfi_offset 12, -2
 528 0002 DF92      		push r13
 529               	.LCFI11:
 530               		.cfi_def_cfa_offset 4
 531               		.cfi_offset 13, -3
 532 0004 EF92      		push r14
 533               	.LCFI12:
 534               		.cfi_def_cfa_offset 5
 535               		.cfi_offset 14, -4
 536 0006 FF92      		push r15
 537               	.LCFI13:
 538               		.cfi_def_cfa_offset 6
 539               		.cfi_offset 15, -5
 540 0008 0F93      		push r16
 541               	.LCFI14:
 542               		.cfi_def_cfa_offset 7
 543               		.cfi_offset 16, -6
 544 000a 1F93      		push r17
 545               	.LCFI15:
 546               		.cfi_def_cfa_offset 8
 547               		.cfi_offset 17, -7
 548 000c CF93      		push r28
 549               	.LCFI16:
 550               		.cfi_def_cfa_offset 9
 551               		.cfi_offset 28, -8
 552 000e DF93      		push r29
 553               	.LCFI17:
 554               		.cfi_def_cfa_offset 10
 555               		.cfi_offset 29, -9
 556               	/* prologue: function */
 557               	/* frame size = 0 */
 558               	/* stack size = 8 */
 559               	.L__stack_usage = 8
 560 0010 6B01      		movw r12,r22
 561 0012 7C01      		movw r14,r24
 121:tmk_core/common/util.c ****     bits = (uint32_t)bitrev16(bits & 0x0000ffff) << 16 | bitrev16((bits & 0xffff0000) >> 16);
 562               		.loc 1 121 0
 563 0014 CB01      		movw r24,r22
 564 0016 0E94 0000 		call bitrev16
 565               	.LVL64:
 566 001a EC01      		movw r28,r24
 567 001c C701      		movw r24,r14
 568 001e 0E94 0000 		call bitrev16
 569               	.LVL65:
 570 0022 AC01      		movw r20,r24
 571               	.LVL66:
 122:tmk_core/common/util.c ****     return bits;
 572               		.loc 1 122 0
 573 0024 CE01      		movw r24,r28
 574 0026 A0E0      		ldi r26,0
 575 0028 B0E0      		ldi r27,0
 576 002a DC01      		movw r26,r24
 577 002c 9927      		clr r25
 578 002e 8827      		clr r24
 579 0030 60E0      		ldi r22,0
 580 0032 70E0      		ldi r23,0
 581 0034 8C01      		movw r16,r24
 582 0036 9D01      		movw r18,r26
 583 0038 042B      		or r16,r20
 584 003a 152B      		or r17,r21
 585 003c 262B      		or r18,r22
 586 003e 372B      		or r19,r23
 587 0040 C901      		movw r24,r18
 588 0042 B801      		movw r22,r16
 589               	/* epilogue start */
 123:tmk_core/common/util.c **** }
 590               		.loc 1 123 0
 591 0044 DF91      		pop r29
 592 0046 CF91      		pop r28
 593               	.LVL67:
 594 0048 1F91      		pop r17
 595 004a 0F91      		pop r16
 596 004c FF90      		pop r15
 597 004e EF90      		pop r14
 598 0050 DF90      		pop r13
 599 0052 CF90      		pop r12
 600 0054 0895      		ret
 601               		.cfi_endproc
 602               	.LFE8:
 604               		.text
 605               	.Letext0:
 606               		.file 2 "/usr/lib/avr/include/stdint.h"
DEFINED SYMBOLS
                            *ABS*:0000000000000000 util.c
     /tmp/ccXJWlLu.s:2      *ABS*:000000000000003e __SP_H__
     /tmp/ccXJWlLu.s:3      *ABS*:000000000000003d __SP_L__
     /tmp/ccXJWlLu.s:4      *ABS*:000000000000003f __SREG__
     /tmp/ccXJWlLu.s:5      *ABS*:0000000000000000 __tmp_reg__
     /tmp/ccXJWlLu.s:6      *ABS*:0000000000000001 __zero_reg__
     /tmp/ccXJWlLu.s:13     .text.bitpop:0000000000000000 bitpop
     /tmp/ccXJWlLu.s:49     .text.bitpop16:0000000000000000 bitpop16
     /tmp/ccXJWlLu.s:86     .text.bitpop32:0000000000000000 bitpop32
     /tmp/ccXJWlLu.s:153    .text.biton:0000000000000000 biton
     /tmp/ccXJWlLu.s:208    .text.biton16:0000000000000000 biton16
     /tmp/ccXJWlLu.s:288    .text.biton32:0000000000000000 biton32
     /tmp/ccXJWlLu.s:431    .text.bitrev:0000000000000000 bitrev
     /tmp/ccXJWlLu.s:474    .text.bitrev16:0000000000000000 bitrev16
     /tmp/ccXJWlLu.s:519    .text.bitrev32:0000000000000000 bitrev32

NO UNDEFINED SYMBOLS
